6128	440
6320	440
6650	440
6758	440
7103	440
7318	440
31862	440
28051	441
28100	441
6637	442
6741	442
10570	442
31840	442
7157	443
6907	446
10046	446
28748	446
28220	447
28320	447
29462	447
18010	450
6975	454
8935	455
17555	455
17993	467
7479	474
1184	480
43016	480
6839	485
41112	485
8221	494
17966	494
49015	512
2248	514
2264	519
4794	521
17939	521
1152	526
42844	526
48964	532
6773	535
39968	540
17912	548
36276	560
17885	575
36304	588
17858	602
36312	608
37444	608
49091	623
36320	628
17831	629
6669	639
26381	645
26898	645
36328	648
17804	656
37884	664
36288	668
37504	668
17777	683
6192	696
6384	696
28117	697
36336	704
37544	708
17750	710
6618	722
20312	724
14831	725
14851	729
36344	732
17723	737
38876	740
10106	754
10136	756
17696	764
463	768
49007	768
21671	770
2272	775
48980	776
14768	790
17669	791
37648	812
17642	818
6459	825
6489	835
6448	836
17616	844
36352	856
38692	895
4612	906
17540	928
37768	932
4439	936
4622	943
25290	946
8098	950
7288	952
7473	952
7670	952
37788	952
8417	966
37808	972
36360	980
12984	991
4706	1014
4786	1015
29585	1024
2280	1031
37536	1038
37639	1038
38067	1038
40564	1038
40759	1038
41616	1038
41923	1038
41972	1038
42256	1038
42476	1038
42695	1038
42999	1038
37876	1040
37264	1061
25206	1062
8056	1090
8248	1090
8580	1090
8894	1090
4547	1092
12877	1098
4489	1123
19864	1146
40776	1159
4587	1160
19847	1163
36368	1168
38008	1172
19417	1183
4425	1187
19820	1190
12861	1198
4097	1203
8429	1205
7451	1208
7568	1208
19795	1215
511	1216
523	1216
29482	1228
29726	1228
36376	1228
4374	1238
19770	1240
38076	1240
4449	1244
29489	1248
29496	1248
29508	1248
29600	1260
19745	1265
36384	1268
37775	1279
37795	1279
38175	1279
38195	1279
499	1280
48967	1280
4573	1282
2288	1287
19720	1290
15830	1306
19695	1315
38168	1332
19670	1340
15784	1352
38188	1352
4525	1357
19645	1365
36392	1372
38208	1372
21045	1378
19620	1390
19595	1415
38272	1436
19570	1440
4385	1443
7761	1464
19545	1465
19520	1490
36400	1492
48972	1496
38336	1500
36408	1512
19492	1518
36416	1532
36931	1535
48975	1536
2296	1543
6401	1548
38416	1580
22842	1586
41484	1587
36424	1600
23046	1606
19405	1609
38500	1664
1950	1686
12558	1689
6176	1720
6368	1720
38564	1728
36432	1732
6990	1735
7076	1735
7257	1735
7401	1735
7420	1735
22946	1738
6213	1740
22720	1740
11768	1759
19891	1771
38624	1788
36911	1791
823	1792
2304	1799
36440	1800
11998	1801
22681	1811
22774	1814
49100	1824
20612	1838
5961	1843
11438	1848
38684	1848
11678	1849
22669	1855
22758	1862
36448	1892
22657	1899
36456	1912
49084	1916
6021	1932
36464	1932
11658	1961
5986	1967
11162	1977
12442	1985
6084	1991
6276	1991
36472	1996
49044	1996
11374	1997
11018	2018
16757	2043
38880	2044
36891	2047
539	2048
543	2048
1999	2048
2007	2048
2015	2048
2023	2048
2031	2048
2039	2048
2047	2048
2055	2048
2063	2048
2071	2048
2079	2048
2087	2048
2095	2048
2103	2048
2111	2048
2119	2048
2127	2048
2135	2048
2143	2048
2151	2048
2159	2048
2167	2048
2175	2048
2183	2048
2191	2048
2199	2048
2207	2048
2215	2048
2223	2048
2231	2048
2239	2048
49059	2048
2312	2055
36480	2060
11136	2081
11024	2084
12326	2097
12315	2108
39980	2119
36488	2140
4134	2152
4103	2211
12300	2223
36496	2224
8138	2238
49036	2252
36504	2288
2320	2311
36512	2348
15131	2401
36520	2408
16662	2445
16605	2500
14962	2506
16597	2508
18829	2514
36267	2560
48983	2560
2328	2567
36528	2604
36212	2608
5441	2651
36244	2675
15769	2717
39624	2788
16586	2809
36871	2815
515	2816
1479	2816
48991	2816
2336	2823
17023	2845
42367	2881
37123	2885
37247	2885
42944	2886
39852	3016
19429	3030
1199	3072
2344	3079
8146	3080
39936	3100
7346	3108
9539	3108
10957	3108
30196	3108
39972	3136
4113	3235
19131	3273
41751	3327
535	3328
5491	3337
36536	3348
579	3392
1934	3433
1982	3433
18509	3549
4534	3558
36544	3576
4324	3629
36552	3660
40516	3680
36560	3696
40572	3736
10944	3751
992	3800
38888	3800
40768	3932
27330	4037
31568	4039
7502	4095
7604	4095
7993	4095
8462	4095
583	4096
1923	4096
1943	4096
1971	4096
7833	4096
7887	4096
8007	4096
8134	4096
8468	4096
30930	4096
36859	4096
36879	4096
36899	4096
36919	4096
37783	4096
38183	4096
41619	4096
41639	4096
41659	4096
41679	4096
41699	4096
41719	4096
41739	4096
42603	4096
48995	4096
42811	4100
42063	4107
40508	4110
41095	4110
22496	4112
49164	4118
37763	4128
11086	4132
11298	4132
22503	4132
49168	4134
22514	4136
22548	4144
38163	4144
49172	4150
49176	4166
49180	4182
49184	4198
4150	4200
49188	4214
49192	4230
36568	4240
49196	4246
16041	4248
4129	4259
49200	4262
41104	4268
49204	4278
49208	4294
36576	4296
935	4352
1231	4352
1343	4352
1391	4352
49027	4352
49039	4352
18019	4362
41296	4460
36584	4492
41631	4607
41651	4607
41731	4607
803	4608
819	4608
835	4608
851	4608
867	4608
883	4608
899	4608
915	4608
931	4608
947	4608
963	4608
979	4608
49047	4608
41476	4640
41548	4712
41624	4788
41644	4808
17564	4810
36592	4828
41664	4828
41684	4848
49055	4864
41704	4868
41724	4888
41744	4908
41764	4928
41788	4952
41832	4996
36600	5020
41896	5060
41932	5096
459	5120
1279	5120
41759	5120
49023	5120
41980	5144
10216	5156
11149	5156
13385	5156
13629	5156
13809	5156
14069	5156
14857	5156
42020	5184
36296	5200
17156	5232
42068	5232
42088	5252
36608	5272
4145	5283
42152	5316
36616	5348
36624	5368
41671	5375
587	5376
48999	5376
36632	5388
36640	5408
36648	5428
42264	5428
36656	5448
36664	5468
36672	5488
36680	5512
42376	5540
36688	5556
36696	5620
591	5632
1095	5632
49063	5632
42484	5648
36704	5656
36712	5704
36720	5744
42580	5744
42608	5772
36728	5792
42628	5792
36736	5812
7334	5816
42704	5868
36744	5876
595	5888
49031	5888
2244	5974
42816	5980
36752	5988
42836	6000
36760	6100
42952	6116
495	6144
42575	6148
43008	6172
36975	6178
6473	6180
36768	6208
4166	6248
16122	6266
36776	6304
4161	6307
36784	6332
36792	6352
36987	6399
1119	6400
36800	6428
36808	6540
36816	6560
41711	6655
36824	6676
36832	6732
611	6912
615	7168
1191	7168
1455	7168
36863	7168
6481	7204
14911	7204
15020	7204
29768	7204
29997	7204
30552	7204
30674	7204
15152	7215
15168	7229
4177	7331
39943	7423
14755	7658
619	7680
1424	7750
39632	7750
623	7936
49107	8047
36939	8192
39931	8192
41891	8192
13491	8240
13315	8244
14211	8248
14003	8252
13931	8256
12139	8260
13763	8264
13563	8268
14379	8272
14659	8276
14467	8280
4182	8296
4193	8355
1215	8448
41691	8703
627	8704
999	8704
1484	9056
37499	9216
41975	9216
26430	9220
1100	9296
4209	9379
631	9472
1404	9520
4866	9908
5352	9908
5928	9908
5943	9908
6009	9908
6184	9908
6200	9908
6376	9908
6392	9908
6658	9908
7305	9908
7462	9908
7576	9908
7635	9908
7642	9908
7770	9908
7801	9908
8085	9908
8169	9908
8410	9908
8650	9908
8761	9908
8826	9908
9017	9908
9178	9908
9554	9908
9610	9908
9784	9908
9877	9908
10005	9908
10488	9908
10536	9908
10610	9908
10983	9908
11858	9908
12153	9908
12601	9908
12906	9908
13065	9908
13577	9908
13673	9908
13754	9908
13849	9908
13945	9908
14090	9908
14121	9908
14202	9908
14282	9908
14313	9908
14393	9908
14713	9908
15522	9908
15576	9908
15975	9908
16072	9908
16786	9908
16887	9908
16951	9908
17058	9908
17112	9908
17177	9908
17234	9908
17495	9908
18040	9908
18455	9908
18535	9908
18855	9908
19450	9908
20338	9908
20633	9908
21066	9908
21369	9908
22088	9908
22471	9908
22984	9908
23080	9908
23122	9908
23176	9908
23208	9908
23240	9908
23272	9908
23304	9908
23336	9908
23368	9908
23400	9908
23432	9908
23464	9908
23496	9908
23528	9908
23560	9908
23592	9908
23624	9908
23656	9908
23688	9908
23720	9908
23752	9908
23784	9908
23816	9908
23848	9908
23880	9908
23912	9908
23944	9908
23976	9908
24008	9908
24040	9908
24072	9908
24104	9908
24136	9908
24168	9908
24200	9908
24232	9908
24264	9908
24296	9908
24328	9908
24360	9908
24392	9908
24424	9908
24456	9908
24488	9908
24520	9908
24552	9908
24584	9908
24616	9908
24648	9908
24680	9908
24840	9908
24872	9908
24904	9908
24936	9908
24968	9908
25000	9908
25032	9908
25064	9908
25096	9908
25192	9908
25242	9908
25321	9908
25400	9908
25432	9908
25464	9908
25496	9908
25528	9908
25560	9908
25592	9908
25624	9908
25656	9908
25688	9908
25720	9908
25752	9908
25784	9908
25816	9908
25848	9908
25880	9908
25912	9908
25944	9908
25976	9908
26008	9908
26040	9908
26072	9908
26104	9908
26136	9908
26168	9908
26200	9908
26232	9908
26264	9908
27298	9908
27666	9908
27673	9908
27698	9908
27705	9908
27733	9908
27778	9908
27785	9908
27818	9908
27842	9908
27849	9908
28072	9908
28311	9908
28330	9908
28394	9908
28489	9908
28712	9908
29266	9908
29305	9908
29383	9908
29736	9908
29816	9908
29955	9908
29962	9908
30132	9908
30281	9908
30329	9908
30370	9908
30378	9908
30410	9908
30506	9908
30522	9908
30599	9908
30665	9908
30725	9908
30754	9908
30777	9908
30793	9908
31002	9908
31176	9908
31386	9908
31433	9908
31497	9908
31767	9908
31834	9908
635	10240
41783	10240
17520	10300
4198	10344
4225	10403
639	10496
1247	10496
1319	10496
17481	10691
42615	10751
988	10912
643	11008
1327	11008
41771	11263
41927	11264
42015	11275
4241	11427
1271	12032
1927	12288
36883	12288
37867	12302
13411	12380
13659	12380
13835	12380
14107	12380
14299	12380
14563	12380
4214	12392
4257	12451
15080	12740
14947	12873
14891	12929
37511	13055
15049	13123
40511	13312
42947	13312
17002	13330
4273	13475
16742	13590
8744	13732
16555	13777
16527	13805
1399	14080
16018	14314
1055	14336
1311	14336
38559	14336
38619	14340
37439	14347
4230	14440
4289	14499
13267	14553
15746	14586
42075	14591
42823	14591
1007	14592
1135	14592
13195	14625
1420	14720
38015	14847
41903	14847
42959	14847
13232	14940
13162	15010
1079	15360
38203	15360
38495	15360
42083	15360
38267	15364
41827	15364
30580	15740
32874	16128
32878	16256
36262	16313
37803	16384
38003	16384
13043	16476
4246	16488
24760	16515
5870	16606
5816	16660
5789	16687
11121	16699
5762	16714
5735	16741
11054	16766
5708	16768
5681	16795
5654	16822
5627	16849
40523	16895
5580	16896
5533	16943
5390	17086
5367	17109
5248	17228
5137	17339
5116	17360
5083	17393
1351	17408
36903	17408
5056	17420
5024	17452
10878	17454
41471	17488
12836	17496
10320	17548
4891	17585
36279	17664
4759	17717
31402	17752
10090	17778
4691	17785
12543	17789
10061	17791
10526	17806
31337	17817
4654	17822
10478	17854
12474	17858
4509	17967
4464	18012
12254	18078
30806	18347
11973	18359
1263	18432
41543	18432
42623	18432
4262	18536
30539	18615
42587	18687
839	18688
11633	18699
30155	18999
29979	19175
29755	19399
38331	19460
29476	19678
5107	19689
1439	19968
34832	20055
5047	20085
8812	20192
39859	20223
807	20480
38411	20480
39847	20480
4278	20584
8393	20611
27928	21226
27878	21275
4974	21326
5298	21498
43003	21504
1415	22016
1447	22272
26811	22343
1436	22480
1431	22528
36923	22528
38071	22528
1452	22560
4294	22632
1407	22784
26315	22839
38423	23039
42479	23552
25144	24010
1175	24320
24808	24346
24728	24426
49019	24576
11214	24612
11385	24612
11710	24612
12046	24612
12146	24612
12374	24612
12614	24612
12918	24612
13058	24612
13322	24612
13418	24612
13498	24612
13570	24612
13666	24612
13770	24612
13842	24612
13938	24612
14010	24612
14114	24612
14218	24612
14306	24612
14386	24612
14474	24612
14570	24612
14666	24612
5501	24639
5470	24670
5843	24681
5403	24737
5330	25194
6073	25251
5881	25320
32869	25455
4561	25579
37539	25600
4477	25663
4413	25727
4362	25778
32815	25959
1111	26112
4403	26121
22600	26554
37451	26623
4117	26624
42371	26624
10283	26660
22488	26666
1372	27232
42491	27391
38279	27647
1340	27648
36943	27648
42147	27648
42259	27648
42699	27648
1388	27680
1276	27712
1212	27744
1116	27792
1228	27824
1196	27856
1324	27872
1036	27920
32778	28015
1143	28160
1164	28176
1004	28336
1084	28400
49074	28671
42831	28672
1468	28720
1068	29008
1308	29248
35295	29285
1292	29312
37643	29696
1020	29744
37815	29951
38571	29951
38631	29951
903	29952
1260	30256
1244	30336
1356	30528
37127	30720
1052	30736
37003	30752
1148	30800
1487	30976
38215	31231
1239	31232
1132	31328
1180	31392
30564	32128
5854	32232
37871	32768
6537	32804
11582	32804
11665	32804
11915	32804
12005	32804
12565	32804
12694	32804
12720	32804
12868	32804
13731	32804
13907	32804
14183	32804
29647	32804
20138	32910
1063	33024
12713	33060
11619	33068
29099	33156
12510	33828
49216	34331
49220	34344
49224	34360
49228	34372
49232	34388
49236	34401
49240	34416
14726	34427
49244	34428
49248	34441
49252	34455
49256	34465
49260	34480
49264	34487
49268	34499
49272	34508
49276	34520
49280	34529
49284	34548
49288	34564
49292	34576
49296	34595
49300	34611
49304	34631
49308	34648
49312	34666
49316	34681
31636	34694
49320	34700
49324	34716
49328	34736
49332	34755
49336	34768
1207	34816
4860	35049
27454	35206
28563	35206
28850	35206
10706	35214
17321	35214
18322	35214
18640	35214
18960	35214
19248	35214
20440	35214
42635	35327
5217	35460
20871	35470
38507	35583
11962	36100
1295	36352
7810	36584
42095	36607
1335	36864
36979	36864
6545	36900
29655	36900
29575	36996
16331	37006
15378	37262
37655	37375
11169	37508
10923	38231
31620	38790
20115	38798
919	38912
10027	39127
5827	39144
37551	39167
1167	39168
28547	39302
28834	39302
17305	39310
18624	39310
18944	39310
19232	39310
20424	39310
41839	39423
10689	39566
9530	39624
9304	39850
9192	39962
9064	40090
8843	40311
27434	40326
22646	40327
8776	40378
6553	40996
6821	40996
7009	40996
7143	40996
7441	40996
29663	40996
8104	41050
7977	41177
7817	41337
5194	41347
7662	41492
7592	41562
8552	41605
7485	41669
17037	41860
29782	41860
20846	41870
42383	41983
18295	42126
6406	42747
31604	42886
16308	42894
6219	42935
6027	43127
15355	43150
5992	43162
791	43264
28818	43395
28531	43398
17289	43406
7275	43908
10672	43918
37007	44032
22763	44166
15563	44228
14735	44268
8860	44420
1367	44544
20092	44686
4330	44824
6561	45092
29671	45092
41291	45152
18601	45198
18921	45198
19209	45198
20401	45198
27414	45446
5800	46056
983	46336
7085	46469
10237	46724
31589	46726
5914	46733
7162	46733
7754	46733
9098	46733
9226	46733
9426	46733
9730	46733
9754	46733
10506	46733
11930	46733
12362	46733
12738	46733
12794	46733
15554	46733
16474	46733
27634	46733
28298	46733
28354	46733
28426	46733
28778	46733
29338	46733
29890	46733
29906	46733
30138	46733
30178	46733
30250	46733
30306	46733
30362	46733
30450	46733
30570	46733
30914	46733
30938	46733
31210	46733
31242	46733
37015	47103
37139	47103
37251	47104
5481	47236
7030	47236
28516	47236
28803	47236
5453	47492
41099	48128
8063	48259
8884	48259
8128	48261
8262	48261
8336	48261
8473	48261
8589	48261
8603	48261
8039	48267
8915	48267
9027	48267
8659	48269
8689	48269
10655	48270
20821	48270
8240	48285
8572	48285
8971	48299
1255	48384
11005	48773
16285	48782
49152	48944
17267	49028
15332	49038
18268	49038
40567	49152
49012	49152
38679	49156
2252	49164
2260	49168
2268	49172
2276	49176
2284	49180
2292	49184
2300	49188
6569	49188
14810	49188
15137	49188
15174	49188
15225	49188
15247	49188
15270	49188
15293	49188
15316	49188
15339	49188
15362	49188
15385	49188
15404	49188
15423	49188
15442	49188
15461	49188
15480	49188
15499	49188
15586	49188
15798	49188
16066	49188
16128	49188
16178	49188
16200	49188
16223	49188
16246	49188
16269	49188
16292	49188
16315	49188
16338	49188
16357	49188
16376	49188
16395	49188
16414	49188
16433	49188
16452	49188
16618	49188
16778	49188
17052	49188
17162	49188
17223	49188
17274	49188
17570	49188
17622	49188
17648	49188
17675	49188
17702	49188
17729	49188
17756	49188
17783	49188
17810	49188
17837	49188
17864	49188
17891	49188
17918	49188
17945	49188
17972	49188
17999	49188
18025	49188
18087	49188
18113	49188
18140	49188
18167	49188
18194	49188
18221	49188
18248	49188
18275	49188
18302	49188
18329	49188
18352	49188
18375	49188
18398	49188
18421	49188
18444	49188
18474	49188
18524	49188
18582	49188
18608	49188
18844	49188
18902	49188
18928	49188
19137	49188
19190	49188
19216	49188
19435	49188
19498	49188
19526	49188
19551	49188
19576	49188
19601	49188
19626	49188
19651	49188
19676	49188
19701	49188
19726	49188
19751	49188
19776	49188
19801	49188
19826	49188
19853	49188
19906	49188
19958	49188
19984	49188
20007	49188
20030	49188
20053	49188
20076	49188
20099	49188
20122	49188
20145	49188
20164	49188
20183	49188
20202	49188
20221	49188
20240	49188
20261	49188
20327	49188
20382	49188
20408	49188
20618	49188
20679	49188
20703	49188
20728	49188
20753	49188
20778	49188
20803	49188
20828	49188
20853	49188
20878	49188
20899	49188
20920	49188
20941	49188
20962	49188
20983	49188
21004	49188
21051	49188
21107	49188
21358	49188
21415	49188
21441	49188
21677	49188
21731	49188
21753	49188
21776	49188
21799	49188
21822	49188
21845	49188
21868	49188
21891	49188
21914	49188
21937	49188
21960	49188
21983	49188
22006	49188
22029	49188
22073	49188
22131	49188
2308	49192
2316	49196
2324	49200
2332	49204
2340	49208
1996	49216
2004	49220
2012	49224
2020	49228
2028	49232
2036	49236
2044	49240
2052	49244
2060	49248
2068	49252
2076	49256
2084	49260
2092	49264
2100	49268
2108	49272
2116	49276
2124	49280
4352	49283
5559	49283
5606	49283
26440	49283
2132	49284
2140	49288
2148	49292
2156	49296
4663	49299
4675	49299
4717	49299
4879	49299
4953	49299
5125	49299
5174	49299
5206	49299
5229	49299
5277	49299
2164	49300
2172	49304
2180	49308
2188	49312
2196	49316
2204	49320
2212	49324
2220	49328
2228	49332
2236	49336
26949	49339
