4096	4096	4108
4108	4108	4112
4112	4112	4118
4118	4118	4128
4128	4128	4134
4134	4134	4144
4144	4144	4150
4150	4150	4160
4160	4160	4166
4166	4166	4176
4176	4176	4182
4182	4182	4192
4192	4192	4198
4198	4198	4208
4208	4208	4214
4214	4214	4224
4224	4224	4230
4230	4230	4240
4240	4240	4246
4246	4246	4256
4256	4256	4262
4262	4262	4272
4272	4272	4278
4278	4278	4288
4288	4288	4294
4294	4294	4304
4304	4304	4328
4328	4328	4366
4366	4366	4378
4378	4378	4389
4389	4389	4407
4407	4407	4408
4408	4408	4417
4417	4417	4429
4429	4429	4443
4443	4443	4453
4453	4453	4468
4468	4468	4481
4481	4481	4493
4493	4493	4513
4513	4513	4529
4529	4529	4538
4538	4538	4551
4551	4551	4565
4565	4565	4577
4577	4577	4591
4591	4591	4616
4616	4616	4626
4626	4626	4640
4640	4640	4658
4658	4658	4662
4662	4662	4668
4668	4668	4680
4680	4680	4695
4695	4695	4710
4710	4710	4722
4722	4722	4742
4742	4742	4763
4763	4763	4784
4784	4784	4790
4790	4790	4798
4798	4798	4865
4865	4865	4872
4872	4872	4884
4884	4884	4886
4886	4886	4895
4895	4895	4898
4898	4898	4911
4911	4911	4924
4924	4924	4937
4937	4937	4946
4946	4946	4958
4958	4958	4971
4971	4971	4978
4978	4978	4981
4981	4981	5001
5001	5001	5014
5014	5014	5028
5028	5028	5040
5040	5040	5051
5051	5051	5060
5060	5060	5073
5073	5073	5087
5087	5087	5100
5100	5100	5111
5111	5111	5120
5120	5120	5130
5130	5130	5141
5141	5141	5154
5154	5154	5167
5167	5167	5179
5179	5179	5181
5181	5181	5199
5199	5199	5211
5211	5211	5216
5216	5216	5222
5222	5222	5234
5234	5234	5252
5252	5252	5260
5260	5260	5264
5264	5264	5282
5282	5282	5302
5302	5302	5319
5319	5319	5334
5334	5334	5351
5351	5351	5360
5360	5360	5371
5371	5371	5379
5379	5379	5394
5394	5394	5407
5407	5407	5419
5419	5419	5433
5433	5433	5445
5445	5445	5458
5458	5458	5474
5474	5474	5486
5486	5486	5495
5495	5495	5505
5505	5505	5513
5513	5513	5522
5522	5522	5537
5537	5537	5569
5569	5569	5584
5584	5584	5616
5616	5616	5631
5631	5631	5643
5643	5643	5658
5658	5658	5670
5670	5670	5685
5685	5685	5697
5697	5697	5712
5712	5712	5724
5724	5724	5739
5739	5739	5751
5751	5751	5761
5761	5761	5766
5766	5766	5778
5778	5778	5781
5781	5781	5793
5793	5793	5805
5805	5805	5820
5820	5820	5832
5832	5832	5847
5847	5847	5859
5859	5859	5874
5874	5874	5886
5886	5886	5891
5891	5891	5904
5904	5904	5914
5914	5914	5920
5920	5920	5927
5927	5927	5936
5936	5936	5941
5941	5941	5942
5942	5942	5952
5952	5952	5957
5957	5957	5965
5965	5965	5970
5984	5984	5990
5990	5990	6008
6008	6008	6016
6016	6016	6025
6025	6025	6038
6038	6038	6046
6046	6046	6050
6050	6050	6055
6055	6055	6077
6077	6077	6095
6095	6095	6100
6100	6100	6104
6104	6104	6112
6112	6112	6126
6128	6128	6133
6133	6133	6141
6141	6141	6144
6144	6144	6152
6152	6152	6162
6162	6162	6172
6172	6172	6176
6176	6176	6183
6183	6183	6192
6192	6192	6199
6199	6199	6208
6208	6208	6217
6217	6217	6238
6238	6238	6242
6242	6242	6247
6247	6247	6269
6269	6269	6287
6287	6287	6292
6292	6292	6296
6296	6296	6304
6304	6304	6318
6320	6320	6325
6325	6325	6333
6333	6333	6336
6336	6336	6344
6344	6344	6354
6354	6354	6364
6364	6364	6368
6368	6368	6375
6375	6375	6384
6384	6384	6391
6391	6391	6400
6400	6400	6405
6405	6405	6435
6435	6435	6452
6452	6452	6463
6463	6463	6493
6493	6493	6550
6550	6550	6622
6622	6622	6657
6657	6657	6664
6664	6664	6673
6673	6673	6683
6683	6683	6686
6686	6686	6697
6697	6697	6702
6702	6702	6715
6715	6715	6719
6719	6719	6730
6730	6730	6746
6746	6746	6754
6754	6754	6765
6765	6765	6768
6768	6768	6777
6777	6777	6787
6787	6787	6790
6790	6790	6801
6801	6801	6806
6806	6806	6819
6819	6819	6826
6826	6826	6843
6843	6843	6854
6854	6854	6896
6896	6896	6911
6911	6911	6962
6962	6962	6979
6979	6979	7020
7020	7020	7035
7035	7035	7069
7069	7069	7090
7090	7090	7112
7112	7112	7120
7120	7120	7122
7122	7122	7130
7130	7130	7141
7141	7141	7168
7168	7168	7176
7176	7176	7178
7178	7178	7186
7186	7186	7197
7197	7197	7206
7206	7206	7219
7219	7219	7250
7250	7250	7271
7271	7271	7280
7280	7280	7285
7285	7285	7288
7288	7288	7293
7293	7293	7304
7304	7304	7312
7312	7312	7328
7328	7328	7344
7344	7344	7357
7357	7357	7366
7366	7366	7379
7379	7379	7420
7420	7420	7433
7433	7433	7451
7451	7451	7461
7461	7461	7472
7472	7472	7483
7483	7483	7500
7500	7500	7542
7542	7542	7550
7550	7550	7558
7558	7558	7563
7563	7563	7568
7568	7568	7575
7575	7575	7584
7584	7584	7590
7590	7590	7623
7623	7623	7634
7634	7634	7648
7648	7648	7660
7660	7660	7670
7670	7670	7677
7677	7677	7694
7694	7694	7703
7703	7703	7717
7717	7717	7727
7727	7727	7734
7734	7734	7742
7742	7742	7746
7746	7746	7748
7748	7748	7750
7750	7750	7754
7754	7754	7760
7760	7760	7769
7769	7769	7776
7776	7776	7784
7784	7784	7800
7800	7800	7808
7808	7808	7815
7815	7815	7847
7847	7847	7857
7857	7857	7874
7874	7874	7883
7883	7883	7902
7902	7902	7910
7910	7910	7921
7921	7921	7937
7937	7937	7953
7953	7953	7957
7957	7957	7961
7961	7961	7968
7968	7968	7975
7975	7975	7999
7999	7999	8011
8011	8011	8027
8027	8027	8034
8034	8034	8073
8073	8073	8074
8074	8074	8084
8084	8084	8096
8096	8096	8102
8102	8102	8127
8127	8127	8151
8151	8151	8168
8168	8168	8176
8176	8176	8191
8191	8191	8193
8193	8193	8197
8197	8197	8202
8202	8202	8214
8214	8214	8225
8225	8225	8275
8275	8275	8280
8280	8280	8307
8307	8307	8316
8316	8316	8318
8318	8318	8335
8335	8335	8347
8347	8347	8354
8354	8354	8363
8363	8363	8369
8369	8369	8377
8377	8377	8380
8380	8380	8397
8397	8397	8409
8409	8409	8416
8416	8416	8424
8424	8424	8427
8427	8427	8434
8434	8434	8472
8472	8472	8493
8493	8493	8499
8499	8499	8504
8504	8504	8506
8506	8506	8523
8523	8523	8525
8525	8525	8529
8529	8529	8532
8532	8532	8534
8534	8534	8540
8540	8540	8546
8546	8546	8557
8557	8557	8596
8596	8596	8600
8600	8600	8610
8610	8610	8617
8617	8617	8628
8628	8628	8636
8636	8636	8649
8649	8649	8656
8656	8656	8672
8672	8672	8685
8685	8685	8688
8688	8688	8702
8702	8702	8719
8719	8719	8731
8731	8731	8748
8748	8748	8760
8760	8760	8768
8768	8768	8774
8774	8774	8800
8800	8800	8816
8816	8816	8823
8823	8823	8825
8825	8825	8832
8832	8832	8841
8841	8841	8865
8865	8865	8877
8877	8877	8906
8906	8906	8914
8914	8914	8920
8920	8920	8928
8928	8928	8934
8934	8934	8942
8942	8942	8978
8978	8978	8985
8985	8985	8994
8994	8994	9000
9000	9000	9016
9016	9016	9024
9024	9024	9036
9036	9036	9038
9038	9038	9048
9048	9048	9052
9052	9052	9056
9056	9056	9062
9062	9062	9085
9085	9085	9091
9091	9091	9098
9098	9098	9104
9104	9104	9125
9125	9125	9139
9139	9139	9144
9144	9144	9163
9163	9163	9177
9177	9177	9184
9184	9184	9190
9190	9190	9213
9213	9213	9219
9219	9219	9226
9226	9226	9232
9232	9232	9253
9253	9253	9261
9261	9261	9264
9264	9264	9283
9283	9283	9291
9291	9291	9296
9296	9296	9302
9302	9302	9332
9332	9332	9361
9361	9361	9390
9390	9390	9411
9411	9411	9417
9417	9417	9426
9426	9426	9432
9432	9432	9458
9458	9458	9472
9472	9472	9496
9496	9496	9510
9510	9510	9520
9520	9520	9528
9528	9528	9560
9560	9560	9571
9571	9571	9578
9578	9578	9585
9585	9585	9596
9596	9596	9600
9600	9600	9609
9609	9609	9616
9616	9616	9617
9617	9617	9635
9635	9635	9637
9637	9637	9639
9639	9639	9648
9648	9648	9681
9681	9681	9696
9696	9696	9713
9713	9713	9722
9722	9722	9730
9730	9730	9736
9736	9736	9754
9754	9754	9760
9760	9760	9779
9779	9779	9792
9792	9792	9806
9806	9806	9833
9833	9833	9848
9848	9848	9865
9865	9865	9868
9868	9868	9874
9874	9874	9876
9876	9876	9888
9888	9888	9913
9913	9913	9915
9915	9915	9920
9920	9920	9922
9922	9922	9924
9924	9924	9956
9956	9956	9969
9969	9969	9976
9976	9976	9993
9993	9993	9996
9996	9996	10004
10004	10004	10016
10016	10016	10025
10025	10025	10050
10050	10050	10065
10065	10065	10073
10073	10073	10079
10079	10079	10094
10094	10094	10110
10110	10110	10120
10120	10120	10126
10126	10126	10132
10132	10132	10140
10140	10140	10150
10150	10150	10160
10160	10160	10174
10176	10176	10178
10178	10178	10194
10194	10194	10224
10224	10224	10228
10228	10228	10232
10232	10232	10234
10234	10234	10242
10242	10242	10245
10245	10245	10264
10264	10264	10272
10272	10272	10296
10296	10296	10309
10309	10309	10324
10324	10324	10334
10334	10334	10360
10360	10360	10421
10421	10421	10424
10424	10424	10440
10440	10440	10461
10461	10461	10464
10464	10464	10482
10482	10482	10487
10487	10487	10496
10496	10496	10498
10498	10498	10506
10506	10506	10512
10512	10512	10530
10530	10530	10535
10535	10535	10544
10544	10544	10554
10554	10554	10566
10566	10566	10594
10594	10594	10616
10616	10616	10622
10622	10622	10626
10626	10626	10644
10644	10644	10660
10660	10660	10667
10667	10667	10677
10677	10677	10694
10694	10694	10711
10711	10711	10724
10724	10724	10737
10737	10737	10750
10750	10750	10763
10763	10763	10776
10776	10776	10789
10789	10789	10802
10802	10802	10809
10809	10809	10815
10815	10815	10828
10828	10828	10841
10841	10841	10848
10848	10848	10850
10850	10850	10861
10861	10861	10864
10864	10864	10882
10882	10882	10893
10893	10893	10896
10896	10896	10911
10911	10911	10912
10912	10912	10921
10921	10921	10948
10948	10948	10974
10974	10974	10992
10992	10992	11010
11010	11010	11022
11022	11022	11034
11034	11034	11049
11049	11049	11058
11058	11058	11073
11073	11073	11096
11096	11096	11116
11116	11116	11125
11125	11125	11140
11140	11140	11166
11166	11166	11174
11174	11174	11182
11182	11182	11196
11196	11196	11200
11200	11200	11224
11224	11224	11235
11235	11235	11242
11242	11242	11247
11247	11247	11249
11249	11249	11261
11261	11261	11272
11272	11272	11280
11280	11280	11295
11296	11296	11316
11316	11316	11320
11320	11320	11370
11370	11370	11378
11378	11378	11400
11400	11400	11411
11411	11411	11418
11418	11418	11425
11425	11425	11436
11436	11436	11442
11442	11442	11489
11489	11489	11494
11494	11494	11525
11525	11525	11528
11528	11528	11530
11530	11530	11578
11578	11578	11600
11600	11600	11617
11617	11617	11637
11637	11637	11662
11662	11662	11682
11682	11682	11704
11704	11704	11720
11720	11720	11731
11731	11731	11738
11738	11738	11745
11745	11745	11760
11760	11760	11772
11772	11772	11787
11787	11787	11823
11823	11823	11828
11828	11828	11864
11864	11864	11909
11909	11909	11936
11936	11936	11953
11953	11953	11977
11977	11977	12002
12002	12002	12018
12018	12018	12040
12040	12040	12056
12056	12056	12067
12067	12067	12074
12074	12074	12081
12081	12081	12096
12096	12096	12108
12108	12108	12120
12120	12120	12136
12136	12136	12160
12160	12160	12171
12171	12171	12178
12178	12178	12185
12185	12185	12194
12194	12194	12207
12207	12207	12246
12246	12246	12253
12253	12253	12258
12258	12258	12271
12271	12271	12304
12304	12304	12319
12319	12319	12330
12330	12330	12358
12358	12358	12368
12368	12368	12384
12384	12384	12395
12395	12395	12402
12402	12402	12409
12409	12409	12430
12430	12430	12434
12434	12434	12446
12446	12446	12466
12466	12466	12478
12478	12478	12490
12490	12490	12508
12508	12508	12539
12539	12539	12547
12547	12547	12562
12562	12562	12582
12582	12582	12608
12608	12608	12624
12624	12624	12625
12625	12625	12635
12635	12635	12642
12642	12642	12649
12649	12649	12664
12664	12664	12669
12669	12669	12711
12711	12711	12732
12732	12732	12744
12744	12744	12771
12771	12771	12780
12780	12780	12800
12800	12800	12819
12819	12819	12840
12840	12840	12865
12865	12865	12881
12881	12881	12912
12912	12912	12928
12928	12928	12932
12932	12932	12939
12939	12939	12946
12946	12946	12953
12953	12953	12968
12968	12968	12988
12988	12988	13035
13035	13035	13040
13040	13040	13072
13072	13072	13083
13083	13083	13090
13090	13090	13097
13097	13097	13138
13138	13138	13143
13143	13143	13166
13166	13166	13182
13184	13184	13187
13187	13187	13199
13199	13199	13206
13206	13206	13221
13221	13221	13236
13236	13236	13252
13252	13252	13256
13256	13256	13259
13259	13259	13271
13271	13271	13278
13278	13278	13290
13290	13290	13302
13302	13302	13312
13312	13312	13328
13328	13328	13339
13339	13339	13346
13346	13346	13353
13353	13353	13362
13362	13362	13375
13375	13375	13383
13383	13383	13400
13400	13400	13408
13408	13408	13424
13424	13424	13435
13435	13435	13442
13442	13442	13449
13449	13449	13464
13464	13464	13485
13485	13485	13488
13488	13488	13504
13504	13504	13515
13515	13515	13522
13522	13522	13529
13529	13529	13531
13531	13531	13543
13543	13543	13560
13560	13560	13584
13584	13584	13588
13588	13588	13595
13595	13595	13602
13602	13602	13609
13609	13609	13618
13618	13618	13623
13623	13623	13627
13627	13627	13648
13648	13648	13656
13656	13656	13680
13680	13680	13684
13684	13684	13686
13686	13686	13691
13691	13691	13694
13694	13694	13698
13698	13698	13705
13705	13705	13720
13720	13720	13728
13728	13728	13744
13744	13744	13753
13753	13753	13760
13760	13760	13776
13776	13776	13787
13787	13787	13794
13794	13794	13801
13801	13801	13803
13803	13803	13807
13807	13807	13824
13824	13824	13832
13832	13832	13856
13856	13856	13867
13867	13867	13874
13874	13874	13881
13881	13881	13896
13896	13896	13904
13904	13904	13920
13920	13920	13925
13925	13925	13928
13928	13928	13952
13952	13952	13963
13963	13963	13970
13970	13970	13977
13977	13977	13979
13979	13979	13991
13991	13991	14000
14000	14000	14016
14016	14016	14027
14027	14027	14030
14030	14030	14034
14034	14034	14041
14041	14041	14050
14050	14050	14063
14063	14063	14067
14067	14067	14096
14096	14096	14104
14104	14104	14128
14128	14128	14139
14139	14139	14146
14146	14146	14153
14153	14153	14168
14168	14168	14180
14180	14180	14196
14196	14196	14201
14201	14201	14208
14208	14208	14224
14224	14224	14235
14235	14235	14242
14242	14242	14249
14249	14249	14251
14251	14251	14269
14269	14269	14281
14281	14281	14288
14288	14288	14296
14296	14296	14320
14320	14320	14331
14331	14331	14338
14338	14338	14345
14345	14345	14360
14360	14360	14373
14373	14373	14376
14376	14376	14400
14400	14400	14411
14411	14411	14418
14418	14418	14425
14425	14425	14427
14427	14427	14431
14431	14431	14443
14443	14443	14457
14457	14457	14464
14464	14464	14480
14480	14480	14491
14491	14491	14498
14498	14498	14505
14505	14505	14514
14514	14514	14527
14527	14527	14531
14531	14531	14537
14537	14537	14552
14552	14552	14560
14560	14560	14576
14576	14576	14587
14587	14587	14594
14594	14594	14601
14601	14601	14606
14606	14606	14616
14616	14616	14624
14624	14624	14633
14633	14633	14635
14635	14635	14646
14646	14646	14655
14656	14656	14672
14672	14672	14683
14683	14683	14690
14690	14690	14697
14697	14697	14699
14699	14699	14712
14712	14712	14720
14720	14720	14725
14725	14725	14759
14759	14759	14772
14772	14772	14803
14803	14803	14808
14808	14808	14827
14827	14827	14835
14835	14835	14843
14843	14843	14855
14855	14855	14867
14867	14867	14882
14882	14882	14895
14895	14895	14906
14906	14906	14923
14923	14923	14938
14938	14938	14951
14951	14951	14966
14966	14966	14977
14977	14977	14982
14982	14982	14993
14993	14993	15011
15011	15011	15016
15016	15016	15037
15037	15037	15053
15053	15053	15060
15060	15060	15064
15064	15064	15067
15067	15067	15084
15084	15084	15091
15091	15091	15100
15100	15100	15104
15104	15104	15124
15124	15124	15135
15135	15135	15156
15156	15156	15172
15172	15172	15192
15192	15192	15197
15197	15197	15208
15208	15208	15223
15223	15223	15245
15245	15245	15268
15268	15268	15291
15291	15291	15314
15314	15314	15337
15337	15337	15360
15360	15360	15383
15383	15383	15402
15402	15402	15421
15421	15421	15440
15440	15440	15459
15459	15459	15478
15478	15478	15497
15497	15497	15516
15516	15516	15528
15528	15528	15532
15532	15532	15554
15554	15554	15560
15560	15560	15562
15562	15562	15575
15575	15575	15584
15584	15584	15610
15610	15610	15647
15648	15648	15650
15650	15650	15687
15687	15687	15712
15712	15712	15729
15729	15729	15750
15750	15750	15773
15773	15773	15788
15788	15788	15808
15808	15808	15822
15822	15822	15834
15834	15834	15844
15844	15844	15859
15859	15859	15904
15904	15904	15945
15945	15945	15984
15984	15984	16001
16001	16001	16022
16022	16022	16045
16045	16045	16056
16056	16056	16080
16080	16080	16094
16094	16094	16106
16106	16106	16114
16114	16114	16126
16126	16126	16144
16144	16144	16149
16149	16149	16160
16160	16160	16176
16176	16176	16198
16198	16198	16215
16215	16215	16221
16221	16221	16244
16244	16244	16267
16267	16267	16290
16290	16290	16313
16313	16313	16336
16336	16336	16355
16355	16355	16374
16374	16374	16393
16393	16393	16412
16412	16412	16419
16419	16419	16431
16431	16431	16450
16450	16450	16469
16469	16469	16480
16480	16480	16482
16482	16482	16487
16487	16487	16514
16514	16514	16531
16531	16531	16542
16542	16542	16559
16559	16559	16568
16568	16568	16590
16590	16590	16601
16601	16601	16609
16609	16609	16627
16627	16627	16632
16632	16632	16636
16636	16636	16654
16654	16654	16666
16666	16666	16691
16691	16691	16705
16705	16705	16734
16734	16734	16746
16746	16746	16761
16761	16761	16766
16766	16766	16772
16772	16772	16792
16792	16792	16806
16806	16806	16831
16831	16831	16845
16845	16845	16874
16874	16874	16896
16896	16896	16932
16932	16932	16960
16960	16960	16970
16970	16970	16977
16977	16977	17006
17006	17006	17027
17027	17027	17032
17032	17032	17042
17042	17042	17064
17064	17064	17078
17078	17078	17086
17086	17086	17111
17111	17111	17120
17120	17120	17140
17140	17140	17148
17148	17148	17160
17160	17160	17184
17184	17184	17198
17198	17198	17200
17200	17200	17205
17205	17205	17209
17209	17209	17215
17215	17215	17219
17219	17219	17240
17240	17240	17256
17256	17256	17272
17272	17272	17294
17294	17294	17310
17310	17310	17326
17326	17326	17338
17338	17338	17350
17350	17350	17362
17362	17362	17374
17374	17374	17386
17386	17386	17398
17398	17398	17410
17410	17410	17422
17422	17422	17434
17434	17434	17446
17446	17446	17458
17458	17458	17463
17463	17463	17470
17472	17472	17485
17485	17485	17494
17494	17494	17504
17504	17504	17507
17507	17507	17524
17524	17524	17531
17531	17531	17536
17536	17536	17544
17544	17544	17559
17559	17559	17568
17568	17568	17580
17580	17580	17584
17584	17584	17589
17589	17589	17600
17600	17600	17620
17620	17620	17646
17646	17646	17673
17673	17673	17700
17700	17700	17727
17727	17727	17754
17754	17754	17781
17781	17781	17808
17808	17808	17835
17835	17835	17862
17862	17862	17889
17889	17889	17916
17916	17916	17943
17943	17943	17970
17970	17970	17997
17997	17997	18014
18014	18014	18023
18023	18023	18048
18048	18048	18054
18054	18054	18065
18065	18065	18085
18085	18085	18111
18111	18111	18138
18138	18138	18165
18165	18165	18192
18192	18192	18219
18219	18219	18246
18246	18246	18273
18273	18273	18300
18300	18300	18327
18327	18327	18350
18350	18350	18373
18373	18373	18396
18396	18396	18419
18419	18419	18442
18442	18442	18464
18464	18464	18472
18472	18472	18490
18490	18490	18498
18498	18498	18513
18513	18513	18516
18516	18516	18520
18520	18520	18544
18544	18544	18560
18560	18560	18580
18580	18580	18606
18606	18606	18629
18629	18629	18645
18645	18645	18657
18657	18657	18669
18669	18669	18681
18681	18681	18693
18693	18693	18705
18705	18705	18717
18717	18717	18729
18729	18729	18741
18741	18741	18753
18753	18753	18761
18761	18761	18765
18765	18765	18777
18777	18777	18782
18782	18782	18784
18784	18784	18797
18797	18797	18804
18804	18804	18818
18818	18818	18833
18833	18833	18836
18836	18836	18840
18840	18840	18864
18864	18864	18880
18880	18880	18900
18900	18900	18926
18926	18926	18949
18949	18949	18965
18965	18965	18977
18977	18977	18989
18989	18989	18999
18999	18999	19001
19001	19001	19013
19013	19013	19025
19025	19025	19037
19037	19037	19049
19049	19049	19061
19061	19061	19073
19073	19073	19085
19085	19085	19097
19097	19097	19102
19102	19102	19109
19109	19109	19111
19111	19111	19123
19123	19123	19135
19135	19135	19151
19151	19151	19152
19152	19152	19168
19168	19168	19188
19188	19188	19214
19214	19214	19237
19237	19237	19253
19253	19253	19265
19265	19265	19277
19277	19277	19289
19289	19289	19301
19301	19301	19313
19313	19313	19325
19325	19325	19337
19337	19337	19349
19349	19349	19361
19361	19361	19373
19373	19373	19385
19385	19385	19390
19390	19390	19399
19399	19399	19409
19409	19409	19421
19421	19421	19427
19427	19427	19433
19433	19433	19456
19456	19456	19472
19472	19472	19496
19496	19496	19524
19524	19524	19549
19549	19549	19574
19574	19574	19599
19599	19599	19624
19624	19624	19649
19649	19649	19674
19674	19674	19699
19699	19699	19724
19724	19724	19749
19749	19749	19774
19774	19774	19789
19789	19789	19799
19799	19799	19824
19824	19824	19838
19838	19838	19851
19851	19851	19868
19868	19868	19872
19872	19872	19880
19880	19880	19895
19895	19895	19898
19898	19898	19902
19902	19902	19920
19920	19920	19925
19925	19925	19936
19936	19936	19956
19956	19956	19982
19982	19982	20005
20005	20005	20028
20028	20028	20051
20051	20051	20074
20074	20074	20097
20097	20097	20120
20120	20120	20143
20143	20143	20162
20162	20162	20181
20181	20181	20200
20200	20200	20219
20219	20219	20238
20238	20238	20259
20259	20259	20271
20271	20271	20273
20273	20273	20278
20278	20278	20288
20288	20288	20293
20293	20293	20301
20301	20301	20316
20316	20316	20319
20319	20319	20323
20323	20323	20344
20344	20344	20360
20360	20360	20380
20380	20380	20406
20406	20406	20429
20429	20429	20445
20445	20445	20457
20457	20457	20469
20469	20469	20481
20481	20481	20493
20493	20493	20505
20505	20505	20517
20517	20517	20529
20529	20529	20541
20541	20541	20553
20553	20553	20565
20565	20565	20577
20577	20577	20582
20582	20582	20584
20584	20584	20597
20597	20597	20604
20604	20604	20610
20610	20610	20616
20616	20616	20640
20640	20640	20657
20657	20657	20677
20677	20677	20701
20701	20701	20726
20726	20726	20751
20751	20751	20776
20776	20776	20801
20801	20801	20826
20826	20826	20851
20851	20851	20876
20876	20876	20897
20897	20897	20918
20918	20918	20939
20939	20939	20960
20960	20960	20981
20981	20981	21002
21002	21002	21014
21014	21014	21018
21018	21018	21025
21025	21025	21033
21033	21033	21040
21040	21040	21049
21049	21049	21072
21072	21072	21078
21078	21078	21089
21089	21089	21105
21105	21105	21127
21127	21127	21143
21143	21143	21159
21159	21159	21175
21175	21175	21191
21191	21191	21207
21207	21207	21223
21223	21223	21226
21226	21226	21239
21239	21239	21255
21255	21255	21271
21271	21271	21287
21287	21287	21303
21303	21303	21319
21319	21319	21335
21335	21335	21347
21347	21347	21350
21350	21350	21354
21354	21354	21376
21376	21376	21393
21393	21393	21413
21413	21413	21439
21439	21439	21462
21462	21462	21478
21478	21478	21494
21494	21494	21510
21510	21510	21526
21526	21526	21542
21542	21542	21558
21558	21558	21574
21574	21574	21590
21590	21590	21606
21606	21606	21622
21622	21622	21638
21638	21638	21641
21641	21641	21654
21654	21654	21666
21666	21666	21675
21675	21675	21696
21696	21696	21702
21702	21702	21713
21713	21713	21729
21729	21729	21751
21751	21751	21774
21774	21774	21797
21797	21797	21820
21820	21820	21843
21843	21843	21866
21866	21866	21889
21889	21889	21912
21912	21912	21935
21935	21935	21958
21958	21958	21981
21981	21981	22004
22004	22004	22027
22027	22027	22050
22050	22050	22062
22062	22062	22071
22071	22071	22096
22096	22096	22102
22102	22102	22113
22113	22113	22129
22129	22129	22151
22151	22151	22167
22167	22167	22183
22183	22183	22199
22199	22199	22215
22215	22215	22231
22231	22231	22247
22247	22247	22263
22263	22263	22279
22279	22279	22295
22295	22295	22311
22311	22311	22327
22327	22327	22343
22343	22343	22359
22359	22359	22371
22371	22371	22378
22378	22378	22385
22385	22385	22392
22392	22392	22401
22401	22401	22408
22408	22408	22417
22417	22417	22427
22427	22427	22436
22436	22436	22445
22445	22445	22454
22454	22454	22463
22463	22463	22470
22470	22470	22480
22480	22480	22486
22486	22486	22528
22528	22528	22546
22546	22546	22558
22558	22558	22560
22560	22560	22584
22584	22584	22588
22588	22588	22592
22592	22592	22598
22598	22598	22621
22621	22621	22631
22631	22631	22641
22641	22641	22651
22651	22651	22661
22661	22661	22663
22663	22663	22673
22673	22673	22675
22675	22675	22685
22685	22685	22691
22691	22691	22706
22706	22706	22709
22709	22709	22714
22714	22714	22724
22724	22724	22730
22730	22730	22745
22745	22745	22750
22752	22752	22762
22762	22762	22768
22768	22768	22778
22778	22778	22784
22784	22784	22794
22794	22794	22799
22799	22799	22804
22804	22804	22808
22808	22808	22818
22818	22818	22832
22832	22832	22846
22846	22846	22860
22860	22860	22864
22864	22864	22874
22874	22874	22880
22880	22880	22894
22894	22894	22908
22908	22908	22912
22912	22912	22926
22926	22926	22940
22940	22940	22950
22950	22950	22960
22960	22960	22975
22975	22975	22983
22983	22983	22992
22992	22992	22998
22998	22998	23008
23008	23008	23022
23022	23022	23036
23036	23036	23040
23040	23040	23050
23050	23050	23056
23056	23056	23071
23071	23071	23079
23079	23079	23088
23088	23088	23098
23098	23098	23113
23113	23113	23121
23121	23121	23128
23128	23128	23143
23143	23143	23151
23152	23152	23167
23167	23167	23175
23175	23175	23184
23184	23184	23199
23199	23199	23207
23207	23207	23216
23216	23216	23231
23231	23231	23239
23239	23239	23248
23248	23248	23263
23263	23263	23271
23271	23271	23280
23280	23280	23295
23295	23295	23303
23303	23303	23312
23312	23312	23322
23322	23322	23327
23327	23327	23335
23335	23335	23344
23344	23344	23359
23359	23359	23367
23367	23367	23376
23376	23376	23385
23385	23385	23391
23391	23391	23399
23399	23399	23408
23408	23408	23423
23423	23423	23431
23431	23431	23440
23440	23440	23455
23455	23455	23463
23463	23463	23472
23472	23472	23487
23487	23487	23495
23495	23495	23504
23504	23504	23519
23519	23519	23527
23527	23527	23536
23536	23536	23551
23551	23551	23559
23559	23559	23568
23568	23568	23583
23583	23583	23591
23591	23591	23600
23600	23600	23615
23615	23615	23623
23623	23623	23632
23632	23632	23647
23647	23647	23655
23655	23655	23664
23664	23664	23673
23673	23673	23679
23679	23679	23687
23687	23687	23696
23696	23696	23711
23711	23711	23719
23719	23719	23728
23728	23728	23743
23743	23743	23751
23751	23751	23760
23760	23760	23775
23775	23775	23783
23783	23783	23792
23792	23792	23807
23807	23807	23815
23815	23815	23824
23824	23824	23839
23839	23839	23847
23847	23847	23856
23856	23856	23871
23871	23871	23879
23879	23879	23888
23888	23888	23903
23903	23903	23911
23911	23911	23920
23920	23920	23935
23935	23935	23943
23943	23943	23952
23952	23952	23967
23967	23967	23975
23975	23975	23984
23984	23984	23999
23999	23999	24007
24007	24007	24016
24016	24016	24031
24031	24031	24039
24039	24039	24048
24048	24048	24063
24063	24063	24071
24071	24071	24080
24080	24080	24095
24095	24095	24103
24103	24103	24112
24112	24112	24127
24127	24127	24135
24135	24135	24144
24144	24144	24159
24159	24159	24167
24167	24167	24176
24176	24176	24191
24191	24191	24199
24199	24199	24208
24208	24208	24223
24223	24223	24231
24231	24231	24240
24240	24240	24255
24255	24255	24263
24263	24263	24272
24272	24272	24287
24287	24287	24295
24295	24295	24304
24304	24304	24319
24319	24319	24327
24327	24327	24336
24336	24336	24346
24346	24346	24351
24351	24351	24359
24359	24359	24368
24368	24368	24383
24383	24383	24391
24391	24391	24400
24400	24400	24415
24415	24415	24423
24423	24423	24432
24432	24432	24447
24447	24447	24455
24455	24455	24464
24464	24464	24479
24479	24479	24487
24487	24487	24496
24496	24496	24511
24511	24511	24519
24519	24519	24528
24528	24528	24543
24543	24543	24551
24551	24551	24560
24560	24560	24569
24569	24569	24575
24575	24575	24583
24583	24583	24592
24592	24592	24607
24607	24607	24615
24615	24615	24624
24624	24624	24639
24639	24639	24647
24647	24647	24656
24656	24656	24671
24671	24671	24679
24679	24679	24688
24688	24688	24703
24703	24703	24711
24711	24711	24720
24720	24720	24726
24726	24726	24745
24745	24745	24750
24752	24752	24777
24777	24777	24785
24785	24785	24800
24800	24800	24806
24806	24806	24825
24825	24825	24839
24839	24839	24848
24848	24848	24863
24863	24863	24871
24871	24871	24880
24880	24880	24895
24895	24895	24903
24903	24903	24912
24912	24912	24915
24915	24915	24927
24927	24927	24935
24935	24935	24944
24944	24944	24959
24959	24959	24967
24967	24967	24976
24976	24976	24991
24991	24991	24999
24999	24999	25008
25008	25008	25023
25023	25023	25031
25031	25031	25040
25040	25040	25055
25055	25055	25063
25063	25063	25072
25072	25072	25087
25087	25087	25095
25095	25095	25104
25104	25104	25119
25119	25119	25127
25127	25127	25136
25136	25136	25142
25142	25142	25161
25161	25161	25167
25167	25167	25177
25177	25177	25191
25191	25191	25200
25200	25200	25210
25210	25210	25212
25212	25212	25218
25218	25218	25233
25233	25233	25236
25236	25236	25241
25241	25241	25248
25248	25248	25254
25254	25254	25260
25260	25260	25270
25270	25270	25280
25280	25280	25284
25284	25284	25294
25294	25294	25300
25300	25300	25315
25315	25315	25320
25320	25320	25328
25328	25328	25343
25343	25343	25348
25348	25348	25352
25352	25352	25367
25367	25367	25375
25376	25376	25391
25391	25391	25399
25399	25399	25408
25408	25408	25423
25423	25423	25431
25431	25431	25440
25440	25440	25455
25455	25455	25463
25463	25463	25472
25472	25472	25487
25487	25487	25495
25495	25495	25504
25504	25504	25514
25514	25514	25519
25519	25519	25527
25527	25527	25536
25536	25536	25551
25551	25551	25559
25559	25559	25568
25568	25568	25583
25583	25583	25591
25591	25591	25600
25600	25600	25615
25615	25615	25623
25623	25623	25632
25632	25632	25647
25647	25647	25655
25655	25655	25664
25664	25664	25679
25679	25679	25687
25687	25687	25696
25696	25696	25711
25711	25711	25719
25719	25719	25728
25728	25728	25743
25743	25743	25751
25751	25751	25760
25760	25760	25775
25775	25775	25783
25783	25783	25792
25792	25792	25807
25807	25807	25815
25815	25815	25824
25824	25824	25839
25839	25839	25847
25847	25847	25856
25856	25856	25871
25871	25871	25874
25874	25874	25879
25879	25879	25888
25888	25888	25903
25903	25903	25911
25911	25911	25920
25920	25920	25935
25935	25935	25943
25943	25943	25952
25952	25952	25967
25967	25967	25975
25975	25975	25982
25982	25982	25984
25984	25984	25999
25999	25999	26007
26007	26007	26016
26016	26016	26031
26031	26031	26039
26039	26039	26048
26048	26048	26063
26063	26063	26071
26071	26071	26078
26078	26078	26080
26080	26080	26095
26095	26095	26103
26103	26103	26112
26112	26112	26127
26127	26127	26135
26135	26135	26144
26144	26144	26159
26159	26159	26167
26167	26167	26176
26176	26176	26191
26191	26191	26199
26199	26199	26208
26208	26208	26223
26223	26223	26231
26231	26231	26240
26240	26240	26255
26255	26255	26263
26263	26263	26272
26272	26272	26287
26287	26287	26295
26295	26295	26304
26304	26304	26313
26313	26313	26343
26343	26343	26366
26366	26366	26394
26394	26394	26414
26414	26414	26425
26425	26425	26511
26512	26512	26531
26531	26531	26551
26551	26551	26554
26554	26554	26557
26557	26557	26565
26565	26565	26578
26578	26578	26588
26588	26588	26590
26590	26590	26604
26604	26604	26620
26620	26620	26631
26631	26631	26641
26641	26641	26653
26653	26653	26661
26661	26661	26666
26666	26666	26671
26671	26671	26687
26687	26687	26700
26700	26700	26724
26724	26724	26744
26744	26744	26752
26752	26752	26762
26762	26762	26777
26777	26777	26789
26789	26789	26800
26800	26800	26809
26809	26809	26842
26842	26842	26852
26852	26852	26870
26870	26870	26886
26886	26886	26911
26911	26911	26931
26931	26931	26942
26942	26942	26959
26959	26959	27008
27008	27008	27025
27025	27025	27040
27040	27040	27044
27044	27044	27050
27050	27050	27061
27061	27061	27071
27071	27071	27081
27081	27081	27096
27096	27096	27106
27106	27106	27117
27117	27117	27127
27127	27127	27133
27133	27133	27145
27145	27145	27151
27151	27151	27163
27163	27163	27183
27183	27183	27191
27191	27191	27201
27201	27201	27216
27216	27216	27228
27228	27228	27232
27232	27232	27256
27256	27256	27272
27272	27272	27284
27284	27284	27304
27304	27304	27311
27311	27311	27322
27322	27322	27341
27341	27341	27359
27359	27359	27379
27379	27379	27399
27399	27399	27411
27411	27411	27419
27419	27419	27439
27439	27439	27453
27453	27453	27459
27459	27459	27475
27475	27475	27491
27491	27491	27507
27507	27507	27523
27523	27523	27539
27539	27539	27555
27555	27555	27571
27571	27571	27576
27576	27576	27587
27587	27587	27596
27596	27596	27603
27603	27603	27608
27608	27608	27616
27616	27616	27632
27632	27632	27634
27634	27634	27640
27640	27640	27644
27644	27644	27647
27647	27647	27648
27648	27648	27652
27652	27652	27665
27665	27665	27680
27680	27680	27697
27697	27697	27712
27712	27712	27732
27732	27732	27744
27744	27744	27777
27777	27777	27792
27792	27792	27817
27817	27817	27824
27824	27824	27841
27841	27841	27856
27856	27856	27868
27868	27868	27872
27872	27872	27877
27877	27877	27915
27915	27915	27920
27920	27920	27926
27926	27926	27947
27947	27947	27956
27956	27956	27958
27958	27958	27962
27962	27962	27970
27970	27970	27987
27987	27987	27991
27991	27991	27995
27995	27995	27999
27999	27999	28007
28007	28007	28012
28012	28012	28030
28032	28032	28037
28037	28037	28040
28040	28040	28044
28044	28044	28056
28056	28056	28067
28067	28067	28071
28071	28071	28080
28080	28080	28082
28082	28082	28092
28092	28092	28096
28096	28096	28100
28100	28100	28107
28107	28107	28112
28112	28112	28117
28117	28117	28124
28124	28124	28128
28128	28128	28148
28148	28148	28152
28152	28152	28158
28158	28158	28164
28164	28164	28168
28168	28168	28175
28175	28175	28176
28176	28176	28187
28187	28187	28197
28197	28197	28202
28202	28202	28206
28206	28206	28213
28213	28213	28218
28218	28218	28225
28225	28225	28233
28233	28233	28247
28247	28247	28254
28256	28256	28261
28261	28261	28264
28264	28264	28271
28271	28271	28279
28279	28279	28282
28282	28282	28290
28290	28290	28298
28298	28298	28304
28304	28304	28310
28310	28310	28320
28320	28320	28329
28329	28329	28336
28336	28336	28352
28352	28352	28360
28360	28360	28374
28374	28374	28383
28384	28384	28393
28393	28393	28400
28400	28400	28421
28421	28421	28426
28426	28426	28432
28432	28432	28446
28446	28446	28452
28452	28452	28454
28454	28454	28462
28462	28462	28466
28466	28466	28474
28474	28474	28495
28495	28495	28496
28496	28496	28506
28506	28506	28521
28521	28521	28536
28536	28536	28552
28552	28552	28568
28568	28568	28580
28580	28580	28592
28592	28592	28604
28604	28604	28616
28616	28616	28628
28628	28628	28640
28640	28640	28652
28652	28652	28664
28664	28664	28676
28676	28676	28688
28688	28688	28700
28700	28700	28705
28705	28705	28711
28711	28711	28720
28720	28720	28738
28738	28738	28746
28746	28746	28753
28753	28753	28765
28765	28765	28784
28784	28784	28794
28794	28794	28808
28808	28808	28823
28823	28823	28839
28839	28839	28855
28855	28855	28867
28867	28867	28879
28879	28879	28891
28891	28891	28903
28903	28903	28915
28915	28915	28927
28927	28927	28939
28939	28939	28951
28951	28951	28963
28963	28963	28975
28975	28975	28987
28987	28987	28992
28992	28992	28993
28993	28993	28995
28995	28995	29000
29000	29000	29002
29002	29002	29007
29007	29007	29008
29008	29008	29011
29011	29011	29034
29034	29034	29046
29046	29046	29054
29054	29054	29080
29080	29080	29090
29090	29090	29104
29104	29104	29110
29110	29110	29112
29112	29112	29121
29121	29121	29130
29130	29130	29139
29139	29139	29148
29148	29148	29157
29157	29157	29166
29166	29166	29175
29175	29175	29184
29184	29184	29193
29193	29193	29202
29202	29202	29211
29211	29211	29220
29220	29220	29229
29229	29229	29233
29233	29233	29241
29241	29241	29248
29248	29248	29263
29263	29263	29265
29265	29265	29272
29272	29272	29286
29286	29286	29290
29290	29290	29296
29296	29296	29304
29304	29304	29312
29312	29312	29331
29331	29331	29336
29336	29336	29344
29344	29344	29356
29356	29356	29360
29360	29360	29373
29373	29373	29382
29382	29382	29392
29392	29392	29404
29404	29404	29415
29415	29415	29418
29418	29418	29421
29421	29421	29428
29428	29428	29432
29432	29432	29444
29444	29444	29448
29448	29448	29454
29454	29454	29456
29456	29456	29469
29469	29469	29474
29474	29474	29564
29564	29564	29568
29568	29568	29580
29580	29580	29609
29609	29609	29618
29618	29618	29660
29660	29660	29698
29698	29698	29713
29713	29713	29724
29724	29724	29732
29732	29732	29735
29735	29735	29744
29744	29744	29753
29753	29753	29787
29787	29787	29815
29815	29815	29824
29824	29824	29833
29833	29833	29847
29847	29847	29864
29864	29864	29871
29871	29871	29873
29873	29873	29890
29890	29890	29896
29896	29896	29906
29906	29906	29912
29912	29912	29914
29914	29914	29924
29924	29924	29950
29950	29950	29954
29954	29954	29968
29968	29968	29977
29977	29977	30020
30020	30020	30030
30030	30030	30036
30036	30036	30040
30040	30040	30051
30051	30051	30063
30063	30063	30081
30081	30081	30088
30088	30088	30090
30090	30090	30096
30096	30096	30100
30100	30100	30104
30104	30104	30109
30109	30109	30114
30114	30114	30131
30131	30131	30144
30144	30144	30153
30153	30153	30170
30170	30170	30178
30178	30178	30184
30184	30184	30194
30194	30194	30218
30218	30218	30223
30223	30223	30225
30225	30225	30238
30240	30240	30250
30250	30250	30256
30256	30256	30271
30271	30271	30275
30275	30275	30280
30280	30280	30288
30288	30288	30297
30297	30297	30304
30304	30304	30312
30312	30312	30326
30326	30326	30328
30328	30328	30336
30336	30336	30346
30346	30346	30351
30351	30351	30352
30352	30352	30361
30361	30361	30362
30362	30362	30368
30368	30368	30369
30369	30369	30376
30376	30376	30377
30377	30377	30384
30384	30384	30400
30400	30400	30416
30416	30416	30435
30435	30435	30441
30441	30441	30456
30456	30456	30490
30490	30490	30505
30505	30505	30512
30512	30512	30521
30521	30521	30528
30528	30528	30537
30537	30537	30562
30562	30562	30570
30570	30570	30576
30576	30576	30586
30586	30586	30598
30598	30598	30608
30608	30608	30616
30616	30616	30637
30637	30637	30644
30644	30644	30647
30647	30647	30652
30652	30652	30656
30656	30656	30672
30672	30672	30688
30688	30688	30702
30702	30702	30709
30709	30709	30716
30716	30716	30724
30724	30724	30736
30736	30736	30751
30751	30751	30753
30753	30753	30760
30760	30760	30771
30771	30771	30775
30775	30775	30776
30776	30776	30784
30784	30784	30792
30792	30792	30800
30800	30800	30805
30805	30805	30837
30837	30837	30851
30851	30851	30855
30855	30855	30874
30874	30874	30907
30907	30907	30914
30914	30914	30920
30920	30920	30929
30929	30929	30936
30936	30936	30944
30944	30944	30953
30953	30953	30981
30981	30981	30986
30986	30986	30988
30988	30988	31001
31001	31001	31008
31008	31008	31022
31022	31022	31024
31024	31024	31031
31031	31031	31053
31053	31053	31063
31063	31063	31067
31067	31067	31089
31089	31089	31113
31113	31113	31117
31117	31117	31120
31120	31120	31131
31131	31131	31135
31135	31135	31139
31139	31139	31157
31157	31157	31160
31160	31160	31164
31164	31164	31172
31172	31172	31184
31184	31184	31194
31194	31194	31203
31203	31203	31208
31208	31208	31216
31216	31216	31225
31225	31225	31229
31229	31229	31242
31242	31242	31248
31248	31248	31259
31259	31259	31263
31263	31263	31268
31268	31268	31278
31278	31278	31310
31310	31310	31315
31315	31315	31320
31320	31320	31324
31324	31324	31326
31326	31326	31328
31328	31328	31335
31335	31335	31365
31365	31365	31383
31383	31383	31385
31385	31385	31392
31392	31392	31393
31393	31393	31400
31400	31400	31421
31421	31421	31430
31430	31430	31440
31440	31440	31451
31451	31451	31454
31454	31454	31470
31470	31470	31481
31481	31481	31496
31496	31496	31504
31504	31504	31515
31515	31515	31520
31520	31520	31526
31526	31526	31538
31538	31538	31551
31551	31551	31552
31552	31552	31562
31562	31562	31579
31579	31579	31594
31594	31594	31609
31609	31609	31625
31625	31625	31641
31641	31641	31653
31653	31653	31665
31665	31665	31677
31677	31677	31689
31689	31689	31701
31701	31701	31713
31713	31713	31725
31725	31725	31737
31737	31737	31749
31749	31749	31761
31761	31761	31776
31776	31776	31787
31787	31787	31792
31792	31792	31806
31806	31806	31808
31808	31808	31822
31824	31824	31833
31833	31833	31840
31840	31840	31850
31850	31850	31854
31854	31854	31859
31859	31859	31872
