4702	EAX	ESI
4702	ESI	EAX
4782	ECX	EDX
4782	EDX	ECX
4993	EAX	EDI
4993	EDI	EAX
5191	EAX	EDX
5191	EDX	EAX
5311	EAX	EDI
5311	EDI	EAX
6693	EBX	EBP
6693	EBP	EBX
6797	EBX	EDI
6797	EDI	EBX
7116	EBX	ESI
7116	ESI	EBX
7172	EAX	ESI
7172	ESI	EAX
8187	ECX	ESI
8187	ESI	ECX
8271	ECX	ESI
8271	ESI	ECX
8327	EBX	EDX
8327	EDX	EBX
8515	ECX	ESI
8515	ESI	ECX
9709	EBX	ECX
9709	ECX	EBX
9861	EDX	ESI
9861	ESI	EDX
9989	EBX	ECX
9989	ECX	EBX
10622	EAX	ECX
10622	ECX	EAX
10636	ECX	EDX
10636	EDX	ECX
11613	EAX	EDI
11613	EDI	EAX
11949	ECX	EDI
11949	EDI	ECX
15204	EAX	ECX
15204	ECX	EAX
15215	EAX	EBX
15215	EBX	EAX
15237	EBX	ECX
15237	ECX	EBX
15260	EBX	ECX
15260	ECX	EBX
15283	EBX	ECX
15283	ECX	EBX
15306	EBX	ECX
15306	ECX	EBX
15329	EBX	ECX
15329	ECX	EBX
15352	EBX	ECX
15352	ECX	EBX
15375	EBX	ECX
15375	ECX	EBX
15398	EBX	ECX
15398	ECX	EBX
15417	EBX	ECX
15417	ECX	EBX
15436	EBX	ECX
15436	ECX	EBX
15455	EBX	ECX
15455	ECX	EBX
15474	EBX	ECX
15474	ECX	EBX
15493	EBX	ECX
15493	ECX	EBX
15512	EAX	EBX
15512	EBX	EAX
15725	EAX	ECX
15725	ECX	EAX
15997	ECX	EDX
15997	EDX	ECX
16156	EBX	ECX
16156	ECX	EBX
16168	EAX	ECX
16168	ECX	EAX
16190	EAX	ESI
16190	ESI	EAX
16213	EAX	ESI
16213	ESI	EAX
16236	EAX	ESI
16236	ESI	EAX
16259	EAX	ESI
16259	ESI	EAX
16282	EAX	ESI
16282	ESI	EAX
16305	EAX	ESI
16305	ESI	EAX
16328	EAX	ESI
16328	ESI	EAX
16351	EAX	ESI
16351	ESI	EAX
16370	EAX	ESI
16370	ESI	EAX
16389	EAX	ESI
16389	ESI	EAX
16408	EAX	ESI
16408	ESI	EAX
16427	EAX	ESI
16427	ESI	EAX
16446	EAX	ESI
16446	ESI	EAX
16465	EAX	ECX
16465	ECX	EAX
16538	EAX	EDI
16538	EDI	EAX
16973	ECX	EDX
16973	EDX	ECX
17196	EBX	ECX
17196	ECX	EBX
17252	ECX	EDX
17252	EDX	ECX
17264	EBX	EDI
17264	EDI	EBX
17286	EBX	ECX
17286	ECX	EBX
17302	EBX	ECX
17302	ECX	EBX
17318	EBX	ECX
17318	ECX	EBX
17334	EBX	ECX
17334	ECX	EBX
17346	EBX	ECX
17346	ECX	EBX
17358	EBX	ECX
17358	ECX	EBX
17370	EBX	ECX
17370	ECX	EBX
17382	EBX	ECX
17382	ECX	EBX
17394	EBX	ECX
17394	ECX	EBX
17406	EBX	ECX
17406	ECX	EBX
17418	EBX	ECX
17418	ECX	EBX
17430	EBX	ECX
17430	ECX	EBX
17442	EBX	ECX
17442	ECX	EBX
17454	EBX	EDI
17454	EDI	EBX
17596	EAX	EDX
17596	EDX	EAX
17612	EAX	EBX
17612	EBX	EAX
17638	EAX	EBX
17638	EBX	EAX
17665	EAX	EBX
17665	EBX	EAX
17692	EAX	EBX
17692	EBX	EAX
17719	EAX	EBX
17719	EBX	EAX
17746	EAX	EBX
17746	EBX	EAX
17773	EAX	EBX
17773	EBX	EAX
17800	EAX	EBX
17800	EBX	EAX
17827	EAX	EBX
17827	EBX	EAX
17854	EAX	EBX
17854	EBX	EAX
17881	EAX	EBX
17881	EBX	EAX
17908	EAX	EBX
17908	EBX	EAX
17935	EAX	EBX
17935	EBX	EAX
17962	EAX	EBX
17962	EBX	EAX
17989	EAX	EBX
17989	EBX	EAX
18061	EAX	EDX
18061	EDX	EAX
18077	EAX	EBX
18077	EBX	EAX
18103	EAX	EBX
18103	EBX	EAX
18130	EAX	EBX
18130	EBX	EAX
18157	EAX	EBX
18157	EBX	EAX
18184	EAX	EBX
18184	EBX	EAX
18211	EAX	EBX
18211	EBX	EAX
18238	EAX	EBX
18238	EBX	EAX
18265	EAX	EBX
18265	EBX	EAX
18292	EAX	EBX
18292	EBX	EAX
18319	EAX	EBX
18319	EBX	EAX
18346	EAX	EBX
18346	EBX	EAX
18369	EAX	EBX
18369	EBX	EAX
18392	EAX	EBX
18392	EBX	EAX
18415	EAX	EBX
18415	EBX	EAX
18438	EAX	EBX
18438	EBX	EAX
18556	ECX	EDX
18556	EDX	ECX
18572	EAX	EDI
18572	EDI	EAX
18598	EAX	ECX
18598	ECX	EAX
18621	EAX	ECX
18621	ECX	EAX
18637	EAX	ECX
18637	ECX	EAX
18653	EAX	ECX
18653	ECX	EAX
18665	EAX	ECX
18665	ECX	EAX
18677	EAX	ECX
18677	ECX	EAX
18689	EAX	ECX
18689	ECX	EAX
18701	EAX	ECX
18701	ECX	EAX
18713	EAX	ECX
18713	ECX	EAX
18725	EAX	ECX
18725	ECX	EAX
18737	EAX	ECX
18737	ECX	EAX
18749	EAX	ECX
18749	ECX	EAX
18761	EAX	ECX
18761	ECX	EAX
18773	EAX	EDI
18773	EDI	EAX
18876	EAX	ECX
18876	ECX	EAX
18892	EDX	EDI
18892	EDI	EDX
18918	ECX	EDX
18918	EDX	ECX
18941	ECX	EDX
18941	EDX	ECX
18957	ECX	EDX
18957	EDX	ECX
18973	ECX	EDX
18973	EDX	ECX
18985	ECX	EDX
18985	EDX	ECX
18997	ECX	EDX
18997	EDX	ECX
19009	ECX	EDX
19009	EDX	ECX
19021	ECX	EDX
19021	EDX	ECX
19033	ECX	EDX
19033	EDX	ECX
19045	ECX	EDX
19045	EDX	ECX
19057	ECX	EDX
19057	EDX	ECX
19069	ECX	EDX
19069	EDX	ECX
19081	ECX	EDX
19081	EDX	ECX
19093	EDX	EDI
19093	EDI	EDX
19164	ECX	EDX
19164	EDX	ECX
19180	EDX	ESI
19180	ESI	EDX
19206	EBX	ESI
19206	ESI	EBX
19229	EBX	ESI
19229	ESI	EBX
19245	EBX	ESI
19245	ESI	EBX
19261	EBX	ESI
19261	ESI	EBX
19273	EBX	ESI
19273	ESI	EBX
19285	EBX	ESI
19285	ESI	EBX
19297	EBX	ESI
19297	ESI	EBX
19309	EBX	ESI
19309	ESI	EBX
19321	EBX	ESI
19321	ESI	EBX
19333	EBX	ESI
19333	ESI	EBX
19345	EBX	ESI
19345	ESI	EBX
19357	EBX	ESI
19357	ESI	EBX
19369	EBX	ESI
19369	ESI	EBX
19381	EDX	ESI
19381	ESI	EDX
19468	EAX	EDX
19468	EDX	EAX
19488	EAX	EBX
19488	EBX	EAX
19932	EAX	EDX
19932	EDX	EAX
19948	EBX	EDX
19948	EDX	EBX
19974	EBX	EDX
19974	EDX	EBX
19997	EBX	EDX
19997	EDX	EBX
20020	EBX	EDX
20020	EDX	EBX
20043	EBX	EDX
20043	EDX	EBX
20066	EBX	EDX
20066	EDX	EBX
20089	EBX	EDX
20089	EDX	EBX
20112	EBX	EDX
20112	EDX	EBX
20135	EBX	EDX
20135	EDX	EBX
20158	EBX	EDX
20158	EDX	EBX
20177	EBX	EDX
20177	EDX	EBX
20196	EBX	EDX
20196	EDX	EBX
20215	EBX	EDX
20215	EDX	EBX
20234	EBX	EDX
20234	EDX	EBX
20255	EBX	EDX
20255	EDX	EBX
20356	ECX	EDX
20356	EDX	ECX
20372	EAX	EDI
20372	EDI	EAX
20398	EAX	ECX
20398	ECX	EAX
20421	EAX	ECX
20421	ECX	EAX
20437	EAX	ECX
20437	ECX	EAX
20453	EAX	ECX
20453	ECX	EAX
20465	EAX	ECX
20465	ECX	EAX
20477	EAX	ECX
20477	ECX	EAX
20489	EAX	ECX
20489	ECX	EAX
20501	EAX	ECX
20501	ECX	EAX
20513	EAX	ECX
20513	ECX	EAX
20525	EAX	ECX
20525	ECX	EAX
20537	EAX	ECX
20537	ECX	EAX
20549	EAX	ECX
20549	ECX	EAX
20561	EAX	ECX
20561	ECX	EAX
20573	EAX	EDI
20573	EDI	EAX
20653	EAX	EDX
20653	EDX	EAX
20669	EAX	EDX
20669	EDX	EAX
21085	ECX	EDX
21085	EDX	ECX
21097	EAX	EDX
21097	EDX	EAX
21119	EAX	ECX
21119	ECX	EAX
21135	EAX	ECX
21135	ECX	EAX
21151	EAX	ECX
21151	ECX	EAX
21167	EAX	ECX
21167	ECX	EAX
21183	EAX	ECX
21183	ECX	EAX
21199	EAX	ECX
21199	ECX	EAX
21215	EAX	ECX
21215	ECX	EAX
21231	EAX	ECX
21231	ECX	EAX
21247	EAX	ECX
21247	ECX	EAX
21263	EAX	ECX
21263	ECX	EAX
21279	EAX	ECX
21279	ECX	EAX
21295	EAX	ECX
21295	ECX	EAX
21311	EAX	ECX
21311	ECX	EAX
21327	EAX	EDX
21327	EDX	EAX
21389	EAX	ECX
21389	ECX	EAX
21405	EDX	EDI
21405	EDI	EDX
21431	ECX	EDX
21431	EDX	ECX
21454	ECX	EDX
21454	EDX	ECX
21470	ECX	EDX
21470	EDX	ECX
21486	ECX	EDX
21486	EDX	ECX
21502	ECX	EDX
21502	EDX	ECX
21518	ECX	EDX
21518	EDX	ECX
21534	ECX	EDX
21534	EDX	ECX
21550	ECX	EDX
21550	EDX	ECX
21566	ECX	EDX
21566	EDX	ECX
21582	ECX	EDX
21582	EDX	ECX
21598	ECX	EDX
21598	EDX	ECX
21614	ECX	EDX
21614	EDX	ECX
21630	ECX	EDX
21630	EDX	ECX
21646	EDX	EDI
21646	EDI	EDX
21709	EAX	EDX
21709	EDX	EAX
21721	EAX	EBX
21721	EBX	EAX
21743	EBX	EDX
21743	EDX	EBX
21766	EBX	EDX
21766	EDX	EBX
21789	EBX	EDX
21789	EDX	EBX
21812	EBX	EDX
21812	EDX	EBX
21835	EBX	EDX
21835	EDX	EBX
21858	EBX	EDX
21858	EDX	EBX
21881	EBX	EDX
21881	EDX	EBX
21904	EBX	EDX
21904	EDX	EBX
21927	EBX	EDX
21927	EDX	EBX
21950	EBX	EDX
21950	EDX	EBX
21973	EBX	EDX
21973	EDX	EBX
21996	EBX	EDX
21996	EDX	EBX
22019	EBX	EDX
22019	EDX	EBX
22042	EAX	EBX
22042	EBX	EAX
22109	ECX	EDX
22109	EDX	ECX
22121	EAX	EDX
22121	EDX	EAX
22143	EAX	ECX
22143	ECX	EAX
22159	EAX	ECX
22159	ECX	EAX
22175	EAX	ECX
22175	ECX	EAX
22191	EAX	ECX
22191	ECX	EAX
22207	EAX	ECX
22207	ECX	EAX
22223	EAX	ECX
22223	ECX	EAX
22239	EAX	ECX
22239	ECX	EAX
22255	EAX	ECX
22255	ECX	EAX
22271	EAX	ECX
22271	ECX	EAX
22287	EAX	ECX
22287	ECX	EAX
22303	EAX	ECX
22303	ECX	EAX
22319	EAX	ECX
22319	ECX	EAX
22335	EAX	ECX
22335	ECX	EAX
22351	EAX	EDX
22351	EDX	EAX
26335	EAX	ESI
26335	ESI	EAX
26386	EAX	ESI
26386	ESI	EAX
26834	EDI	ESI
26834	ESI	EDI
26878	EDX	EDI
26878	EDI	EDX
26903	EAX	EDI
26903	EDI	EAX
27318	EDX	EDI
27318	EDI	EDX
27351	ESI	EBP
27351	EBP	ESI
27371	ESI	EBP
27371	EBP	ESI
27391	ESI	EBP
27391	EBP	ESI
27411	ESI	EBP
27411	EBP	ESI
27431	ESI	EBP
27431	EBP	ESI
27451	ESI	EBP
27451	EBP	ESI
27471	ESI	EBP
27471	EBP	ESI
27487	ESI	EBP
27487	EBP	ESI
27503	ESI	EBP
27503	EBP	ESI
27519	ESI	EBP
27519	EBP	ESI
27535	ESI	EBP
27535	EBP	ESI
27551	ESI	EBP
27551	EBP	ESI
27567	ESI	EBP
27567	EBP	ESI
27583	ESI	EBP
27583	EBP	ESI
27628	ECX	ESI
27628	ESI	ECX
28438	EAX	ECX
28438	ECX	EAX
28454	EAX	ECX
28454	ECX	EAX
28502	EDX	ESI
28502	ESI	EDX
28513	EDX	EDI
28513	EDI	EDX
28528	ECX	EDX
28528	EDX	ECX
28544	ECX	EDX
28544	EDX	ECX
28560	ECX	EDX
28560	EDX	ECX
28576	ECX	EDX
28576	EDX	ECX
28588	ECX	EDX
28588	EDX	ECX
28600	ECX	EDX
28600	EDX	ECX
28612	ECX	EDX
28612	EDX	ECX
28624	ECX	EDX
28624	EDX	ECX
28636	ECX	EDX
28636	EDX	ECX
28648	ECX	EDX
28648	EDX	ECX
28660	ECX	EDX
28660	EDX	ECX
28672	ECX	EDX
28672	EDX	ECX
28684	ECX	EDX
28684	EDX	ECX
28696	ECX	EDX
28696	EDX	ECX
28790	EAX	EBX
28790	EBX	EAX
28815	EBX	EDX
28815	EDX	EBX
28831	EBX	EDX
28831	EDX	EBX
28847	EBX	EDX
28847	EDX	EBX
28863	EBX	EDX
28863	EDX	EBX
28875	EBX	EDX
28875	EDX	EBX
28887	EBX	EDX
28887	EDX	EBX
28899	EBX	EDX
28899	EDX	EBX
28911	EBX	EDX
28911	EDX	EBX
28923	EBX	EDX
28923	EDX	EBX
28935	EBX	EDX
28935	EDX	EBX
28947	EBX	EDX
28947	EDX	EBX
28959	EBX	EDX
28959	EDX	EBX
28971	EBX	EDX
28971	EDX	EBX
28983	EBX	EDX
28983	EDX	EBX
29086	EAX	EBX
29086	EBX	EAX
29400	EDX	EDI
29400	EDI	EDX
30612	EDI	ESI
30612	ESI	EDI
30771	ECX	EDX
30771	EDX	ECX
31085	EAX	EBP
31085	EBP	EAX
31131	EAX	ECX
31131	ECX	EAX
31135	EDI	EBP
31135	EBP	EDI
31168	EDI	EBP
31168	EBP	EDI
31225	EAX	EDI
31225	EDI	EAX
31259	EAX	ECX
31259	ECX	EAX
31263	EBX	EDX
31263	EDX	EBX
31558	EAX	EDX
31558	EDX	EAX
31586	EAX	EDI
31586	EDI	EAX
31601	EDX	EDI
31601	EDI	EDX
31617	EDX	EDI
31617	EDI	EDX
31633	EDX	EDI
31633	EDI	EDX
31649	EDX	EDI
31649	EDI	EDX
31661	EDX	EDI
31661	EDI	EDX
31673	EDX	EDI
31673	EDI	EDX
31685	EDX	EDI
31685	EDI	EDX
31697	EDX	EDI
31697	EDI	EDX
31709	EDX	EDI
31709	EDI	EDX
31721	EDX	EDI
31721	EDI	EDX
31733	EDX	EDI
31733	EDI	EDX
31745	EDX	EDI
31745	EDI	EDX
31757	EDX	EDI
31757	EDI	EDX
