4096	4102
4108	4110
4118	4123
4134	4139
4150	4155
4166	4171
4182	4187
4198	4203
4214	4219
4230	4235
4246	4251
4262	4267
4278	4283
4294	4299
4304	4308
4308	4311
4311	4314
4314	4315
4315	4317
4317	4318
4318	4319
4319	4322
4322	4323
4328	4334
4334	4335
4335	4338
4338	4340
4340	4341
4341	4351
4351	4361
4366	4369
4369	4372
4378	4383
4389	4392
4392	4398
4398	4401
4401	4402
4408	4409
4409	4411
4411	4412
4417	4420
4420	4423
4429	4433
4433	4437
4443	4447
4453	4456
4456	4462
4462	4463
4468	4471
4471	4472
4472	4473
4473	4475
4475	4476
4481	4484
4484	4487
4493	4497
4497	4500
4500	4501
4501	4507
4507	4508
4513	4517
4517	4520
4520	4523
4529	4532
4532	4533
4538	4541
4541	4543
4543	4545
4551	4555
4555	4558
4558	4559
4559	4560
4565	4568
4568	4571
4577	4581
4581	4585
4591	4593
4593	4596
4596	4599
4599	4603
4603	4606
4606	4610
4616	4620
4626	4630
4630	4633
4633	4634
4640	4641
4641	4642
4642	4645
4645	4646
4646	4652
4652	4653
4658	4659
4668	4670
4670	4671
4671	4674
4680	4681
4681	4682
4682	4683
4683	4689
4689	4690
4695	4699
4699	4702
4702	4704
4710	4713
4713	4716
4722	4725
4725	4727
4727	4730
4730	4733
4733	4736
4742	4745
4745	4748
4748	4749
4749	4750
4750	4751
4751	4757
4757	4758
4763	4766
4766	4770
4770	4773
4773	4776
4776	4779
4779	4782
4790	4792
4798	4801
4801	4803
4803	4806
4806	4812
4812	4815
4815	4821
4821	4824
4824	4830
4830	4833
4833	4839
4839	4842
4842	4848
4848	4851
4851	4857
4857	4860
4872	4875
4875	4878
4884	4885
4886	4887
4887	4890
4898	4901
4901	4904
4904	4905
4911	4914
4914	4918
4924	4927
4927	4930
4930	4931
4937	4940
4940	4944
4946	4949
4949	4952
4958	4961
4961	4964
4964	4968
4968	4970
4971	4972
4972	4973
4981	4984
4984	4987
4987	4990
4990	4993
4993	4995
5001	5004
5004	5007
5007	5008
5014	5015
5015	5016
5016	5019
5019	5020
5020	5023
5028	5031
5031	5034
5040	5043
5043	5046
5051	5052
5052	5055
5060	5064
5064	5067
5073	5074
5074	5075
5075	5078
5078	5079
5079	5082
5087	5091
5091	5094
5100	5103
5103	5106
5111	5112
5112	5115
5120	5121
5121	5124
5130	5131
5131	5132
5132	5133
5133	5136
5141	5145
5145	5148
5154	5157
5157	5161
5167	5170
5170	5173
5181	5185
5185	5188
5188	5191
5191	5193
5199	5202
5202	5205
5211	5214
5222	5225
5225	5228
5234	5237
5237	5238
5238	5239
5239	5240
5240	5246
5246	5247
5252	5255
5264	5267
5267	5270
5270	5273
5273	5276
5282	5285
5285	5288
5288	5292
5292	5294
5294	5295
5295	5296
5296	5297
5302	5305
5305	5308
5308	5311
5311	5313
5319	5325
5325	5328
5328	5329
5334	5337
5337	5340
5340	5342
5342	5343
5343	5344
5344	5345
5345	5346
5346	5347
5347	5350
5351	5358
5360	5363
5363	5366
5371	5374
5379	5382
5382	5388
5388	5389
5394	5395
5395	5396
5396	5399
5399	5401
5401	5402
5407	5410
5410	5413
5419	5423
5423	5427
5433	5436
5436	5439
5439	5440
5445	5448
5448	5450
5450	5452
5458	5462
5462	5463
5463	5464
5464	5467
5467	5468
5468	5469
5474	5477
5477	5480
5486	5489
5489	5490
5495	5496
5496	5497
5497	5499
5499	5500
5505	5508
5508	5511
5513	5517
5522	5525
5525	5531
5531	5532
5537	5543
5543	5546
5546	5552
5552	5558
5558	5564
5569	5572
5572	5578
5578	5579
5584	5590
5590	5593
5593	5599
5599	5605
5605	5611
5616	5619
5619	5625
5625	5626
5631	5638
5643	5646
5646	5652
5652	5653
5658	5665
5670	5673
5673	5679
5679	5680
5685	5692
5697	5700
5700	5706
5706	5707
5712	5719
5724	5727
5727	5733
5733	5734
5739	5746
5751	5754
5754	5760
5766	5773
5778	5779
5779	5780
5781	5787
5787	5788
5793	5800
5805	5808
5808	5814
5814	5815
5820	5827
5832	5835
5835	5841
5841	5842
5847	5854
5859	5862
5862	5868
5868	5869
5874	5881
5886	5889
5891	5893
5893	5895
5895	5897
5897	5899
5899	5901
5901	5903
5904	5909
5909	5913
5920	5924
5924	5926
5927	5934
5942	5949
5952	5956
5957	5960
5984	5985
5990	5996
5996	5999
5999	6003
6008	6015
6016	6017
6017	6018
6018	6019
6019	6020
6025	6031
6031	6034
6038	6042
6042	6044
6046	6048
6055	6058
6058	6064
6064	6066
6066	6067
6067	6071
6071	6072
6077	6080
6080	6082
6082	6084
6084	6090
6090	6093
6095	6098
6100	6102
6104	6108
6108	6110
6112	6116
6116	6118
6118	6121
6121	6122
6122	6123
6123	6124
6124	6125
6133	6136
6136	6137
6137	6138
6138	6139
6139	6140
6144	6148
6148	6150
6152	6156
6162	6165
6165	6167
6167	6168
6168	6169
6169	6170
6170	6171
6176	6181
6183	6190
6192	6197
6199	6206
6208	6209
6209	6210
6210	6211
6211	6212
6217	6223
6223	6226
6226	6230
6230	6234
6234	6236
6238	6240
6247	6250
6250	6256
6256	6258
6258	6259
6259	6263
6263	6264
6269	6272
6272	6274
6274	6276
6276	6282
6282	6285
6287	6290
6292	6294
6296	6300
6300	6302
6304	6308
6308	6310
6310	6313
6313	6314
6314	6315
6315	6316
6316	6317
6325	6328
6328	6329
6329	6330
6330	6331
6331	6332
6336	6340
6340	6342
6344	6348
6354	6357
6357	6359
6359	6360
6360	6361
6361	6362
6362	6363
6368	6373
6375	6382
6384	6389
6391	6398
6405	6410
6410	6411
6411	6412
6412	6413
6413	6414
6414	6420
6420	6427
6427	6431
6431	6433
6435	6442
6442	6444
6444	6446
6452	6455
6455	6457
6463	6471
6471	6479
6479	6487
6493	6500
6500	6504
6504	6509
6509	6514
6514	6519
6519	6524
6524	6529
6529	6534
6534	6542
6550	6558
6558	6566
6566	6574
6574	6582
6582	6590
6590	6598
6598	6606
6606	6614
6614	6616
6622	6629
6629	6631
6631	6633
6633	6635
6635	6637
6637	6642
6642	6644
6644	6646
6646	6650
6650	6655
6664	6667
6673	6678
6678	6680
6686	6689
6689	6691
6691	6693
6693	6695
6697	6700
6702	6707
6707	6711
6711	6713
6719	6726
6726	6728
6730	6737
6737	6739
6739	6741
6746	6748
6748	6752
6754	6758
6758	6763
6768	6771
6777	6782
6782	6784
6790	6793
6793	6795
6795	6797
6797	6799
6801	6804
6806	6811
6811	6815
6815	6817
6826	6830
6830	6837
6843	6850
6850	6852
6854	6861
6861	6865
6865	6868
6868	6872
6872	6876
6876	6880
6880	6884
6884	6888
6888	6892
6896	6903
6903	6905
6911	6918
6918	6922
6922	6926
6926	6929
6929	6933
6933	6937
6937	6941
6941	6945
6945	6949
6949	6953
6953	6957
6962	6969
6969	6971
6971	6973
6979	6986
6986	6990
6990	6996
6996	7000
7000	7007
7007	7014
7020	7027
7027	7029
7035	7038
7038	7045
7045	7047
7047	7048
7048	7052
7052	7053
7053	7060
7060	7064
7069	7072
7072	7074
7074	7076
7076	7082
7082	7084
7090	7094
7094	7101
7101	7103
7103	7108
7112	7114
7114	7116
7116	7118
7122	7125
7125	7128
7130	7137
7137	7139
7141	7148
7148	7155
7155	7157
7157	7162
7168	7170
7170	7172
7172	7174
7178	7181
7181	7184
7186	7193
7193	7195
7197	7204
7206	7212
7212	7214
7214	7215
7215	7216
7216	7217
7217	7218
7219	7222
7222	7229
7229	7231
7231	7232
7232	7234
7234	7241
7241	7245
7250	7253
7253	7255
7255	7257
7257	7263
7263	7265
7271	7274
7280	7283
7293	7299
7299	7300
7300	7301
7301	7302
7302	7303
7304	7311
7312	7318
7318	7323
7323	7324
7324	7325
7325	7326
7326	7327
7328	7334
7334	7339
7339	7340
7340	7341
7341	7342
7342	7343
7344	7352
7357	7361
7366	7368
7368	7375
7375	7377
7379	7386
7386	7390
7390	7397
7397	7401
7401	7407
7407	7409
7409	7415
7420	7426
7426	7428
7433	7439
7439	7446
7451	7456
7461	7468
7472	7473
7473	7478
7483	7489
7489	7492
7492	7496
7496	7498
7500	7506
7506	7511
7511	7516
7516	7518
7518	7521
7521	7524
7524	7526
7526	7529
7529	7531
7531	7533
7533	7534
7534	7535
7535	7537
7542	7545
7545	7548
7550	7554
7554	7556
7558	7561
7561	7562
7563	7567
7568	7573
7575	7582
7584	7585
7590	7596
7596	7599
7599	7603
7603	7608
7608	7613
7613	7614
7614	7618
7623	7626
7626	7629
7629	7630
7630	7633
7634	7641
7648	7649
7649	7650
7650	7651
7651	7655
7660	7666
7666	7668
7670	7675
7677	7680
7680	7686
7686	7688
7688	7689
7694	7697
7697	7699
7699	7701
7703	7706
7706	7707
7707	7711
7711	7712
7717	7720
7720	7722
7727	7730
7730	7732
7734	7738
7738	7740
7750	7751
7751	7752
7752	7753
7760	7761
7761	7766
7766	7767
7767	7768
7776	7780
7780	7782
7784	7788
7788	7794
7794	7796
7796	7797
7797	7798
7798	7799
7800	7807
7808	7809
7809	7810
7815	7821
7821	7824
7824	7826
7826	7828
7828	7830
7830	7832
7832	7837
7837	7842
7847	7850
7850	7855
7857	7860
7860	7866
7866	7868
7868	7869
7874	7877
7877	7879
7879	7881
7883	7886
7886	7891
7891	7896
7896	7897
7902	7905
7910	7913
7913	7918
7918	7919
7919	7920
7921	7927
7927	7928
7928	7929
7929	7930
7930	7932
7937	7938
7938	7939
7939	7945
7945	7946
7946	7948
7953	7956
7957	7960
7961	7963
7963	7965
7965	7967
7968	7969
7969	7970
7975	7981
7981	7984
7984	7988
7988	7991
7991	7997
7999	8005
8011	8014
8014	8018
8018	8019
8019	8021
8021	8022
8027	8030
8030	8032
8034	8038
8038	8044
8044	8048
8048	8051
8051	8053
8053	8055
8055	8062
8062	8068
8068	8071
8071	8072
8074	8077
8077	8079
8084	8091
8091	8095
8096	8097
8102	8108
8108	8109
8109	8110
8110	8111
8111	8114
8114	8118
8118	8121
8127	8133
8133	8138
8138	8143
8151	8155
8155	8159
8159	8162
8162	8166
8168	8175
8176	8178
8178	8180
8180	8183
8183	8187
8187	8189
8193	8195
8197	8200
8202	8206
8206	8208
8208	8209
8214	8217
8217	8219
8225	8229
8229	8233
8233	8236
8236	8239
8239	8245
8245	8247
8247	8254
8254	8256
8256	8258
8258	8261
8261	8267
8267	8271
8271	8273
8275	8279
8280	8282
8282	8284
8284	8287
8287	8290
8290	8292
8292	8296
8296	8298
8298	8301
8307	8311
8311	8314
8318	8321
8321	8323
8323	8327
8327	8329
8335	8341
8347	8350
8350	8352
8354	8356
8356	8359
8363	8365
8365	8367
8369	8371
8371	8374
8380	8383
8383	8385
8385	8386
8386	8388
8388	8392
8397	8401
8401	8404
8404	8405
8405	8406
8406	8407
8407	8408
8416	8422
8434	8437
8437	8441
8441	8445
8445	8447
8447	8452
8452	8456
8456	8460
8460	8466
8472	8478
8478	8481
8481	8485
8485	8487
8493	8497
8499	8503
8506	8508
8508	8511
8511	8515
8515	8517
8525	8527
8534	8538
8540	8541
8546	8549
8549	8551
8557	8561
8561	8565
8565	8568
8568	8571
8571	8577
8577	8579
8579	8586
8586	8588
8588	8594
8600	8602
8602	8608
8610	8613
8613	8615
8617	8619
8619	8622
8622	8626
8628	8630
8636	8638
8638	8641
8641	8644
8656	8658
8658	8664
8664	8666
8672	8674
8674	8677
8677	8680
8688	8694
8694	8696
8702	8704
8704	8707
8707	8714
8719	8722
8722	8724
8724	8726
8731	8734
8734	8740
8740	8742
8742	8743
8748	8755
8760	8767
8768	8769
8774	8780
8780	8781
8781	8782
8782	8786
8786	8791
8791	8794
8794	8795
8800	8803
8803	8804
8804	8806
8806	8808
8808	8810
8810	8811
8816	8819
8819	8821
8821	8822
8823	8824
8832	8833
8833	8834
8834	8835
8835	8836
8841	8847
8847	8850
8850	8854
8854	8857
8857	8859
8865	8867
8867	8870
8870	8873
8873	8875
8877	8880
8880	8883
8883	8889
8889	8893
8893	8900
8900	8902
8902	8904
8906	8908
8908	8911
8920	8923
8923	8924
8924	8925
8925	8926
8926	8927
8928	8931
8934	8940
8942	8945
8945	8947
8947	8950
8950	8952
8952	8955
8955	8958
8958	8962
8962	8965
8965	8967
8967	8970
8970	8976
8978	8981
8981	8983
8985	8987
8987	8990
8994	8996
8996	8998
9000	9002
9002	9005
9005	9008
9008	9011
9011	9012
9012	9013
9013	9014
9014	9015
9016	9023
9024	9026
9026	9032
9032	9034
9038	9041
9041	9043
9048	9051
9052	9055
9056	9057
9062	9068
9068	9071
9071	9075
9075	9077
9077	9079
9079	9081
9081	9083
9085	9087
9087	9089
9091	9093
9093	9096
9096	9097
9104	9106
9106	9108
9108	9114
9114	9117
9117	9120
9125	9128
9128	9134
9134	9137
9137	9138
9139	9143
9144	9146
9146	9152
9152	9155
9155	9158
9163	9166
9166	9172
9172	9175
9175	9176
9184	9185
9190	9196
9196	9199
9199	9203
9203	9205
9205	9207
9207	9209
9209	9211
9213	9215
9215	9217
9219	9221
9221	9224
9224	9225
9232	9234
9234	9236
9236	9242
9242	9245
9245	9248
9253	9256
9256	9259
9259	9260
9264	9266
9266	9272
9272	9275
9275	9278
9283	9286
9286	9289
9289	9290
9291	9295
9296	9297
9302	9308
9308	9311
9311	9315
9315	9319
9319	9323
9323	9327
9332	9335
9335	9339
9339	9343
9343	9349
9349	9352
9352	9356
9361	9365
9365	9369
9369	9372
9372	9374
9374	9378
9378	9382
9382	9385
9390	9394
9394	9398
9398	9401
9401	9403
9403	9405
9405	9407
9407	9409
9411	9413
9413	9415
9417	9419
9419	9422
9422	9424
9424	9425
9432	9434
9434	9436
9436	9438
9438	9441
9441	9447
9447	9450
9450	9453
9458	9462
9462	9465
9465	9468
9468	9469
9469	9471
9472	9474
9474	9476
9476	9479
9479	9485
9485	9488
9488	9491
9496	9500
9500	9503
9503	9506
9506	9507
9507	9509
9510	9512
9512	9514
9514	9516
9516	9518
9520	9521
9521	9522
9522	9523
9528	9534
9534	9537
9537	9545
9545	9549
9549	9553
9560	9561
9561	9563
9563	9564
9564	9566
9571	9574
9574	9576
9578	9583
9585	9589
9589	9592
9592	9593
9593	9594
9594	9595
9600	9603
9603	9605
9605	9606
9606	9607
9607	9608
9617	9618
9618	9619
9619	9620
9620	9623
9623	9627
9627	9631
9631	9633
9639	9641
9641	9646
9648	9650
9650	9652
9652	9655
9655	9657
9657	9659
9659	9662
9662	9665
9665	9667
9667	9669
9669	9672
9672	9675
9675	9677
9677	9679
9681	9683
9683	9687
9687	9689
9689	9691
9691	9695
9696	9700
9700	9703
9703	9706
9706	9709
9709	9711
9713	9717
9722	9725
9725	9726
9726	9727
9727	9728
9728	9729
9736	9740
9740	9742
9742	9745
9745	9748
9748	9752
9760	9761
9761	9762
9762	9763
9763	9764
9764	9767
9767	9771
9771	9775
9775	9777
9779	9781
9781	9783
9783	9790
9792	9797
9797	9799
9799	9802
9802	9804
9806	9808
9808	9811
9811	9814
9814	9816
9816	9818
9818	9821
9821	9824
9824	9826
9826	9828
9828	9831
9833	9835
9835	9839
9839	9843
9843	9847
9848	9852
9852	9855
9855	9858
9858	9861
9861	9863
9868	9871
9871	9872
9872	9873
9874	9875
9876	9883
9883	9887
9888	9889
9889	9890
9890	9891
9891	9892
9892	9895
9895	9899
9899	9903
9903	9907
9907	9909
9909	9911
9915	9919
9924	9926
9926	9929
9929	9931
9931	9934
9934	9937
9937	9941
9941	9943
9943	9945
9945	9950
9950	9953
9956	9959
9959	9961
9961	9964
9964	9967
9969	9973
9976	9980
9980	9983
9983	9986
9986	9989
9989	9991
9996	9999
9999	10000
10000	10001
10001	10002
10002	10003
10004	10011
10011	10015
10016	10017
10017	10018
10018	10019
10019	10020
10025	10031
10031	10034
10034	10038
10038	10042
10042	10044
10050	10053
10053	10056
10056	10060
10065	10068
10068	10071
10079	10082
10082	10085
10085	10089
10094	10097
10097	10100
10100	10102
10102	10104
10110	10112
10112	10114
10114	10116
10116	10118
10126	10128
10128	10130
10132	10134
10140	10146
10150	10154
10154	10156
10156	10158
10160	10162
10162	10165
10165	10168
10168	10172
10178	10181
10181	10185
10185	10189
10194	10196
10196	10200
10200	10206
10206	10208
10208	10211
10211	10214
10214	10222
10224	10226
10234	10236
10245	10251
10251	10254
10254	10258
10258	10260
10260	10262
10264	10266
10272	10275
10275	10278
10278	10281
10281	10284
10284	10289
10289	10291
10296	10299
10299	10301
10301	10303
10303	10305
10305	10307
10309	10312
10312	10315
10315	10319
10324	10327
10327	10330
10330	10332
10334	10337
10337	10340
10340	10344
10344	10346
10346	10348
10348	10352
10352	10355
10360	10364
10364	10370
10370	10374
10374	10378
10378	10381
10381	10385
10385	10388
10388	10390
10390	10394
10394	10396
10396	10400
10400	10404
10404	10407
10407	10410
10410	10413
10413	10415
10424	10426
10426	10430
10430	10432
10432	10434
10440	10443
10443	10445
10445	10448
10448	10456
10464	10466
10466	10469
10469	10475
10475	10476
10476	10477
10482	10485
10487	10494
10498	10501
10501	10502
10502	10503
10503	10504
10504	10505
10512	10514
10514	10517
10517	10523
10523	10524
10524	10525
10530	10533
10535	10542
10544	10548
10554	10558
10558	10560
10566	10570
10570	10575
10575	10577
10577	10581
10581	10584
10584	10587
10587	10590
10590	10592
10594	10596
10596	10604
10604	10607
10607	10609
10616	10619
10622	10624
10626	10628
10628	10631
10631	10634
10634	10636
10636	10638
10644	10647
10647	10650
10650	10654
10660	10664
10667	10671
10677	10681
10681	10684
10684	10688
10694	10698
10698	10701
10701	10705
10711	10715
10715	10718
10718	10722
10724	10728
10728	10731
10731	10735
10737	10741
10741	10744
10744	10748
10750	10754
10754	10757
10757	10761
10763	10767
10767	10770
10770	10774
10776	10780
10780	10783
10783	10787
10789	10793
10793	10796
10796	10800
10802	10806
10809	10813
10815	10819
10819	10822
10822	10826
10828	10832
10832	10835
10835	10839
10841	10845
10850	10853
10853	10856
10856	10857
10857	10858
10858	10859
10859	10860
10864	10866
10866	10869
10869	10875
10875	10876
10876	10877
10882	10885
10885	10888
10888	10889
10889	10890
10890	10891
10891	10892
10896	10902
10902	10906
10912	10913
10913	10914
10914	10915
10915	10916
10921	10927
10927	10933
10933	10940
10940	10942
10948	10955
10955	10963
10963	10966
10966	10968
10974	10978
10978	10982
10982	10989
10992	10999
10999	11002
11002	11004
11010	11014
11014	11016
11022	11030
11030	11032
11034	11042
11042	11046
11049	11052
11052	11053
11058	11062
11062	11065
11065	11067
11073	11077
11077	11084
11084	11092
11092	11094
11096	11104
11104	11108
11116	11119
11119	11120
11125	11129
11129	11132
11132	11134
11140	11147
11147	11155
11155	11158
11158	11160
11166	11168
11174	11177
11177	11180
11182	11185
11185	11192
11192	11194
11200	11204
11204	11208
11208	11212
11212	11220
11224	11225
11225	11227
11227	11228
11228	11230
11235	11238
11238	11240
11249	11256
11261	11268
11272	11274
11280	11284
11284	11290
11290	11291
11291	11292
11292	11293
11293	11294
11296	11304
11304	11311
11320	11327
11327	11331
11331	11335
11335	11339
11339	11342
11342	11346
11346	11353
11353	11355
11355	11359
11359	11363
11363	11366
11370	11372
11378	11383
11383	11391
11391	11395
11395	11399
11400	11401
11401	11403
11403	11404
11404	11406
11411	11414
11414	11416
11418	11423
11425	11429
11429	11434
11442	11446
11446	11453
11453	11460
11460	11467
11467	11471
11471	11474
11474	11481
11481	11483
11494	11501
11501	11505
11505	11508
11508	11512
11512	11519
11519	11521
11521	11523
11530	11532
11532	11534
11534	11537
11537	11539
11539	11542
11542	11545
11545	11549
11549	11551
11551	11554
11554	11559
11559	11562
11562	11565
11565	11568
11568	11570
11570	11573
11573	11576
11578	11580
11580	11587
11587	11589
11589	11593
11593	11595
11595	11597
11600	11604
11604	11607
11607	11610
11610	11613
11613	11615
11617	11625
11625	11628
11628	11632
11637	11641
11641	11643
11643	11647
11647	11651
11651	11654
11654	11656
11662	11670
11670	11674
11674	11676
11682	11686
11686	11690
11690	11694
11694	11696
11696	11700
11704	11708
11708	11716
11720	11721
11721	11723
11723	11724
11724	11726
11731	11734
11734	11736
11738	11743
11745	11749
11749	11752
11752	11756
11756	11758
11760	11764
11764	11766
11772	11779
11779	11783
11787	11794
11794	11801
11801	11805
11805	11808
11808	11815
11815	11817
11828	11835
11835	11839
11839	11841
11841	11844
11844	11848
11848	11855
11855	11857
11864	11866
11866	11869
11869	11871
11871	11875
11875	11880
11880	11882
11882	11884
11884	11887
11887	11890
11890	11892
11892	11894
11894	11897
11897	11900
11900	11902
11902	11904
11904	11907
11909	11913
11913	11920
11920	11924
11924	11926
11926	11928
11928	11930
11936	11940
11940	11943
11943	11946
11946	11949
11949	11951
11953	11957
11957	11960
11960	11968
11968	11972
11977	11981
11981	11983
11983	11987
11987	11991
11991	11994
11994	11996
12002	12010
12010	12014
12014	12016
12018	12022
12022	12026
12026	12030
12030	12032
12032	12036
12040	12044
12044	12052
12056	12057
12057	12059
12059	12060
12060	12062
12067	12070
12070	12072
12074	12079
12081	12085
12085	12088
12088	12092
12092	12094
12096	12100
12100	12102
12108	12112
12112	12114
12120	12122
12122	12126
12126	12130
12130	12132
12136	12144
12144	12152
12152	12159
12160	12161
12161	12163
12163	12164
12164	12166
12171	12174
12174	12176
12178	12183
12185	12188
12188	12192
12194	12198
12198	12202
12207	12214
12214	12218
12218	12221
12221	12225
12225	12232
12232	12234
12234	12238
12238	12240
12246	12249
12258	12261
12261	12265
12271	12275
12275	12279
12279	12283
12283	12285
12285	12287
12287	12291
12291	12296
12296	12298
12304	12308
12308	12311
12311	12313
12319	12324
12330	12334
12334	12338
12338	12342
12342	12346
12346	12348
12348	12352
12352	12356
12358	12362
12368	12372
12372	12380
12384	12385
12385	12387
12387	12388
12388	12390
12395	12398
12398	12400
12402	12407
12409	12413
12413	12416
12416	12420
12420	12424
12424	12426
12426	12428
12430	12432
12434	12438
12438	12440
12446	12453
12453	12457
12457	12461
12466	12469
12469	12473
12478	12482
12482	12485
12490	12497
12497	12500
12500	12504
12508	12515
12515	12519
12519	12521
12521	12522
12522	12529
12529	12532
12532	12534
12539	12542
12547	12551
12551	12554
12554	12556
12562	12570
12570	12574
12574	12576
12582	12586
12586	12590
12590	12594
12594	12596
12596	12600
12600	12607
12608	12612
12612	12620
12625	12627
12627	12628
12628	12630
12635	12638
12638	12640
12642	12647
12649	12653
12653	12656
12656	12660
12660	12662
12669	12676
12676	12679
12679	12683
12683	12690
12690	12692
12692	12699
12699	12703
12703	12707
12707	12709
12711	12718
12718	12726
12726	12728
12732	12736
12736	12738
12744	12749
12749	12751
12751	12754
12754	12756
12756	12758
12758	12761
12761	12764
12764	12766
12766	12768
12771	12773
12773	12776
12776	12778
12780	12782
12782	12786
12786	12788
12788	12790
12790	12794
12800	12804
12804	12807
12807	12810
12810	12813
12813	12817
12819	12823
12823	12826
12826	12831
12831	12835
12840	12844
12844	12846
12846	12850
12850	12854
12854	12857
12857	12859
12865	12873
12873	12875
12881	12885
12885	12889
12889	12893
12893	12897
12897	12899
12899	12901
12901	12905
12912	12916
12916	12924
12928	12929
12929	12931
12932	12934
12939	12942
12942	12944
12946	12951
12953	12957
12957	12960
12960	12964
12964	12966
12968	12972
12972	12976
12976	12980
12980	12982
12988	12992
12992	12999
12999	13006
13006	13013
13013	13017
13017	13020
13020	13027
13027	13029
13040	13048
13048	13052
13052	13056
13056	13064
13064	13071
13072	13073
13073	13075
13075	13076
13076	13078
13083	13086
13086	13088
13090	13095
13097	13104
13104	13111
13111	13116
13116	13120
13120	13123
13123	13130
13130	13132
13143	13151
13151	13154
13154	13161
13166	13170
13170	13173
13173	13180
13187	13190
13190	13193
13193	13194
13199	13202
13202	13204
13206	13213
13213	13216
13221	13224
13224	13231
13236	13240
13240	13243
13243	13250
13259	13262
13262	13265
13265	13266
13271	13274
13274	13276
13278	13285
13290	13294
13294	13296
13302	13304
13304	13308
13312	13320
13328	13329
13329	13331
13331	13332
13332	13334
13339	13342
13342	13344
13346	13351
13353	13356
13356	13360
13362	13366
13366	13370
13375	13377
13383	13391
13391	13395
13395	13399
13400	13404
13404	13406
13408	13416
13424	13425
13425	13427
13427	13428
13428	13430
13435	13438
13438	13440
13442	13447
13449	13454
13454	13458
13458	13462
13464	13468
13468	13472
13472	13476
13476	13480
13488	13496
13504	13505
13505	13507
13507	13508
13508	13510
13515	13518
13518	13520
13522	13527
13531	13535
13535	13537
13543	13545
13545	13549
13549	13553
13553	13555
13555	13559
13560	13568
13568	13576
13576	13583
13584	13585
13585	13587
13588	13590
13595	13598
13598	13600
13602	13607
13609	13612
13612	13616
13623	13625
13627	13635
13635	13639
13639	13643
13643	13647
13648	13652
13652	13654
13656	13664
13664	13672
13672	13679
13680	13681
13681	13683
13694	13696
13698	13703
13705	13710
13710	13714
13714	13718
13720	13724
13728	13736
13736	13738
13744	13748
13760	13768
13776	13777
13777	13779
13779	13780
13780	13782
13787	13790
13790	13792
13794	13799
13803	13805
13807	13815
13815	13819
13819	13823
13824	13828
13828	13830
13832	13840
13840	13848
13848	13855
13856	13857
13857	13859
13859	13860
13860	13862
13867	13870
13870	13872
13874	13879
13881	13886
13886	13890
13890	13894
13896	13900
13904	13912
13912	13914
13928	13936
13936	13944
13944	13951
13952	13953
13953	13955
13955	13956
13956	13958
13963	13966
13966	13968
13970	13975
13979	13983
13983	13985
13991	13995
13995	13999
14000	14008
14016	14017
14017	14019
14019	14020
14020	14022
14030	14032
14034	14039
14041	14044
14044	14048
14050	14054
14054	14058
14063	14065
14067	14075
14075	14079
14079	14083
14083	14087
14087	14089
14096	14100
14100	14102
14104	14112
14112	14120
14120	14127
14128	14129
14129	14131
14131	14132
14132	14134
14139	14142
14142	14144
14146	14151
14153	14158
14158	14162
14162	14166
14168	14172
14172	14176
14180	14188
14188	14190
14208	14216
14224	14225
14225	14227
14227	14228
14228	14230
14235	14238
14238	14240
14242	14247
14251	14255
14255	14257
14257	14261
14261	14263
14269	14273
14273	14277
14288	14292
14292	14294
14296	14304
14304	14312
14312	14319
14320	14321
14321	14323
14323	14324
14324	14326
14331	14334
14334	14336
14338	14343
14345	14350
14350	14354
14354	14358
14360	14364
14364	14368
14376	14384
14384	14392
14392	14399
14400	14401
14401	14403
14403	14404
14404	14406
14411	14414
14414	14416
14418	14423
14431	14435
14435	14437
14443	14445
14445	14449
14449	14453
14457	14459
14459	14463
14464	14472
14480	14481
14481	14483
14483	14484
14484	14486
14491	14494
14494	14496
14498	14503
14505	14508
14508	14512
14514	14518
14518	14522
14527	14529
14531	14533
14537	14541
14541	14545
14545	14549
14552	14556
14556	14558
14560	14568
14576	14577
14577	14579
14579	14580
14580	14582
14587	14590
14590	14592
14594	14599
14606	14610
14610	14614
14616	14620
14624	14628
14628	14631
14635	14640
14646	14650
14656	14664
14672	14673
14673	14675
14675	14676
14676	14678
14683	14686
14686	14688
14690	14695
14699	14707
14712	14719
14725	14730
14730	14731
14731	14732
14732	14733
14733	14734
14734	14740
14740	14747
14747	14751
14751	14753
14759	14762
14762	14764
14764	14766
14772	14780
14780	14788
14788	14790
14790	14792
14792	14796
14796	14801
14803	14807
14808	14815
14815	14818
14818	14821
14821	14825
14827	14829
14835	14838
14838	14841
14843	14847
14847	14849
14855	14863
14863	14865
14867	14875
14875	14879
14882	14885
14885	14886
14886	14890
14895	14899
14899	14902
14902	14904
14906	14909
14909	14917
14917	14919
14919	14921
14923	14931
14931	14935
14938	14941
14941	14942
14942	14946
14951	14955
14955	14958
14958	14960
14966	14970
14970	14972
14972	14975
14977	14980
14982	14985
14985	14987
14993	14997
14997	15000
15000	15007
15007	15009
15011	15015
15016	15018
15018	15026
15026	15028
15028	15032
15032	15035
15037	15040
15040	15043
15043	15044
15044	15048
15053	15056
15056	15058
15067	15071
15071	15074
15074	15075
15075	15079
15084	15087
15087	15089
15091	15095
15095	15098
15104	15111
15111	15115
15115	15117
15117	15120
15124	15127
15127	15129
15135	15142
15142	15145
15145	15148
15148	15150
15156	15160
15160	15163
15163	15166
15172	15179
15179	15181
15181	15184
15184	15186
15186	15188
15197	15200
15200	15204
15204	15206
15208	15210
15210	15213
15213	15215
15215	15217
15223	15230
15230	15234
15234	15237
15237	15239
15245	15252
15252	15257
15257	15260
15260	15262
15268	15275
15275	15280
15280	15283
15283	15285
15291	15298
15298	15303
15303	15306
15306	15308
15314	15321
15321	15326
15326	15329
15329	15331
15337	15344
15344	15349
15349	15352
15352	15354
15360	15367
15367	15372
15372	15375
15375	15377
15383	15390
15390	15395
15395	15398
15398	15400
15402	15409
15409	15414
15414	15417
15417	15419
15421	15428
15428	15433
15433	15436
15436	15438
15440	15447
15447	15452
15452	15455
15455	15457
15459	15466
15466	15471
15471	15474
15474	15476
15478	15485
15485	15490
15490	15493
15493	15495
15497	15504
15504	15507
15507	15512
15512	15514
15516	15521
15532	15536
15536	15543
15543	15546
15546	15548
15562	15568
15568	15570
15570	15571
15571	15572
15572	15573
15573	15574
15575	15582
15584	15591
15591	15594
15594	15598
15598	15601
15601	15605
15610	15617
15617	15621
15621	15625
15625	15627
15627	15630
15630	15634
15634	15641
15641	15643
15643	15645
15650	15652
15652	15654
15654	15657
15657	15659
15659	15662
15662	15665
15665	15668
15668	15671
15671	15674
15674	15677
15677	15679
15679	15682
15682	15685
15687	15691
15691	15695
15695	15697
15697	15701
15701	15703
15703	15705
15705	15707
15707	15711
15712	15716
15716	15719
15719	15722
15722	15725
15725	15727
15729	15734
15734	15737
15737	15741
15741	15745
15750	15752
15752	15756
15756	15760
15760	15763
15763	15765
15765	15767
15773	15778
15778	15780
15780	15782
15788	15792
15792	15794
15794	15796
15796	15803
15803	15807
15808	15811
15811	15814
15814	15818
15818	15820
15822	15826
15826	15828
15834	15838
15838	15842
15844	15847
15847	15854
15859	15866
15866	15873
15873	15877
15877	15880
15880	15884
15884	15891
15891	15893
15893	15897
15897	15899
15899	15901
15904	15909
15909	15911
15911	15914
15914	15916
15916	15918
15918	15920
15920	15923
15923	15926
15926	15928
15928	15930
15930	15933
15933	15936
15936	15938
15938	15940
15940	15943
15945	15947
15947	15951
15951	15953
15953	15960
15960	15962
15962	15964
15964	15968
15968	15972
15972	15974
15974	15981
15984	15988
15988	15991
15991	15994
15994	15997
15997	15999
16001	16006
16006	16009
16009	16013
16013	16017
16022	16024
16024	16028
16028	16032
16032	16035
16035	16037
16037	16039
16045	16050
16050	16052
16052	16054
16056	16060
16060	16062
16062	16064
16064	16071
16071	16078
16080	16083
16083	16086
16086	16090
16090	16092
16094	16098
16098	16100
16106	16108
16114	16117
16117	16120
16126	16133
16133	16135
16135	16138
16138	16140
16140	16142
16149	16152
16152	16156
16156	16158
16160	16162
16162	16165
16165	16168
16168	16170
16176	16183
16183	16187
16187	16190
16190	16192
16198	16205
16205	16210
16210	16213
16221	16228
16228	16233
16233	16236
16236	16238
16244	16251
16251	16256
16256	16259
16259	16261
16267	16274
16274	16279
16279	16282
16282	16284
16290	16297
16297	16302
16302	16305
16305	16307
16313	16320
16320	16325
16325	16328
16328	16330
16336	16343
16343	16348
16348	16351
16351	16353
16355	16362
16362	16367
16367	16370
16370	16372
16374	16381
16381	16386
16386	16389
16389	16391
16393	16400
16400	16405
16405	16408
16408	16410
16419	16424
16424	16427
16427	16429
16431	16438
16438	16443
16443	16446
16446	16448
16450	16457
16457	16460
16460	16465
16465	16467
16469	16474
16487	16494
16494	16497
16497	16501
16501	16508
16508	16510
16510	16512
16514	16517
16517	16518
16518	16522
16522	16526
16531	16534
16534	16538
16538	16540
16542	16545
16545	16546
16546	16550
16550	16554
16559	16563
16563	16566
16568	16572
16572	16576
16576	16578
16578	16582
16582	16584
16590	16593
16593	16595
16601	16603
16609	16611
16611	16613
16613	16616
16616	16623
16623	16625
16627	16631
16632	16634
16636	16639
16639	16642
16642	16644
16644	16648
16648	16650
16650	16652
16654	16658
16658	16660
16666	16670
16670	16674
16674	16677
16677	16684
16684	16686
16691	16698
16698	16701
16705	16706
16706	16710
16710	16714
16714	16716
16716	16717
16717	16724
16724	16727
16727	16729
16734	16738
16738	16741
16746	16750
16750	16753
16753	16755
16766	16768
16768	16770
16772	16776
16776	16783
16783	16785
16792	16795
16795	16798
16798	16802
16802	16804
16806	16810
16810	16814
16814	16817
16817	16824
16824	16826
16831	16838
16838	16841
16845	16852
16852	16854
16854	16858
16858	16862
16862	16866
16866	16868
16874	16878
16878	16882
16882	16884
16884	16886
16886	16893
16896	16901
16901	16903
16903	16906
16906	16908
16908	16910
16910	16913
16913	16916
16916	16918
16918	16920
16920	16923
16923	16925
16925	16928
16928	16930
16932	16936
16936	16938
16938	16942
16942	16946
16946	16948
16948	16950
16950	16957
16960	16964
16964	16967
16970	16973
16973	16975
16977	16981
16981	16985
16985	16988
16988	16993
16993	16997
16997	17001
17006	17010
17010	17013
17013	17015
17015	17019
17019	17021
17032	17034
17034	17036
17042	17046
17046	17048
17048	17050
17050	17057
17064	17067
17067	17070
17070	17074
17074	17076
17078	17082
17082	17084
17086	17090
17090	17094
17094	17097
17097	17104
17104	17106
17111	17118
17120	17124
17124	17129
17129	17131
17131	17135
17140	17142
17148	17151
17151	17154
17160	17167
17167	17169
17169	17172
17172	17174
17174	17176
17176	17183
17184	17189
17189	17192
17192	17196
17205	17207
17209	17212
17215	17217
17219	17221
17221	17228
17228	17231
17231	17233
17240	17245
17245	17248
17248	17252
17252	17254
17256	17258
17258	17261
17261	17264
17264	17266
17272	17279
17279	17282
17282	17286
17286	17288
17294	17297
17297	17302
17302	17304
17310	17313
17313	17318
17318	17320
17326	17329
17329	17334
17334	17336
17338	17341
17341	17346
17346	17348
17350	17353
17353	17358
17358	17360
17362	17365
17365	17370
17370	17372
17374	17377
17377	17382
17382	17384
17386	17389
17389	17394
17394	17396
17398	17401
17401	17406
17406	17408
17410	17413
17413	17418
17418	17420
17422	17425
17425	17430
17430	17432
17434	17437
17437	17442
17442	17444
17446	17449
17449	17454
17454	17456
17463	17465
17472	17475
17475	17476
17476	17480
17485	17489
17489	17492
17494	17501
17507	17511
17511	17514
17514	17515
17515	17519
17524	17527
17527	17529
17536	17538
17544	17548
17548	17551
17551	17553
17559	17562
17568	17575
17575	17577
17580	17582
17589	17592
17592	17596
17596	17598
17600	17602
17602	17605
17605	17609
17609	17612
17612	17614
17620	17627
17627	17631
17631	17635
17635	17638
17638	17640
17646	17653
17653	17658
17658	17662
17662	17665
17665	17667
17673	17680
17680	17685
17685	17689
17689	17692
17692	17694
17700	17707
17707	17712
17712	17716
17716	17719
17719	17721
17727	17734
17734	17739
17739	17743
17743	17746
17746	17748
17754	17761
17761	17766
17766	17770
17770	17773
17773	17775
17781	17788
17788	17793
17793	17797
17797	17800
17800	17802
17808	17815
17815	17820
17820	17824
17824	17827
17827	17829
17835	17842
17842	17847
17847	17851
17851	17854
17854	17856
17862	17869
17869	17874
17874	17878
17878	17881
17881	17883
17889	17896
17896	17901
17901	17905
17905	17908
17908	17910
17916	17923
17923	17928
17928	17932
17932	17935
17935	17937
17943	17950
17950	17955
17955	17959
17959	17962
17962	17964
17970	17977
17977	17982
17982	17986
17986	17989
17989	17991
17997	18004
18004	18009
18014	18017
18023	18030
18030	18032
18032	18035
18035	18037
18037	18039
18039	18046
18054	18057
18057	18061
18061	18063
18065	18067
18067	18070
18070	18074
18074	18077
18077	18079
18085	18092
18092	18096
18096	18100
18100	18103
18103	18105
18111	18118
18118	18123
18123	18127
18127	18130
18130	18132
18138	18145
18145	18150
18150	18154
18154	18157
18157	18159
18165	18172
18172	18177
18177	18181
18181	18184
18184	18186
18192	18199
18199	18204
18204	18208
18208	18211
18211	18213
18219	18226
18226	18231
18231	18235
18235	18238
18238	18240
18246	18253
18253	18258
18258	18262
18262	18265
18265	18267
18273	18280
18280	18285
18285	18289
18289	18292
18292	18294
18300	18307
18307	18312
18312	18316
18316	18319
18319	18321
18327	18334
18334	18339
18339	18343
18343	18346
18346	18348
18350	18357
18357	18362
18362	18366
18366	18369
18369	18371
18373	18380
18380	18385
18385	18389
18389	18392
18392	18394
18396	18403
18403	18408
18408	18412
18412	18415
18415	18417
18419	18426
18426	18431
18431	18435
18435	18438
18438	18440
18442	18449
18449	18454
18454	18461
18464	18468
18472	18479
18479	18482
18482	18485
18490	18492
18498	18502
18502	18505
18505	18507
18516	18518
18520	18522
18522	18529
18529	18532
18532	18534
18534	18541
18544	18549
18549	18552
18552	18556
18556	18558
18560	18562
18562	18565
18565	18569
18569	18572
18572	18574
18580	18587
18587	18591
18591	18595
18595	18598
18598	18600
18606	18613
18613	18616
18616	18621
18621	18623
18629	18632
18632	18637
18637	18639
18645	18648
18648	18653
18653	18655
18657	18660
18660	18665
18665	18667
18669	18672
18672	18677
18677	18679
18681	18684
18684	18689
18689	18691
18693	18696
18696	18701
18701	18703
18705	18708
18708	18713
18713	18715
18717	18720
18720	18725
18725	18727
18729	18732
18732	18737
18737	18739
18741	18744
18744	18749
18749	18751
18753	18756
18761	18763
18765	18768
18768	18773
18773	18775
18784	18789
18789	18791
18797	18799
18804	18808
18808	18810
18810	18812
18818	18822
18822	18825
18825	18827
18836	18838
18840	18842
18842	18849
18849	18852
18852	18854
18854	18861
18864	18869
18869	18872
18872	18876
18876	18878
18880	18882
18882	18885
18885	18889
18889	18892
18892	18894
18900	18907
18907	18911
18911	18915
18915	18918
18918	18920
18926	18933
18933	18936
18936	18941
18941	18943
18949	18952
18952	18957
18957	18959
18965	18968
18968	18973
18973	18975
18977	18980
18980	18985
18985	18987
18989	18992
18992	18997
19001	19004
19004	19009
19009	19011
19013	19016
19016	19021
19021	19023
19025	19028
19028	19033
19033	19035
19037	19040
19040	19045
19045	19047
19049	19052
19052	19057
19057	19059
19061	19064
19064	19069
19069	19071
19073	19076
19076	19081
19081	19083
19085	19088
19088	19093
19093	19095
19102	19104
19111	19115
19115	19117
19123	19126
19126	19129
19135	19142
19142	19145
19145	19147
19147	19149
19152	19157
19157	19160
19160	19164
19164	19166
19168	19172
19172	19174
19174	19177
19177	19180
19180	19182
19188	19195
19195	19198
19198	19202
19202	19206
19206	19208
19214	19221
19221	19224
19224	19229
19229	19231
19237	19240
19240	19245
19245	19247
19253	19256
19256	19261
19261	19263
19265	19268
19268	19273
19273	19275
19277	19280
19280	19285
19285	19287
19289	19292
19292	19297
19297	19299
19301	19304
19304	19309
19309	19311
19313	19316
19316	19321
19321	19323
19325	19328
19328	19333
19333	19335
19337	19340
19340	19345
19345	19347
19349	19352
19352	19357
19357	19359
19361	19364
19364	19369
19369	19371
19373	19376
19376	19381
19381	19383
19390	19394
19399	19401
19401	19403
19409	19413
19413	19415
19421	19424
19433	19440
19440	19443
19443	19445
19445	19447
19447	19449
19456	19461
19461	19464
19464	19468
19468	19470
19472	19476
19476	19478
19478	19481
19481	19485
19485	19488
19488	19490
19496	19503
19503	19507
19507	19511
19511	19514
19514	19518
19524	19531
19531	19536
19536	19539
19539	19543
19549	19556
19556	19561
19561	19564
19564	19568
19574	19581
19581	19586
19586	19589
19589	19593
19599	19606
19606	19611
19611	19614
19614	19618
19624	19631
19631	19636
19636	19639
19639	19643
19649	19656
19656	19661
19661	19664
19664	19668
19674	19681
19681	19686
19686	19689
19689	19693
19699	19706
19706	19711
19711	19714
19714	19718
19724	19731
19731	19736
19736	19739
19739	19743
19749	19756
19756	19761
19761	19764
19764	19768
19774	19781
19781	19786
19789	19793
19799	19806
19806	19811
19811	19814
19814	19818
19824	19831
19831	19836
19838	19841
19841	19845
19851	19858
19858	19863
19872	19874
19880	19884
19884	19887
19887	19889
19898	19900
19902	19904
19904	19911
19911	19914
19914	19916
19925	19928
19928	19932
19932	19934
19936	19938
19938	19941
19941	19945
19945	19948
19948	19950
19956	19963
19963	19967
19967	19971
19971	19974
19974	19976
19982	19989
19989	19994
19994	19997
19997	19999
20005	20012
20012	20017
20017	20020
20020	20022
20028	20035
20035	20040
20040	20043
20043	20045
20051	20058
20058	20063
20063	20066
20066	20068
20074	20081
20081	20086
20086	20089
20089	20091
20097	20104
20104	20109
20109	20112
20112	20114
20120	20127
20127	20132
20132	20135
20135	20137
20143	20150
20150	20155
20155	20158
20158	20160
20162	20169
20169	20174
20174	20177
20177	20179
20181	20188
20188	20193
20193	20196
20196	20198
20200	20207
20207	20212
20212	20215
20215	20217
20219	20226
20226	20231
20231	20234
20234	20236
20238	20245
20245	20250
20250	20252
20252	20255
20255	20257
20259	20266
20278	20280
20280	20282
20293	20295
20301	20305
20305	20308
20308	20310
20319	20321
20323	20325
20325	20332
20332	20335
20335	20337
20344	20349
20349	20352
20352	20356
20356	20358
20360	20362
20362	20365
20365	20369
20369	20372
20372	20374
20380	20387
20387	20391
20391	20395
20395	20398
20398	20400
20406	20413
20413	20416
20416	20421
20421	20423
20429	20432
20432	20437
20437	20439
20445	20448
20448	20453
20453	20455
20457	20460
20460	20465
20465	20467
20469	20472
20472	20477
20477	20479
20481	20484
20484	20489
20489	20491
20493	20496
20496	20501
20501	20503
20505	20508
20508	20513
20513	20515
20517	20520
20520	20525
20525	20527
20529	20532
20532	20537
20537	20539
20541	20544
20544	20549
20549	20551
20553	20556
20556	20561
20561	20563
20565	20568
20568	20573
20573	20575
20584	20589
20589	20591
20597	20599
20604	20607
20616	20623
20623	20626
20626	20628
20628	20630
20630	20632
20632	20639
20640	20646
20646	20649
20649	20653
20653	20655
20657	20661
20661	20663
20663	20666
20666	20669
20669	20671
20677	20684
20684	20688
20688	20691
20691	20695
20701	20708
20708	20713
20713	20716
20716	20720
20726	20733
20733	20738
20738	20741
20741	20745
20751	20758
20758	20763
20763	20766
20766	20770
20776	20783
20783	20788
20788	20791
20791	20795
20801	20808
20808	20813
20813	20816
20816	20820
20826	20833
20833	20838
20838	20841
20841	20845
20851	20858
20858	20863
20863	20866
20866	20870
20876	20883
20883	20888
20888	20891
20891	20895
20897	20904
20904	20909
20909	20912
20912	20916
20918	20925
20925	20930
20930	20933
20933	20937
20939	20946
20946	20951
20951	20954
20954	20958
20960	20967
20967	20972
20972	20975
20975	20979
20981	20988
20988	20993
20993	20996
20996	21000
21002	21009
21018	21021
21021	21023
21025	21027
21033	21035
21040	21043
21049	21056
21056	21058
21058	21061
21061	21063
21063	21065
21078	21081
21081	21085
21085	21087
21089	21091
21091	21094
21094	21097
21097	21099
21105	21112
21112	21115
21115	21119
21119	21121
21127	21130
21130	21135
21135	21137
21143	21146
21146	21151
21151	21153
21159	21162
21162	21167
21167	21169
21175	21178
21178	21183
21183	21185
21191	21194
21194	21199
21199	21201
21207	21210
21210	21215
21215	21217
21226	21231
21231	21233
21239	21242
21242	21247
21247	21249
21255	21258
21258	21263
21263	21265
21271	21274
21274	21279
21279	21281
21287	21290
21290	21295
21295	21297
21303	21306
21306	21311
21311	21313
21319	21322
21322	21327
21327	21329
21335	21340
21340	21342
21350	21352
21354	21356
21356	21363
21363	21366
21366	21368
21368	21375
21376	21382
21382	21385
21385	21389
21389	21391
21393	21395
21395	21398
21398	21402
21402	21405
21405	21407
21413	21420
21420	21424
21424	21428
21428	21431
21431	21433
21439	21446
21446	21449
21449	21454
21454	21456
21462	21465
21465	21470
21470	21472
21478	21481
21481	21486
21486	21488
21494	21497
21497	21502
21502	21504
21510	21513
21513	21518
21518	21520
21526	21529
21529	21534
21534	21536
21542	21545
21545	21550
21550	21552
21558	21561
21561	21566
21566	21568
21574	21577
21577	21582
21582	21584
21590	21593
21593	21598
21598	21600
21606	21609
21609	21614
21614	21616
21622	21625
21625	21630
21630	21632
21641	21646
21646	21648
21654	21659
21659	21661
21666	21669
21675	21682
21682	21684
21684	21687
21687	21689
21689	21691
21691	21695
21702	21705
21705	21709
21709	21711
21713	21715
21715	21718
21718	21721
21721	21723
21729	21736
21736	21740
21740	21743
21743	21745
21751	21758
21758	21763
21763	21766
21766	21768
21774	21781
21781	21786
21786	21789
21789	21791
21797	21804
21804	21809
21809	21812
21812	21814
21820	21827
21827	21832
21832	21835
21835	21837
21843	21850
21850	21855
21855	21858
21858	21860
21866	21873
21873	21878
21878	21881
21881	21883
21889	21896
21896	21901
21901	21904
21904	21906
21912	21919
21919	21924
21924	21927
21927	21929
21935	21942
21942	21947
21947	21950
21950	21952
21958	21965
21965	21970
21970	21973
21973	21975
21981	21988
21988	21993
21993	21996
21996	21998
22004	22011
22011	22016
22016	22019
22019	22021
22027	22034
22034	22037
22037	22042
22042	22044
22050	22055
22055	22057
22062	22065
22071	22078
22078	22080
22080	22083
22083	22085
22085	22087
22087	22094
22102	22105
22105	22109
22109	22111
22113	22115
22115	22118
22118	22121
22121	22123
22129	22136
22136	22139
22139	22143
22143	22145
22151	22154
22154	22159
22159	22161
22167	22170
22170	22175
22175	22177
22183	22186
22186	22191
22191	22193
22199	22202
22202	22207
22207	22209
22215	22218
22218	22223
22223	22225
22231	22234
22234	22239
22239	22241
22247	22250
22250	22255
22255	22257
22263	22266
22266	22271
22271	22273
22279	22282
22282	22287
22287	22289
22295	22298
22298	22303
22303	22305
22311	22314
22314	22319
22319	22321
22327	22330
22330	22335
22335	22337
22343	22346
22346	22351
22351	22353
22359	22364
22364	22366
22371	22373
22378	22380
22385	22387
22392	22394
22394	22396
22401	22403
22408	22410
22410	22412
22417	22422
22427	22429
22429	22431
22436	22438
22438	22440
22445	22447
22447	22449
22454	22456
22456	22458
22463	22465
22470	22477
22480	22481
22486	22492
22492	22493
22493	22494
22494	22500
22500	22507
22507	22510
22510	22511
22511	22518
22518	22522
22522	22523
22528	22530
22530	22534
22534	22535
22535	22536
22536	22537
22537	22539
22539	22541
22546	22552
22552	22554
22554	22555
22555	22556
22556	22557
22560	22563
22563	22567
22567	22570
22570	22571
22571	22575
22575	22579
22584	22587
22588	22590
22592	22593
22598	22604
22604	22607
22607	22611
22611	22615
22621	22625
22631	22635
22641	22645
22651	22655
22663	22667
22675	22679
22685	22689
22691	22694
22694	22700
22700	22701
22709	22712
22712	22713
22714	22718
22724	22728
22730	22733
22733	22739
22739	22740
22745	22748
22752	22756
22768	22772
22778	22782
22784	22787
22787	22793
22799	22802
22808	22812
22812	22816
22818	22821
22821	22828
22828	22830
22832	22836
22836	22840
22846	22849
22849	22856
22856	22858
22864	22868
22874	22878
22880	22884
22884	22888
22894	22897
22897	22904
22904	22906
22912	22916
22916	22920
22926	22929
22929	22936
22936	22938
22940	22944
22950	22954
22960	22963
22963	22969
22969	22970
22975	22978
22983	22990
22992	22996
22998	23002
23008	23012
23012	23016
23022	23025
23025	23032
23032	23034
23040	23044
23050	23054
23056	23059
23059	23065
23065	23066
23071	23074
23079	23086
23088	23092
23098	23101
23101	23107
23107	23108
23113	23116
23128	23131
23131	23137
23137	23138
23143	23146
23152	23155
23155	23161
23161	23162
23167	23170
23175	23182
23184	23187
23187	23193
23193	23194
23199	23202
23207	23214
23216	23219
23219	23225
23225	23226
23231	23234
23239	23246
23248	23251
23251	23257
23257	23258
23263	23266
23271	23278
23280	23283
23283	23289
23289	23290
23295	23298
23303	23310
23312	23315
23315	23321
23327	23330
23335	23342
23344	23347
23347	23353
23353	23354
23359	23362
23367	23374
23376	23379
23385	23386
23391	23394
23399	23406
23408	23411
23411	23417
23417	23418
23423	23426
23431	23438
23440	23443
23443	23449
23449	23450
23455	23458
23463	23470
23472	23475
23475	23481
23481	23482
23487	23490
23495	23502
23504	23507
23507	23513
23513	23514
23519	23522
23527	23534
23536	23539
23539	23545
23545	23546
23551	23554
23559	23566
23568	23571
23571	23577
23577	23578
23583	23586
23591	23598
23600	23603
23603	23609
23609	23610
23615	23618
23623	23630
23632	23635
23635	23641
23641	23642
23647	23650
23655	23662
23664	23667
23673	23674
23679	23682
23687	23694
23696	23699
23699	23705
23705	23706
23711	23714
23719	23726
23728	23731
23731	23737
23737	23738
23743	23746
23751	23758
23760	23763
23763	23769
23769	23770
23775	23778
23783	23790
23792	23795
23795	23801
23801	23802
23807	23810
23815	23822
23824	23827
23827	23833
23833	23834
23839	23842
23847	23854
23856	23859
23859	23865
23865	23866
23871	23874
23879	23886
23888	23891
23891	23897
23897	23898
23903	23906
23911	23918
23920	23923
23923	23929
23929	23930
23935	23938
23943	23950
23952	23955
23955	23961
23961	23962
23967	23970
23975	23982
23984	23987
23987	23993
23993	23994
23999	24002
24007	24014
24016	24019
24019	24025
24025	24026
24031	24034
24039	24046
24048	24051
24051	24057
24057	24058
24063	24066
24071	24078
24080	24083
24083	24089
24089	24090
24095	24098
24103	24110
24112	24115
24115	24121
24121	24122
24127	24130
24135	24142
24144	24147
24147	24153
24153	24154
24159	24162
24167	24174
24176	24179
24179	24185
24185	24186
24191	24194
24199	24206
24208	24211
24211	24217
24217	24218
24223	24226
24231	24238
24240	24243
24243	24249
24249	24250
24255	24258
24263	24270
24272	24275
24275	24281
24281	24282
24287	24290
24295	24302
24304	24307
24307	24313
24313	24314
24319	24322
24327	24334
24336	24339
24339	24345
24351	24354
24359	24366
24368	24371
24371	24377
24377	24378
24383	24386
24391	24398
24400	24403
24403	24409
24409	24410
24415	24418
24423	24430
24432	24435
24435	24441
24441	24442
24447	24450
24455	24462
24464	24467
24467	24473
24473	24474
24479	24482
24487	24494
24496	24499
24499	24505
24505	24506
24511	24514
24519	24526
24528	24531
24531	24537
24537	24538
24543	24546
24551	24558
24560	24563
24569	24570
24575	24578
24583	24590
24592	24595
24595	24601
24601	24602
24607	24610
24615	24622
24624	24627
24627	24633
24633	24634
24639	24642
24647	24654
24656	24659
24659	24665
24665	24666
24671	24674
24679	24686
24688	24691
24691	24697
24697	24698
24703	24706
24711	24713
24713	24715
24715	24717
24717	24719
24720	24721
24726	24732
24732	24735
24735	24739
24739	24743
24745	24748
24748	24749
24752	24755
24755	24758
24758	24765
24765	24771
24771	24772
24777	24780
24780	24783
24783	24784
24785	24787
24787	24789
24789	24791
24791	24793
24793	24795
24795	24797
24797	24799
24800	24801
24806	24812
24812	24815
24815	24819
24819	24823
24825	24828
24828	24835
24835	24837
24839	24846
24848	24851
24851	24857
24857	24858
24863	24866
24866	24869
24869	24870
24871	24878
24880	24883
24883	24889
24889	24890
24895	24898
24898	24901
24901	24902
24903	24910
24915	24921
24921	24922
24927	24930
24930	24933
24933	24934
24935	24942
24944	24947
24947	24953
24953	24954
24959	24962
24962	24965
24965	24966
24967	24974
24976	24979
24979	24985
24985	24986
24991	24994
24994	24997
24997	24998
24999	25006
25008	25011
25011	25017
25017	25018
25023	25026
25026	25029
25029	25030
25031	25038
25040	25043
25043	25049
25049	25050
25055	25058
25058	25061
25061	25062
25063	25070
25072	25075
25075	25081
25081	25082
25087	25090
25090	25093
25093	25094
25095	25102
25104	25107
25107	25113
25113	25114
25119	25122
25122	25125
25125	25126
25127	25129
25129	25131
25131	25133
25133	25135
25136	25137
25142	25148
25148	25151
25151	25155
25155	25159
25161	25165
25167	25171
25171	25175
25177	25180
25180	25187
25187	25189
25191	25198
25200	25204
25212	25216
25218	25221
25221	25227
25227	25228
25236	25239
25239	25240
25248	25252
25254	25258
25260	25264
25264	25268
25270	25273
25280	25282
25284	25288
25294	25298
25300	25303
25303	25309
25309	25310
25315	25318
25320	25327
25328	25331
25331	25337
25337	25338
25343	25346
25352	25355
25355	25361
25361	25362
25367	25370
25376	25379
25379	25385
25385	25386
25391	25394
25399	25406
25408	25411
25411	25417
25417	25418
25423	25426
25431	25438
25440	25443
25443	25449
25449	25450
25455	25458
25463	25470
25472	25475
25475	25481
25481	25482
25487	25490
25495	25502
25504	25507
25507	25513
25519	25522
25527	25534
25536	25539
25539	25545
25545	25546
25551	25554
25559	25566
25568	25571
25571	25577
25577	25578
25583	25586
25591	25598
25600	25603
25603	25609
25609	25610
25615	25618
25623	25630
25632	25635
25635	25641
25641	25642
25647	25650
25655	25662
25664	25667
25667	25673
25673	25674
25679	25682
25687	25694
25696	25699
25699	25705
25705	25706
25711	25714
25719	25726
25728	25731
25731	25737
25737	25738
25743	25746
25751	25758
25760	25763
25763	25769
25769	25770
25775	25778
25783	25790
25792	25795
25795	25801
25801	25802
25807	25810
25815	25822
25824	25827
25827	25833
25833	25834
25839	25842
25847	25854
25856	25859
25859	25865
25865	25866
25879	25886
25888	25891
25891	25897
25897	25898
25903	25906
25911	25918
25920	25923
25923	25929
25929	25930
25935	25938
25943	25950
25952	25955
25955	25961
25961	25962
25967	25970
25984	25987
25987	25993
25993	25994
25999	26002
26007	26014
26016	26019
26019	26025
26025	26026
26031	26034
26039	26046
26048	26051
26051	26057
26057	26058
26063	26066
26080	26083
26083	26089
26089	26090
26095	26098
26103	26110
26112	26115
26115	26121
26121	26122
26127	26130
26135	26142
26144	26147
26147	26153
26153	26154
26159	26162
26167	26174
26176	26179
26179	26185
26185	26186
26191	26194
26199	26206
26208	26211
26211	26217
26217	26218
26223	26226
26231	26238
26240	26243
26243	26249
26249	26250
26255	26258
26263	26270
26272	26275
26275	26281
26281	26282
26287	26290
26295	26297
26297	26299
26299	26301
26301	26303
26304	26305
26305	26306
26306	26307
26307	26308
26313	26319
26319	26322
26322	26327
26327	26331
26331	26335
26335	26337
26343	26346
26346	26352
26352	26356
26356	26360
26360	26363
26363	26364
26366	26369
26369	26373
26373	26376
26376	26379
26379	26386
26386	26388
26394	26397
26397	26403
26403	26407
26407	26408
26408	26409
26414	26417
26417	26419
26425	26429
26429	26436
26436	26439
26439	26445
26445	26449
26449	26455
26455	26459
26459	26465
26465	26469
26469	26475
26475	26479
26479	26485
26485	26489
26489	26495
26495	26499
26499	26505
26505	26509
26512	26515
26515	26518
26518	26522
26522	26526
26531	26534
26534	26538
26538	26541
26541	26545
26557	26558
26558	26562
26565	26568
26568	26572
26572	26575
26578	26580
26580	26581
26581	26584
26590	26594
26594	26595
26595	26598
26598	26602
26604	26608
26608	26609
26609	26610
26610	26611
26611	26615
26620	26623
26623	26626
26631	26632
26632	26636
26641	26642
26642	26643
26643	26644
26644	26648
26653	26656
26661	26662
26671	26672
26672	26673
26673	26677
26677	26678
26678	26682
26687	26690
26690	26694
26700	26703
26703	26706
26706	26710
26710	26714
26714	26715
26715	26719
26724	26727
26727	26731
26731	26734
26734	26738
26744	26747
26747	26748
26748	26749
26749	26750
26750	26751
26752	26755
26755	26757
26762	26765
26765	26771
26771	26772
26777	26784
26789	26791
26791	26793
26793	26795
26795	26797
26797	26799
26800	26801
26801	26802
26802	26803
26803	26804
26809	26815
26815	26818
26818	26822
26822	26826
26826	26830
26830	26834
26834	26836
26842	26846
26852	26855
26855	26858
26858	26864
26864	26866
26866	26867
26870	26875
26875	26878
26878	26880
26886	26889
26889	26893
26893	26896
26896	26903
26903	26905
26911	26914
26914	26920
26920	26924
26924	26925
26925	26926
26931	26934
26934	26936
26942	26948
26948	26954
26954	26957
26959	26963
26963	26969
26969	26973
26973	26979
26979	26983
26983	26989
26989	26993
26993	26999
26999	27003
27003	27007
27008	27011
27011	27015
27015	27018
27018	27021
27021	27022
27025	27026
27026	27027
27027	27030
27030	27031
27031	27035
27044	27047
27050	27053
27053	27056
27061	27062
27062	27066
27071	27075
27075	27078
27081	27082
27082	27083
27083	27086
27086	27087
27087	27091
27096	27100
27100	27103
27106	27109
27109	27112
27117	27118
27118	27122
27127	27128
27128	27131
27133	27134
27134	27135
27135	27136
27136	27140
27145	27146
27146	27149
27151	27152
27152	27153
27153	27154
27154	27158
27163	27167
27167	27170
27170	27173
27173	27177
27183	27186
27186	27187
27187	27188
27188	27189
27189	27190
27191	27194
27194	27196
27201	27204
27204	27210
27210	27211
27216	27223
27228	27230
27232	27233
27233	27234
27234	27235
27235	27236
27236	27240
27240	27244
27244	27248
27248	27250
27256	27259
27259	27261
27261	27263
27263	27266
27272	27275
27275	27278
27284	27286
27286	27288
27288	27290
27290	27293
27293	27295
27295	27297
27304	27308
27311	27314
27314	27318
27318	27320
27322	27324
27324	27327
27327	27329
27329	27335
27341	27345
27345	27348
27348	27351
27351	27353
27359	27364
27364	27367
27367	27371
27371	27373
27379	27384
27384	27387
27387	27391
27391	27393
27399	27404
27404	27407
27411	27413
27419	27424
27424	27427
27427	27431
27431	27433
27439	27444
27444	27447
27447	27451
27459	27464
27464	27467
27467	27471
27471	27473
27475	27480
27480	27483
27483	27487
27487	27489
27491	27496
27496	27499
27499	27503
27503	27505
27507	27512
27512	27515
27515	27519
27519	27521
27523	27528
27528	27531
27531	27535
27535	27537
27539	27544
27544	27547
27547	27551
27551	27553
27555	27560
27560	27563
27563	27567
27567	27569
27576	27579
27579	27583
27583	27585
27587	27592
27596	27597
27597	27599
27599	27600
27600	27601
27601	27602
27603	27607
27608	27611
27611	27615
27616	27619
27619	27622
27622	27625
27625	27628
27628	27630
27640	27641
27641	27643
27644	27645
27645	27646
27652	27655
27655	27658
27658	27661
27661	27664
27665	27672
27672	27679
27680	27684
27684	27687
27687	27690
27690	27693
27693	27696
27697	27704
27704	27711
27712	27716
27716	27719
27719	27722
27722	27725
27725	27728
27728	27731
27732	27739
27739	27743
27744	27748
27748	27750
27750	27753
27753	27756
27756	27759
27759	27762
27762	27765
27765	27768
27768	27771
27771	27773
27773	27776
27777	27784
27784	27791
27792	27796
27796	27799
27799	27802
27802	27805
27805	27808
27808	27811
27811	27813
27813	27816
27824	27828
27828	27831
27831	27834
27834	27837
27837	27840
27841	27848
27848	27855
27856	27860
27860	27862
27862	27864
27864	27867
27877	27882
27882	27885
27885	27889
27889	27891
27891	27897
27897	27899
27899	27902
27902	27904
27904	27906
27906	27908
27908	27911
27911	27914
27915	27919
27920	27921
27926	27932
27932	27935
27935	27939
27939	27941
27947	27950
27950	27953
27958	27960
27962	27964
27970	27976
27976	27983
27983	27985
27987	27989
27991	27993
27995	27997
27999	28002
28002	28005
28007	28010
28012	28018
28018	28022
28022	28026
28026	28028
28032	28035
28040	28042
28044	28051
28056	28060
28060	28063
28063	28065
28067	28069
28071	28078
28082	28085
28085	28088
28088	28089
28089	28091
28096	28098
28100	28105
28107	28111
28112	28115
28117	28122
28128	28132
28132	28136
28136	28138
28138	28140
28140	28142
28148	28150
28152	28154
28154	28156
28158	28160
28160	28162
28164	28166
28168	28171
28171	28173
28173	28174
28176	28177
28177	28178
28178	28179
28179	28183
28183	28185
28187	28190
28190	28193
28193	28195
28197	28200
28202	28204
28206	28208
28208	28211
28213	28216
28218	28220
28225	28228
28228	28231
28233	28236
28236	28239
28239	28242
28242	28245
28247	28250
28250	28251
28251	28252
28252	28253
28256	28259
28264	28269
28271	28275
28275	28277
28282	28288
28290	28293
28293	28296
28304	28305
28305	28307
28307	28308
28308	28309
28310	28317
28320	28325
28325	28327
28336	28337
28337	28341
28341	28345
28345	28348
28348	28350
28352	28354
28360	28363
28363	28366
28366	28370
28370	28372
28374	28376
28376	28379
28379	28381
28381	28382
28384	28386
28386	28389
28389	28391
28391	28392
28400	28401
28401	28403
28403	28404
28404	28405
28405	28409
28409	28413
28413	28417
28417	28419
28432	28435
28435	28438
28438	28440
28446	28450
28454	28456
28462	28464
28466	28469
28469	28472
28474	28476
28476	28479
28479	28483
28483	28486
28486	28488
28496	28499
28499	28502
28502	28504
28506	28508
28508	28511
28511	28513
28513	28515
28521	28524
28524	28528
28528	28530
28536	28539
28539	28544
28544	28546
28552	28555
28555	28560
28560	28562
28568	28571
28571	28576
28576	28578
28580	28583
28583	28588
28588	28590
28592	28595
28595	28600
28600	28602
28604	28607
28607	28612
28612	28614
28616	28619
28619	28624
28624	28626
28628	28631
28631	28636
28636	28638
28640	28643
28643	28648
28648	28650
28652	28655
28655	28660
28660	28662
28664	28667
28667	28672
28672	28674
28676	28679
28679	28684
28684	28686
28688	28691
28691	28696
28696	28698
28705	28707
28707	28708
28708	28709
28709	28710
28711	28718
28720	28721
28721	28722
28722	28726
28726	28730
28730	28732
28738	28740
28746	28748
28753	28756
28756	28759
28765	28767
28767	28771
28771	28773
28773	28776
28776	28778
28784	28787
28787	28790
28790	28792
28794	28796
28796	28799
28799	28802
28808	28811
28811	28815
28815	28817
28823	28826
28826	28831
28831	28833
28839	28842
28842	28847
28847	28849
28855	28858
28858	28863
28863	28865
28867	28870
28870	28875
28875	28877
28879	28882
28882	28887
28887	28889
28891	28894
28894	28899
28899	28901
28903	28906
28906	28911
28911	28913
28915	28918
28918	28923
28923	28925
28927	28930
28930	28935
28935	28937
28939	28942
28942	28947
28947	28949
28951	28954
28954	28959
28959	28961
28963	28966
28966	28971
28971	28973
28975	28978
28978	28983
28983	28985
28993	28994
28995	28999
29008	29009
29009	29010
29011	29015
29015	29019
29019	29023
29023	29025
29025	29028
29034	29037
29037	29040
29046	29050
29054	29056
29056	29060
29060	29063
29063	29065
29065	29069
29069	29071
29071	29076
29080	29083
29083	29086
29086	29088
29090	29092
29092	29095
29095	29098
29104	29107
29112	29116
29116	29119
29121	29125
29125	29128
29130	29134
29134	29137
29139	29143
29143	29146
29148	29152
29152	29155
29157	29161
29161	29164
29166	29170
29170	29173
29175	29179
29179	29182
29184	29188
29188	29191
29193	29197
29197	29200
29202	29206
29206	29209
29211	29215
29215	29218
29220	29224
29224	29227
29233	29235
29235	29237
29237	29238
29238	29239
29239	29240
29241	29243
29248	29252
29252	29256
29256	29259
29259	29261
29272	29276
29276	29279
29279	29282
29282	29284
29286	29288
29290	29293
29293	29295
29296	29299
29299	29301
29301	29303
29304	29311
29312	29313
29313	29314
29314	29315
29315	29316
29316	29319
29319	29323
29323	29327
29327	29329
29331	29334
29336	29338
29344	29347
29347	29351
29351	29354
29356	29358
29360	29364
29364	29367
29367	29369
29369	29371
29373	29376
29376	29380
29382	29389
29392	29395
29395	29397
29397	29400
29400	29402
29404	29409
29409	29411
29411	29413
29421	29423
29423	29424
29424	29425
29425	29426
29426	29427
29432	29435
29435	29439
29439	29442
29448	29450
29450	29452
29456	29457
29457	29461
29461	29462
29462	29467
29467	29468
29474	29480
29480	29486
29486	29493
29493	29500
29500	29504
29504	29512
29512	29515
29515	29518
29518	29522
29522	29526
29526	29534
29534	29536
29536	29540
29540	29544
29544	29548
29548	29552
29552	29556
29556	29562
29568	29570
29570	29574
29580	29584
29584	29589
29589	29596
29596	29597
29597	29604
29609	29615
29618	29624
29624	29629
29629	29634
29634	29639
29639	29644
29644	29652
29660	29668
29668	29676
29676	29680
29680	29686
29686	29690
29690	29693
29693	29697
29698	29700
29700	29704
29704	29708
29713	29716
29716	29718
29724	29730
29730	29731
29732	29733
29733	29734
29735	29742
29744	29745
29745	29746
29746	29747
29747	29748
29753	29759
29759	29762
29762	29766
29766	29774
29774	29779
29779	29781
29787	29791
29791	29795
29795	29799
29799	29801
29801	29805
29805	29807
29807	29809
29809	29811
29811	29813
29815	29822
29824	29829
29829	29831
29833	29835
29835	29838
29838	29841
29841	29845
29847	29850
29850	29851
29851	29853
29853	29857
29857	29859
29864	29867
29867	29869
29873	29877
29877	29880
29880	29883
29883	29885
29885	29886
29886	29887
29887	29888
29888	29889
29896	29898
29898	29900
29900	29904
29914	29917
29917	29919
29924	29928
29928	29932
29932	29935
29935	29940
29940	29943
29943	29945
29945	29946
29946	29947
29947	29948
29948	29949
29950	29952
29954	29961
29968	29969
29969	29970
29970	29971
29971	29972
29977	29983
29983	29986
29986	29991
29991	29995
29995	30003
30003	30008
30008	30012
30012	30016
30016	30018
30020	30024
30024	30026
30030	30034
30040	30045
30045	30049
30051	30054
30054	30057
30057	30061
30063	30067
30067	30068
30068	30070
30070	30074
30074	30076
30081	30084
30084	30086
30090	30093
30093	30095
30096	30097
30097	30098
30098	30099
30104	30107
30114	30117
30117	30121
30121	30124
30124	30125
30125	30127
30127	30128
30128	30129
30129	30130
30131	30138
30144	30145
30145	30146
30146	30147
30147	30148
30153	30159
30159	30162
30162	30166
30166	30168
30170	30172
30172	30176
30184	30188
30188	30192
30194	30202
30202	30203
30203	30204
30204	30208
30208	30210
30210	30211
30211	30213
30218	30221
30225	30228
30228	30233
30233	30234
30234	30235
30235	30236
30236	30237
30240	30243
30243	30245
30245	30246
30246	30247
30247	30248
30248	30249
30256	30257
30257	30261
30261	30263
30263	30267
30267	30269
30271	30273
30275	30278
30280	30287
30288	30291
30291	30295
30297	30300
30300	30302
30304	30306
30312	30315
30315	30318
30318	30322
30322	30324
30326	30327
30328	30335
30336	30340
30340	30342
30342	30344
30346	30349
30352	30355
30355	30359
30384	30385
30385	30386
30386	30387
30387	30388
30388	30392
30392	30396
30396	30398
30400	30402
30402	30404
30404	30409
30416	30418
30418	30420
30420	30422
30422	30425
30425	30427
30427	30430
30430	30433
30435	30439
30441	30445
30445	30450
30456	30458
30458	30461
30461	30463
30463	30465
30465	30468
30468	30471
30471	30473
30473	30475
30475	30478
30478	30481
30481	30483
30483	30485
30485	30488
30490	30494
30494	30498
30498	30500
30500	30501
30501	30502
30502	30503
30503	30504
30512	30514
30514	30515
30515	30516
30516	30518
30518	30519
30519	30520
30528	30529
30529	30530
30530	30531
30531	30532
30537	30543
30543	30546
30546	30550
30550	30558
30558	30560
30562	30564
30564	30568
30576	30579
30579	30584
30586	30590
30590	30592
30592	30596
30598	30605
30608	30612
30612	30614
30616	30618
30618	30622
30622	30624
30624	30625
30625	30629
30629	30630
30630	30632
30637	30640
30640	30642
30647	30648
30648	30649
30649	30650
30650	30651
30656	30660
30660	30664
30664	30671
30672	30680
30680	30686
30688	30692
30692	30694
30694	30695
30695	30697
30702	30705
30705	30707
30709	30714
30716	30719
30719	30720
30720	30721
30721	30722
30722	30723
30724	30731
30731	30735
30736	30740
30740	30744
30744	30747
30747	30749
30760	30764
30764	30767
30767	30769
30771	30773
30776	30783
30784	30786
30786	30788
30788	30791
30792	30799
30805	30810
30810	30811
30811	30812
30812	30813
30813	30814
30814	30817
30817	30821
30821	30825
30825	30829
30829	30831
30837	30843
30843	30845
30851	30853
30855	30858
30858	30862
30862	30868
30868	30869
30874	30877
30877	30887
30887	30897
30907	30909
30909	30912
30920	30923
30923	30927
30929	30934
30936	30938
30944	30947
30947	30951
30953	30957
30957	30960
30960	30966
30966	30972
30972	30973
30973	30975
30975	30976
30981	30984
30988	30991
30991	30997
30997	30999
31008	31011
31011	31014
31014	31018
31018	31020
31024	31028
31031	31037
31037	31043
31043	31049
31049	31051
31053	31056
31056	31058
31058	31059
31059	31060
31060	31061
31061	31062
31063	31065
31067	31071
31071	31077
31077	31083
31083	31085
31085	31087
31089	31092
31092	31096
31096	31098
31098	31102
31102	31107
31107	31109
31109	31111
31113	31115
31120	31124
31124	31127
31127	31129
31131	31133
31135	31137
31139	31143
31143	31148
31148	31151
31151	31153
31153	31155
31160	31162
31164	31168
31168	31170
31172	31175
31175	31182
31184	31186
31186	31189
31189	31192
31194	31196
31196	31201
31203	31207
31208	31210
31216	31219
31219	31223
31225	31227
31229	31233
31233	31238
31238	31240
31248	31252
31252	31255
31255	31257
31259	31261
31263	31265
31268	31271
31271	31276
31278	31282
31282	31285
31285	31291
31291	31295
31295	31301
31301	31307
31310	31311
31311	31312
31312	31313
31313	31314
31315	31319
31320	31322
31328	31329
31329	31330
31335	31341
31341	31344
31344	31348
31348	31352
31352	31353
31353	31354
31354	31358
31358	31360
31365	31369
31369	31374
31374	31377
31377	31380
31380	31381
31383	31384
31393	31394
31394	31395
31400	31406
31406	31409
31409	31413
31413	31415
31421	31424
31430	31432
31432	31439
31440	31442
31442	31445
31445	31449
31454	31457
31457	31461
31461	31462
31462	31464
31464	31465
31470	31473
31473	31475
31481	31484
31484	31488
31488	31490
31496	31503
31504	31506
31506	31509
31509	31513
31515	31518
31526	31529
31529	31532
31538	31540
31540	31542
31542	31546
31546	31549
31552	31555
31555	31558
31558	31560
31562	31564
31564	31567
31567	31573
31579	31583
31583	31586
31586	31588
31594	31597
31597	31601
31601	31603
31609	31612
31612	31617
31617	31619
31625	31628
31628	31633
31633	31635
31641	31644
31644	31649
31649	31651
31653	31656
31656	31661
31661	31663
31665	31668
31668	31673
31673	31675
31677	31680
31680	31685
31685	31687
31689	31692
31692	31697
31697	31699
31701	31704
31704	31709
31709	31711
31713	31716
31716	31721
31721	31723
31725	31728
31728	31733
31733	31735
31737	31740
31740	31745
31745	31747
31749	31752
31752	31757
31757	31759
31761	31766
31766	31773
31776	31779
31779	31783
31783	31785
31787	31789
31792	31795
31795	31798
31798	31802
31802	31804
31808	31811
31811	31815
31815	31818
31818	31819
31819	31820
31820	31821
31824	31827
31827	31829
31829	31830
31830	31831
31831	31832
31840	31845
31850	31852
31854	31857
31859	31862
31862	31867
