6128	EAX	1	1
6176	EAX	1	6
6192	EAX	1	2
6320	EAX	1	1
6368	EAX	1	6
6384	EAX	1	2
6637	EDX	1	1
6650	EAX	1	1
6741	EDX	1	1
6758	EAX	1	1
7103	EAX	1	1
7157	EBX	1	1
7288	EAX	1	3
7318	EAX	1	1
7334	EAX	1	22
7451	EAX	1	4
7473	EAX	1	3
7568	EAX	1	4
7670	EAX	1	3
7761	EAX	1	5
7913	EAX	1	1128775680
8133	EDI	1	4096
8138	ESI	1	8
9641	EBP	1	-858993459
9792	EAX	1	-858993459
10570	EDX	1	1
11875	EAX	1	-858993459
12744	EAX	1	-858993459
15904	EAX	1	-858993459
16896	EAX	1	-858993459
22417	EDI	1	-1
28051	ECX	1	1
28100	ECX	1	1
28117	ECX	1	2
28220	EDI	1	1
28264	EDI	1	-1
28320	EDI	1	1
28748	ESI	1	1
29462	EDI	1	1
30228	EAX	1	-1
30404	EBP	1	-858993459
30445	ESI	1	-858993459
31369	EAX	1	-1
31840	EDX	1	1
31862	EAX	1	1
