.interp	19	436
.note.gnu.build-id	36	456
.note.gnu.property	40	492
.gnu.hash	244	532
.dynsym	720	776
.dynstr	327	1496
.gnu.version	90	1824
.gnu.version_r	80	1916
.rel.dyn	256	1996
.rel.plt	96	2252
.plt	208	4096
.text	27568	4304
.rodata	3504	32768
.eh_frame_hdr	564	36272
.eh_frame	6256	36836
.dynamic	208	48944
.got.plt	60	49152
.data	124	49216
.bss	28	49340
