4115	4109	EBX
4121	4115	EAX
4121	4109	EBX
4123	4115	EAX
4123	4109	EBX
4131	4130	EBX
4278	4276	EBP
4279	4278	ESI
4279	4276	EBP
4281	4279	ECX
4281	4278	ESI
4281	4276	EBP
4284	4279	ECX
4284	4278	ESI
4284	4276	EBP
4285	4279	ECX
4285	4278	ESI
4285	4276	EBP
4286	4279	ECX
4286	4278	ESI
4286	4276	EBP
4287	4279	ECX
4287	4278	ESI
4287	4276	EBP
4298	4292	EBX
4304	4298	EAX
4304	4292	EBX
4305	4298	EAX
4305	4292	EBX
4311	4305	EAX
4311	4292	EBX
4312	4305	EAX
4312	4292	EBX
4313	4305	EAX
4313	4292	EBX
4314	4305	EAX
4314	4292	EBX
4320	4305	EAX
4320	4292	EBX
4329	4326	EBX
4339	4336	EBX
4363	4357	EDX
4369	4363	ECX
4369	4357	EDX
4375	4369	EAX
4375	4363	ECX
4375	4357	EDX
4377	4369	EAX
4377	4363	ECX
4377	4357	EDX
4385	4379	EAX
4387	4379	EAX
4392	4390	EBP
4395	4390	EBP
4396	4390	EBP
4407	4403	ESI
4427	4421	EDX
4428	4421	EDX
4430	4421	EDX
4430	4428	EBP
4431	4421	EDX
4431	4428	EBP
4437	4431	ECX
4437	4421	EDX
4437	4428	EBP
4443	4437	EAX
4443	4431	ECX
4443	4421	EDX
4443	4428	EBP
4446	4437	EAX
4446	4431	ECX
4446	4421	EDX
4446	4428	EBP
4448	4446	EAX
4448	4431	ECX
4448	4421	EDX
4448	4428	EBP
4450	4446	EAX
4450	4448	EBX
4450	4431	ECX
4450	4421	EDX
4450	4428	EBP
4453	4450	EAX
4453	4448	EBX
4453	4431	ECX
4453	4421	EDX
4453	4428	EBP
4456	4450	EAX
4456	4453	EBX
4456	4431	ECX
4456	4421	EDX
4456	4428	EBP
4458	4456	EAX
4458	4453	EBX
4458	4431	ECX
4458	4421	EDX
4458	4428	EBP
4460	4458	EAX
4460	4453	EBX
4460	4431	ECX
4460	4421	EDX
4460	4428	EBP
4468	4462	EDX
4470	4462	EDX
4485	4482	EBX
4486	4482	EBX
4494	4487	ESI
4503	4501	EBP
4504	4501	EBP
4515	4509	EBX
4518	4509	EBX
4525	4509	EBX
4533	4527	EAX
4535	4527	EAX
4570	4567	EBX
4571	4567	EBX
4588	4585	EDX
4593	4589	ECX
4596	4589	ECX
4599	4589	ECX
4600	4589	ECX
4602	4589	ECX
4602	4600	EBP
4603	4589	ECX
4603	4600	EBP
4604	4589	ECX
4604	4600	EBP
4605	4589	ECX
4605	4600	EBP
4608	4589	ECX
4608	4600	EBP
4619	4613	EBX
4626	4613	EBX
4637	4631	EAX
4638	4631	EAX
4644	4638	EAX
4645	4638	EAX
4659	4653	ECX
4662	4653	ECX
4662	4659	EDX
4664	4653	ECX
4664	4662	EDX
4667	4653	ECX
4667	4662	EDX
4668	4653	ECX
4668	4662	EDX
4669	4653	ECX
4669	4662	EDX
4686	4680	EDX
4687	4680	EDX
4688	4680	EDX
4721	4719	ESI
4724	4719	ESI
4726	4719	ESI
4728	4719	ESI
4729	4719	ESI
4755	4753	EBX
4758	4753	EBX
4760	4753	EBX
4762	4753	EBX
4763	4753	EBX
4777	4774	EAX
4780	4774	EAX
4783	4780	EAX
4785	4783	EAX
4787	4785	EAX
4790	4785	EAX
4793	4785	EAX
4801	4798	EAX
4804	4798	EAX
4807	4804	EAX
4809	4807	EAX
4811	4809	EAX
4814	4809	EAX
4817	4809	EAX
4827	4822	EAX
4830	4822	EAX
4831	4822	EAX
4831	4830	ECX
4832	4822	EAX
4832	4831	EBX
4832	4830	ECX
4833	4822	EAX
4833	4831	EBX
4833	4830	ECX
4833	4832	ESI
4834	4822	EAX
4834	4831	EBX
4834	4830	ECX
4834	4832	ESI
4834	4833	EBP
4837	4822	EAX
4837	4831	EBX
4837	4830	ECX
4837	4832	ESI
4837	4833	EBP
4841	4839	EBP
4842	4839	EBP
4845	4839	EBP
4856	4850	EBX
4860	4850	EBX
4880	4874	EAX
4898	4892	EAX
4899	4892	EAX
4905	4899	EAX
4906	4899	EAX
4912	4906	EAX
4913	4906	EAX
4925	4922	EBX
4926	4922	EBX
4930	4928	EBP
4933	4928	EBP
4943	4938	EAX
4946	4938	EAX
4951	4938	EAX
4953	4938	EAX
4967	4965	EBP
4977	4972	EAX
4983	4972	EAX
4983	4977	EDX
4986	4983	EAX
4986	4977	EDX
4988	4983	EAX
4988	4977	EDX
4991	4988	EAX
4991	4977	EDX
4994	4988	EAX
4994	4991	EDX
4997	4988	EAX
4997	4991	EDX
5000	4997	EAX
5000	4991	EDX
5003	4997	EAX
5003	5000	EDX
5006	4997	EAX
5006	5000	EDX
5007	4997	EAX
5007	5000	EDX
5008	4997	EAX
5008	5000	EDX
5008	5007	EBP
5013	5011	EBP
5023	5018	EAX
5028	5023	EAX
5029	5023	EAX
5029	5028	EBP
5033	5031	EBP
5034	5031	EBP
5037	5031	EBP
5048	5042	EBX
5051	5048	EAX
5051	5042	EBX
5054	5048	EAX
5054	5042	EBX
5057	5048	EAX
5057	5042	EBX
5060	5048	EAX
5060	5042	EBX
5061	5048	EAX
5061	5042	EBX
5075	5069	EDX
5078	5075	EAX
5078	5069	EDX
5080	5075	EAX
5080	5069	EDX
5083	5080	EAX
5083	5069	EDX
5090	5080	EAX
5090	5069	EDX
5091	5080	EAX
5091	5069	EDX
5094	5080	EAX
5094	5091	EBX
5094	5069	EDX
5095	5080	EAX
5095	5091	EBX
5095	5069	EDX
5099	5097	EBP
5100	5097	EBP
5103	5097	EBP
5114	5108	EBX
5117	5108	EBX
5123	5117	EAX
5123	5108	EBX
5124	5117	EAX
5124	5108	EBX
5130	5124	EAX
5130	5108	EBX
5131	5124	EAX
5131	5108	EBX
5148	5142	EDX
5149	5142	EDX
5150	5142	EDX
5161	5158	EAX
5164	5158	EAX
5164	5161	EDX
5167	5164	EAX
5167	5161	EDX
5170	5167	EAX
5170	5161	EDX
5173	5170	EAX
5173	5161	EDX
5176	5170	EAX
5176	5173	EBX
5176	5161	EDX
5177	5170	EAX
5177	5173	EBX
5177	5161	EDX
5181	5179	EBP
5182	5179	EBP
5185	5179	EBP
5196	5190	EBX
5199	5196	EAX
5199	5190	EBX
5202	5196	EAX
5202	5190	EBX
5205	5196	EAX
5205	5190	EBX
5208	5196	EAX
5208	5190	EBX
5209	5196	EAX
5209	5190	EBX
5223	5217	EDX
5226	5223	EAX
5226	5217	EDX
5228	5223	EAX
5228	5217	EDX
5229	5223	EAX
5229	5217	EDX
5232	5223	EAX
5232	5229	EBX
5232	5217	EDX
5233	5223	EAX
5233	5229	EBX
5233	5217	EDX
5237	5235	EBP
5238	5235	EBP
5241	5235	EBP
5261	5255	EAX
5262	5255	EAX
5268	5262	EAX
5269	5262	EAX
5286	5280	EDX
5287	5280	EDX
5288	5280	EDX
5299	5296	EAX
5302	5296	EAX
5302	5299	EDX
5305	5302	EAX
5305	5299	EDX
5308	5305	EAX
5308	5299	EDX
5311	5308	EAX
5311	5299	EDX
5316	5313	EDX
5318	5316	EAX
5318	5313	EDX
5320	5318	EAX
5320	5313	EDX
5323	5318	EAX
5323	5320	EBX
5323	5313	EDX
5324	5318	EAX
5324	5320	EBX
5324	5313	EDX
5328	5325	EAX
5360	5354	EBP
5361	5354	EBP
5362	5354	EBP
5363	5354	EBP
5366	5354	EBP
5368	5366	EBX
5368	5354	EBP
5372	5366	EBX
5372	5368	EDI
5372	5354	EBP
5383	5377	EBX
5389	5383	EAX
5389	5377	EBX
5391	5383	EAX
5391	5389	EBX
5394	5383	EAX
5394	5391	EBX
5398	5396	ESI
5405	5398	ESI
5430	5427	ESI
5433	5427	ESI
5435	5427	ESI
5441	5440	EBX
5442	5440	EBX
5442	5441	ESI
5443	5440	EBX
5443	5442	EDI
5443	5441	ESI
5444	5440	EBX
5444	5442	EDI
5444	5441	ESI
5444	5443	EBP
5452	5445	ESI
5464	5461	EBP
5487	5481	EBX
5490	5481	EBX
5491	5490	EBX
