4096	4096
4100	4096
4101	4096
4104	4096
4109	4109
4115	4109
4121	4109
4123	4109
4125	4125
4127	4127
4130	4127
4131	4127
4144	4144
4150	4144
4156	4156
4158	4156
4160	4160
4166	4166
4171	4166
4176	4176
4182	4182
4187	4182
4192	4192
4198	4198
4203	4198
4208	4208
4214	4214
4219	4214
4224	4224
4230	4230
4235	4230
4240	4240
4246	4246
4251	4246
4256	4256
4262	4262
4267	4262
4272	4272
4276	4272
4278	4272
4279	4272
4281	4272
4284	4272
4285	4272
4286	4272
4287	4272
4292	4292
4298	4292
4304	4292
4305	4292
4311	4292
4312	4292
4313	4292
4314	4292
4320	4292
4325	4325
4326	4326
4329	4326
4330	4330
4332	4330
4334	4330
4336	4336
4339	4336
4352	4352
4357	4357
4363	4357
4369	4357
4375	4357
4377	4357
4379	4379
4385	4379
4387	4379
4389	4389
4390	4389
4392	4389
4395	4389
4396	4389
4398	4398
4401	4398
4402	4398
4403	4403
4407	4403
4408	4408
4409	4409
4416	4416
4421	4421
4427	4421
4428	4421
4430	4421
4431	4421
4437	4421
4443	4421
4446	4421
4448	4421
4450	4421
4453	4421
4456	4421
4458	4421
4460	4421
4462	4462
4468	4462
4470	4462
4472	4472
4475	4472
4476	4472
4477	4472
4479	4479
4482	4482
4485	4482
4486	4482
4487	4487
4494	4487
4496	4496
4500	4496
4501	4496
4503	4496
4504	4496
4509	4509
4515	4509
4518	4509
4525	4509
4527	4527
4533	4527
4535	4527
4537	4537
4540	4537
4546	4537
4552	4552
4555	4555
4560	4560
4567	4567
4570	4567
4571	4567
4572	4572
4576	4576
4580	4576
4585	4585
4588	4585
4589	4589
4593	4589
4596	4589
4599	4589
4600	4589
4602	4589
4603	4589
4604	4589
4605	4589
4608	4589
4613	4613
4619	4613
4626	4613
4628	4628
4631	4628
4637	4628
4638	4628
4644	4628
4645	4628
4650	4650
4653	4650
4659	4650
4662	4650
4664	4650
4667	4650
4668	4650
4669	4650
4674	4674
4677	4674
4680	4674
4686	4674
4687	4674
4688	4674
4693	4693
4696	4693
4700	4700
4704	4700
4706	4706
4709	4706
4711	4706
4716	4716
4719	4716
4721	4716
4724	4716
4726	4716
4728	4716
4729	4716
4734	4734
4737	4734
4740	4734
4743	4734
4745	4734
4750	4750
4753	4750
4755	4750
4758	4750
4760	4750
4762	4750
4763	4750
4768	4768
4771	4768
4774	4768
4777	4768
4780	4768
4783	4768
4785	4768
4787	4768
4790	4768
4793	4768
4795	4795
4798	4795
4801	4795
4804	4795
4807	4795
4809	4795
4811	4795
4814	4795
4817	4795
4819	4819
4822	4819
4827	4819
4830	4819
4831	4819
4832	4819
4833	4819
4834	4819
4837	4819
4838	4838
4839	4838
4841	4838
4842	4838
4845	4838
4850	4850
4856	4850
4860	4850
4862	4862
4869	4862
4871	4871
4874	4871
4880	4871
4881	4871
4886	4886
4889	4886
4892	4886
4898	4886
4899	4886
4905	4886
4906	4886
4912	4886
4913	4886
4918	4918
4921	4921
4922	4921
4925	4921
4926	4921
4927	4927
4928	4927
4930	4927
4933	4927
4938	4938
4943	4938
4946	4938
4951	4938
4953	4938
4958	4958
4961	4958
4962	4958
4963	4963
4964	4964
4965	4964
4967	4964
4972	4972
4977	4972
4983	4972
4986	4972
4988	4972
4991	4972
4994	4972
4997	4972
5000	4972
5003	4972
5006	4972
5007	4972
5008	4972
5009	5009
5010	5010
5011	5010
5013	5010
5018	5018
5023	5018
5028	5018
5029	5018
5030	5030
5031	5030
5033	5030
5034	5030
5037	5030
5042	5042
5048	5042
5051	5042
5054	5042
5057	5042
5060	5042
5061	5042
5066	5066
5069	5066
5075	5066
5078	5066
5080	5066
5083	5066
5090	5066
5091	5066
5094	5066
5095	5066
5096	5096
5097	5096
5099	5096
5100	5096
5103	5096
5108	5108
5114	5108
5117	5108
5123	5108
5124	5108
5130	5108
5131	5108
5136	5136
5139	5136
5142	5136
5148	5136
5149	5136
5150	5136
5155	5155
5158	5155
5161	5155
5164	5155
5167	5155
5170	5155
5173	5155
5176	5155
5177	5155
5178	5178
5179	5178
5181	5178
5182	5178
5185	5178
5190	5190
5196	5190
5199	5190
5202	5190
5205	5190
5208	5190
5209	5190
5214	5214
5217	5214
5223	5214
5226	5214
5228	5214
5229	5214
5232	5214
5233	5214
5234	5234
5235	5234
5237	5234
5238	5234
5241	5234
5246	5246
5252	5246
5255	5246
5261	5246
5262	5246
5268	5246
5269	5246
5274	5274
5277	5274
5280	5274
5286	5274
5287	5274
5288	5274
5293	5293
5296	5293
5299	5293
5302	5293
5305	5293
5308	5293
5311	5293
5313	5293
5316	5293
5318	5293
5320	5293
5323	5293
5324	5293
5325	5325
5328	5325
5329	5329
5331	5329
5333	5329
5335	5329
5337	5329
5339	5329
5341	5329
5343	5329
5344	5344
5348	5344
5349	5344
5354	5354
5360	5354
5361	5354
5362	5354
5363	5354
5366	5354
5368	5354
5372	5354
5377	5377
5383	5377
5389	5377
5391	5377
5394	5377
5396	5396
5398	5396
5405	5396
5408	5408
5411	5408
5412	5408
5416	5408
5420	5408
5427	5427
5430	5427
5433	5427
5435	5427
5437	5437
5440	5437
5441	5437
5442	5437
5443	5437
5444	5437
5445	5445
5452	5445
5456	5456
5460	5456
5461	5461
5464	5461
5468	5468
5472	5468
5473	5468
5476	5468
5481	5481
5487	5481
5490	5481
5491	5481
