4104	EBX
4109	EBX
4115	EAX
4287	EBX
4292	EBX
4352	EDX
4357	EDX
4379	EAX
4416	EDX
4421	EDX
4428	EBP
4462	EDX
4501	EBP
4504	EBX
4509	EBX
4589	ECX
4600	EBP
4608	EBX
4613	EBX
4780	EAX
4783	EAX
4785	EAX
4804	EAX
4807	EAX
4809	EAX
4830	ECX
4839	EBP
4845	EBX
4850	EBX
4965	EBP
4967	EAX
4972	EAX
4983	EAX
4988	EAX
4997	EAX
5031	EBP
5037	EBX
5042	EBX
5075	EAX
5080	EAX
5097	EBP
5103	EBX
5108	EBX
5158	EAX
5164	EAX
5179	EBP
5185	EBX
5190	EBX
5223	EAX
5235	EBP
5241	EBX
5246	EBX
5296	EAX
5302	EAX
5325	EAX
5349	EBP
5354	EBP
5396	ESI
5398	ESI
5405	ESI
5427	ESI
5445	ESI
