def_cfa	2	.cfi_def_cfa
def_cfa_sf	2	.cfi_def_cfa
def_cfa_offset	1	.cfi_def_cfa_offset
def_cfa_register	1	.cfi_def_cfa_register
offset	2	.cfi_offset
offset_extended	2	.cfi_offset
offset_extended_sf	2	.cfi_offset
register	2	.cfi_register
restore	1	.cfi_restore
restore_extended	1	.cfi_restore
same_value	1	.cfi_same_value
undefined	1	.cfi_undefined
val_offset	2	.cfi_val_offset
def_cfa_offset_sf	1	.cfi_def_cfa_offset
remember_state	0	.cfi_remember_state
restore_state	0	.cfi_restore_state
val_offset_sf	2	.cfi_val_offset
