4106	2	0
4107	2	0
4108	2	2
4113	2	0
4114	2	2
4115	1	2
4120	1	2
4122	2	3
4126	2	2
4128	1	0
4129	2	2
4144	1	2
4147	2	0
4148	2	0
4150	1	2
4151	2	1
4152	2	0
4153	2	0
4154	2	0
4155	2	0
4156	2	0
4157	2	0
4158	2	0
4160	1	2
4161	2	1
4163	2	0
4164	2	0
4165	2	2
4167	2	0
4168	2	0
4169	2	0
4176	1	2
4177	2	1
4178	2	0
4179	2	0
4180	2	0
4181	2	2
4183	2	0
4184	2	0
4185	2	0
4192	1	2
4193	2	1
4195	2	0
4196	2	0
4197	2	2
4199	2	0
4200	2	0
4201	2	0
4208	1	2
4209	2	1
4210	2	0
4211	2	0
4212	2	0
4213	2	2
4215	2	0
4216	2	0
4217	2	0
4224	1	2
4225	2	1
4227	2	0
4228	2	0
4229	2	2
4231	2	0
4232	2	0
4233	2	0
4236	1	1
4240	1	2
4241	2	1
4242	2	0
4243	2	0
4244	2	0
4245	2	2
4247	2	0
4248	2	0
4249	2	0
4256	1	2
4257	2	1
4259	2	0
4260	2	0
4261	2	2
4263	2	0
4264	2	0
4265	2	0
4288	1	0
4289	2	0
4290	2	0
4291	2	2
4296	2	0
4297	2	2
4298	1	2
4299	2	2
4303	1	2
4305	1	2
4310	1	2
4314	1	2
4326	1	0
4336	1	0
4354	2	0
4355	2	0
4356	2	2
4360	2	0
4361	2	0
4362	2	2
4363	1	2
4364	1	0
4365	2	0
4366	2	0
4367	2	0
4368	2	2
4369	1	2
4370	2	0
4371	2	0
4372	2	0
4373	2	0
4374	2	0
4379	1	2
4384	1	2
4386	2	3
4388	1	2
4397	2	2
4399	1	0
4403	1	3
4405	2	3
4406	2	2
4409	1	3
4411	2	0
4412	2	0
4413	2	0
4414	2	0
4417	1	0
4417	2	0
4418	2	0
4419	2	0
4420	2	2
4424	2	0
4425	2	0
4426	2	2
4431	1	2
4432	1	0
4433	2	0
4434	2	0
4435	2	0
4436	2	2
4437	1	2
4438	2	0
4439	2	0
4440	2	0
4441	2	0
4442	2	2
4455	1	0
4462	1	2
4467	1	2
4469	2	3
4471	1	2
4474	2	2
4478	2	2
4480	1	0
4481	2	2
4482	1	2
4487	1	3
4489	2	0
4490	2	0
4491	2	0
4492	2	0
4493	2	2
4508	1	2
4511	2	0
4512	2	0
4513	2	0
4514	2	2
4518	2	2
4520	2	0
4521	2	0
4522	2	0
4523	2	0
4524	2	2
4526	2	2
4527	1	2
4532	1	2
4534	2	3
4536	1	2
4540	1	2
4543	2	0
4544	2	0
4546	1	2
4551	1	2
4553	1	0
4560	2	2
4561	2	0
4562	2	0
4563	2	0
4564	2	0
4565	2	0
4566	2	2
4567	1	2
4572	1	3
4584	1	2
4585	1	0
4589	1	3
4596	1	2
4612	1	2
4617	2	0
4619	2	2
4621	1	0
4622	2	0
4623	2	0
4624	2	0
4630	2	2
4631	1	2
4632	2	2
4636	1	2
4638	1	2
4643	1	2
4649	1	2
4651	1	0
4652	2	2
4653	1	2
4654	1	0
4656	2	0
4657	2	0
4658	2	2
4659	1	2
4661	1	0
4666	2	2
4673	1	2
4675	1	0
4676	2	2
4679	2	2
4680	1	2
4685	1	2
4692	1	2
4694	1	0
4695	2	2
4696	2	2
4698	1	0
4699	2	2
4700	2	2
4702	1	0
4703	2	2
4715	1	2
4717	1	0
4718	2	2
4720	2	2
4727	1	2
4730	2	0
4731	2	0
4732	2	0
4733	2	2
4735	1	0
4736	2	2
4737	2	2
4739	1	2
4749	1	2
4751	1	0
4752	2	2
4761	1	2
4765	2	0
4766	2	0
4767	2	2
4769	1	0
4770	2	2
4771	2	2
4774	1	2
4776	1	2
4777	2	2
4780	1	2
4783	1	0
4784	2	2
4785	1	0
4786	2	2
4790	1	2
4794	2	2
4796	1	0
4797	2	2
4798	1	2
4801	2	2
4804	1	2
4807	1	0
4808	2	2
4809	1	0
4810	2	2
4814	1	2
4818	2	2
4820	1	0
4821	2	2
4823	2	0
4824	2	0
4825	2	0
4826	2	2
4827	1	2
4834	1	2
4849	1	2
4854	2	0
4855	2	2
4856	2	2
4858	2	0
4859	2	2
4861	1	2
4862	2	2
4866	1	0
4867	2	0
4868	2	2
4870	1	2
4874	1	2
4875	2	0
4876	2	0
4877	2	0
4878	2	0
4879	2	2
4885	1	2
4887	1	0
4888	2	2
4892	1	2
4893	2	0
4895	2	0
4896	2	0
4897	2	2
4899	1	2
4900	2	0
4901	2	0
4902	2	0
4903	2	0
4904	2	2
4906	1	2
4911	1	2
4917	1	2
4919	1	0
4920	2	2
4922	1	2
4934	2	0
4935	2	0
4936	2	0
4937	2	2
4941	2	0
4942	2	2
4945	2	2
4948	1	0
4949	2	0
4950	2	2
4957	1	2
4959	1	0
4969	2	0
4970	2	0
4971	2	2
4975	2	0
4976	2	2
4977	1	2
4982	1	2
4983	1	2
4985	2	2
4986	2	0
4987	2	2
4988	1	2
4990	2	2
4991	1	2
4994	2	2
4997	1	2
4999	2	2
5000	1	2
5002	2	2
5003	2	2
5005	2	2
5014	1	0
5015	2	0
5016	2	0
5017	2	2
5021	2	0
5022	2	2
5024	2	0
5025	2	0
5026	2	0
5027	2	2
5041	1	2
5046	2	0
5047	2	2
5048	1	2
5050	2	2
5054	1	2
5057	1	2
5065	1	2
5067	1	0
5068	2	2
5069	1	2
5074	1	2
5075	1	2
5077	2	2
5078	2	0
5079	2	2
5080	1	2
5083	2	2
5086	2	0
5087	2	0
5088	2	0
5089	2	2
5091	1	2
5107	1	2
5112	2	0
5113	2	2
5116	2	2
5117	1	2
5118	2	0
5122	1	2
5124	1	2
5129	1	2
5135	1	2
5137	1	0
5138	2	2
5141	2	2
5142	1	2
5147	1	2
5154	1	2
5156	1	0
5157	2	2
5158	1	2
5160	2	2
5161	1	2
5164	1	2
5166	2	2
5167	1	2
5169	2	0
5171	1	0
5173	1	2
5186	2	0
5189	1	2
5193	1	0
5194	2	0
5195	2	2
5196	1	2
5198	2	2
5202	1	2
5205	1	2
5213	1	2
5215	1	0
5216	2	2
5217	1	2
5222	1	2
5223	1	2
5225	2	2
5226	2	0
5227	2	2
5229	1	2
5245	1	2
5248	2	0
5249	1	0
5250	2	0
5251	2	2
5254	2	2
5255	1	2
5256	2	0
5260	1	2
5262	1	2
5267	1	2
5273	1	2
5275	1	0
5276	2	2
5279	2	2
5280	1	2
5285	1	2
5292	1	2
5294	1	0
5295	2	2
5296	1	2
5298	2	2
5299	1	2
5302	1	2
5304	2	2
5305	1	2
5307	2	0
5309	1	0
5320	1	2
5325	1	0
5350	1	0
5351	2	0
5352	2	0
5353	2	2
5355	1	0
5357	1	0
5358	2	0
5359	2	2
5368	1	3
5376	1	2
5377	1	2
5382	1	2
5383	1	2
5384	2	2
5388	1	0
5393	1	3
5395	2	0
5397	2	2
5398	1	3
5400	2	0
5401	2	0
5402	2	0
5403	2	0
5404	2	2
5405	1	2
5407	2	2
5412	1	3
5416	1	3
5420	1	3
5426	1	2
5428	2	0
5429	2	2
5431	1	0
5432	2	0
5438	1	0
5445	1	3
5447	2	0
5448	2	0
5449	2	0
5450	2	0
5451	2	2
5452	1	3
5461	1	0
5480	1	2
5484	1	0
5485	2	0
5486	2	2
5488	1	0
5489	2	2
