4097	4096
4098	4096
4099	4096
4102	4101
4103	4101
4105	4104
4106	4104
4107	4104
4108	4104
4110	4109
4111	4109
4112	4109
4113	4109
4114	4109
4116	4115
4117	4115
4118	4115
4119	4115
4120	4115
4122	4121
4124	4123
4126	4125
4128	4127
4129	4127
4145	4144
4146	4144
4147	4144
4148	4144
4149	4144
4151	4150
4152	4150
4153	4150
4154	4150
4155	4150
4157	4156
4159	4158
4161	4160
4162	4160
4163	4160
4164	4160
4165	4160
4167	4166
4168	4166
4169	4166
4170	4166
4172	4171
4173	4171
4174	4171
4175	4171
4177	4176
4178	4176
4179	4176
4180	4176
4181	4176
4183	4182
4184	4182
4185	4182
4186	4182
4188	4187
4189	4187
4190	4187
4191	4187
4193	4192
4194	4192
4195	4192
4196	4192
4197	4192
4199	4198
4200	4198
4201	4198
4202	4198
4204	4203
4205	4203
4206	4203
4207	4203
4209	4208
4210	4208
4211	4208
4212	4208
4213	4208
4215	4214
4216	4214
4217	4214
4218	4214
4220	4219
4221	4219
4222	4219
4223	4219
4225	4224
4226	4224
4227	4224
4228	4224
4229	4224
4231	4230
4232	4230
4233	4230
4234	4230
4236	4235
4237	4235
4238	4235
4239	4235
4241	4240
4242	4240
4243	4240
4244	4240
4245	4240
4247	4246
4248	4246
4249	4246
4250	4246
4252	4251
4253	4251
4254	4251
4255	4251
4257	4256
4258	4256
4259	4256
4260	4256
4261	4256
4263	4262
4264	4262
4265	4262
4266	4262
4268	4267
4269	4267
4270	4267
4271	4267
4273	4272
4274	4272
4275	4272
4277	4276
4280	4279
4282	4281
4283	4281
4288	4287
4289	4287
4290	4287
4291	4287
4293	4292
4294	4292
4295	4292
4296	4292
4297	4292
4299	4298
4300	4298
4301	4298
4302	4298
4303	4298
4306	4305
4307	4305
4308	4305
4309	4305
4310	4305
4315	4314
4316	4314
4317	4314
4318	4314
4319	4314
4321	4320
4322	4320
4323	4320
4324	4320
4327	4326
4328	4326
4331	4330
4333	4332
4335	4334
4337	4336
4338	4336
4353	4352
4354	4352
4355	4352
4356	4352
4358	4357
4359	4357
4360	4357
4361	4357
4362	4357
4364	4363
4365	4363
4366	4363
4367	4363
4368	4363
4370	4369
4371	4369
4372	4369
4373	4369
4374	4369
4376	4375
4378	4377
4380	4379
4381	4379
4382	4379
4383	4379
4384	4379
4386	4385
4388	4387
4391	4390
4393	4392
4394	4392
4397	4396
4399	4398
4400	4398
4404	4403
4405	4403
4406	4403
4410	4409
4411	4409
4412	4409
4413	4409
4414	4409
4415	4409
4417	4416
4418	4416
4419	4416
4420	4416
4422	4421
4423	4421
4424	4421
4425	4421
4426	4421
4429	4428
4432	4431
4433	4431
4434	4431
4435	4431
4436	4431
4438	4437
4439	4437
4440	4437
4441	4437
4442	4437
4444	4443
4445	4443
4447	4446
4449	4448
4451	4450
4452	4450
4454	4453
4455	4453
4457	4456
4459	4458
4461	4460
4463	4462
4464	4462
4465	4462
4466	4462
4467	4462
4469	4468
4471	4470
4473	4472
4474	4472
4478	4477
4480	4479
4481	4479
4483	4482
4484	4482
4488	4487
4489	4487
4490	4487
4491	4487
4492	4487
4493	4487
4495	4494
4497	4496
4498	4496
4499	4496
4502	4501
4505	4504
4506	4504
4507	4504
4508	4504
4510	4509
4511	4509
4512	4509
4513	4509
4514	4509
4516	4515
4517	4515
4519	4518
4520	4518
4521	4518
4522	4518
4523	4518
4524	4518
4526	4525
4528	4527
4529	4527
4530	4527
4531	4527
4532	4527
4534	4533
4536	4535
4538	4537
4539	4537
4541	4540
4542	4540
4543	4540
4544	4540
4545	4540
4547	4546
4548	4546
4549	4546
4550	4546
4551	4546
4553	4552
4554	4552
4556	4555
4557	4555
4558	4555
4559	4555
4561	4560
4562	4560
4563	4560
4564	4560
4565	4560
4566	4560
4568	4567
4569	4567
4573	4572
4574	4572
4575	4572
4577	4576
4578	4576
4579	4576
4581	4580
4582	4580
4583	4580
4584	4580
4586	4585
4587	4585
4590	4589
4591	4589
4592	4589
4594	4593
4595	4593
4597	4596
4598	4596
4601	4600
4606	4605
4607	4605
4609	4608
4610	4608
4611	4608
4612	4608
4614	4613
4615	4613
4616	4613
4617	4613
4618	4613
4620	4619
4621	4619
4622	4619
4623	4619
4624	4619
4625	4619
4627	4626
4629	4628
4630	4628
4632	4631
4633	4631
4634	4631
4635	4631
4636	4631
4639	4638
4640	4638
4641	4638
4642	4638
4643	4638
4646	4645
4647	4645
4648	4645
4649	4645
4651	4650
4652	4650
4654	4653
4655	4653
4656	4653
4657	4653
4658	4653
4660	4659
4661	4659
4663	4662
4665	4664
4666	4664
4670	4669
4671	4669
4672	4669
4673	4669
4675	4674
4676	4674
4678	4677
4679	4677
4681	4680
4682	4680
4683	4680
4684	4680
4685	4680
4689	4688
4690	4688
4691	4688
4692	4688
4694	4693
4695	4693
4697	4696
4698	4696
4699	4696
4701	4700
4702	4700
4703	4700
4705	4704
4707	4706
4708	4706
4710	4709
4712	4711
4713	4711
4714	4711
4715	4711
4717	4716
4718	4716
4720	4719
4722	4721
4723	4721
4725	4724
4727	4726
4730	4729
4731	4729
4732	4729
4733	4729
4735	4734
4736	4734
4738	4737
4739	4737
4741	4740
4742	4740
4744	4743
4746	4745
4747	4745
4748	4745
4749	4745
4751	4750
4752	4750
4754	4753
4756	4755
4757	4755
4759	4758
4761	4760
4764	4763
4765	4763
4766	4763
4767	4763
4769	4768
4770	4768
4772	4771
4773	4771
4775	4774
4776	4774
4778	4777
4779	4777
4781	4780
4782	4780
4784	4783
4786	4785
4788	4787
4789	4787
4791	4790
4792	4790
4794	4793
4796	4795
4797	4795
4799	4798
4800	4798
4802	4801
4803	4801
4805	4804
4806	4804
4808	4807
4810	4809
4812	4811
4813	4811
4815	4814
4816	4814
4818	4817
4820	4819
4821	4819
4823	4822
4824	4822
4825	4822
4826	4822
4828	4827
4829	4827
4835	4834
4836	4834
4840	4839
4843	4842
4844	4842
4846	4845
4847	4845
4848	4845
4849	4845
4851	4850
4852	4850
4853	4850
4854	4850
4855	4850
4857	4856
4858	4856
4859	4856
4861	4860
4863	4862
4864	4862
4865	4862
4866	4862
4867	4862
4868	4862
4870	4869
4872	4871
4873	4871
4875	4874
4876	4874
4877	4874
4878	4874
4879	4874
4882	4881
4883	4881
4884	4881
4885	4881
4887	4886
4888	4886
4890	4889
4891	4889
4893	4892
4894	4892
4895	4892
4896	4892
4897	4892
4900	4899
4901	4899
4902	4899
4903	4899
4904	4899
4907	4906
4908	4906
4909	4906
4910	4906
4911	4906
4914	4913
4915	4913
4916	4913
4917	4913
4919	4918
4920	4918
4923	4922
4924	4922
4929	4928
4931	4930
4932	4930
4934	4933
4935	4933
4936	4933
4937	4933
4939	4938
4940	4938
4941	4938
4942	4938
4944	4943
4945	4943
4947	4946
4948	4946
4949	4946
4950	4946
4952	4951
4954	4953
4955	4953
4956	4953
4957	4953
4959	4958
4960	4958
4966	4965
4968	4967
4969	4967
4970	4967
4971	4967
4973	4972
4974	4972
4975	4972
4976	4972
4978	4977
4979	4977
4980	4977
4981	4977
4982	4977
4984	4983
4985	4983
4987	4986
4989	4988
4990	4988
4992	4991
4993	4991
4995	4994
4996	4994
4998	4997
4999	4997
5001	5000
5002	5000
5004	5003
5005	5003
5012	5011
5014	5013
5015	5013
5016	5013
5017	5013
5019	5018
5020	5018
5021	5018
5022	5018
5024	5023
5025	5023
5026	5023
5027	5023
5032	5031
5035	5034
5036	5034
5038	5037
5039	5037
5040	5037
5041	5037
5043	5042
5044	5042
5045	5042
5046	5042
5047	5042
5049	5048
5050	5048
5052	5051
5053	5051
5055	5054
5056	5054
5058	5057
5059	5057
5062	5061
5063	5061
5064	5061
5065	5061
5067	5066
5068	5066
5070	5069
5071	5069
5072	5069
5073	5069
5074	5069
5076	5075
5077	5075
5079	5078
5081	5080
5082	5080
5084	5083
5085	5083
5086	5083
5087	5083
5088	5083
5089	5083
5092	5091
5093	5091
5098	5097
5101	5100
5102	5100
5104	5103
5105	5103
5106	5103
5107	5103
5109	5108
5110	5108
5111	5108
5112	5108
5113	5108
5115	5114
5116	5114
5118	5117
5119	5117
5120	5117
5121	5117
5122	5117
5125	5124
5126	5124
5127	5124
5128	5124
5129	5124
5132	5131
5133	5131
5134	5131
5135	5131
5137	5136
5138	5136
5140	5139
5141	5139
5143	5142
5144	5142
5145	5142
5146	5142
5147	5142
5151	5150
5152	5150
5153	5150
5154	5150
5156	5155
5157	5155
5159	5158
5160	5158
5162	5161
5163	5161
5165	5164
5166	5164
5168	5167
5169	5167
5171	5170
5172	5170
5174	5173
5175	5173
5180	5179
5183	5182
5184	5182
5186	5185
5187	5185
5188	5185
5189	5185
5191	5190
5192	5190
5193	5190
5194	5190
5195	5190
5197	5196
5198	5196
5200	5199
5201	5199
5203	5202
5204	5202
5206	5205
5207	5205
5210	5209
5211	5209
5212	5209
5213	5209
5215	5214
5216	5214
5218	5217
5219	5217
5220	5217
5221	5217
5222	5217
5224	5223
5225	5223
5227	5226
5230	5229
5231	5229
5236	5235
5239	5238
5240	5238
5242	5241
5243	5241
5244	5241
5245	5241
5247	5246
5248	5246
5249	5246
5250	5246
5251	5246
5253	5252
5254	5252
5256	5255
5257	5255
5258	5255
5259	5255
5260	5255
5263	5262
5264	5262
5265	5262
5266	5262
5267	5262
5270	5269
5271	5269
5272	5269
5273	5269
5275	5274
5276	5274
5278	5277
5279	5277
5281	5280
5282	5280
5283	5280
5284	5280
5285	5280
5289	5288
5290	5288
5291	5288
5292	5288
5294	5293
5295	5293
5297	5296
5298	5296
5300	5299
5301	5299
5303	5302
5304	5302
5306	5305
5307	5305
5309	5308
5310	5308
5312	5311
5314	5313
5315	5313
5317	5316
5319	5318
5321	5320
5322	5320
5326	5325
5327	5325
5330	5329
5332	5331
5334	5333
5336	5335
5338	5337
5340	5339
5342	5341
5345	5344
5346	5344
5347	5344
5350	5349
5351	5349
5352	5349
5353	5349
5355	5354
5356	5354
5357	5354
5358	5354
5359	5354
5364	5363
5365	5363
5367	5366
5369	5368
5370	5368
5371	5368
5373	5372
5374	5372
5375	5372
5376	5372
5378	5377
5379	5377
5380	5377
5381	5377
5382	5377
5384	5383
5385	5383
5386	5383
5387	5383
5388	5383
5390	5389
5392	5391
5393	5391
5395	5394
5397	5396
5399	5398
5400	5398
5401	5398
5402	5398
5403	5398
5404	5398
5406	5405
5407	5405
5409	5408
5410	5408
5413	5412
5414	5412
5415	5412
5417	5416
5418	5416
5419	5416
5421	5420
5422	5420
5423	5420
5424	5420
5425	5420
5426	5420
5428	5427
5429	5427
5431	5430
5432	5430
5434	5433
5436	5435
5438	5437
5439	5437
5446	5445
5447	5445
5448	5445
5449	5445
5450	5445
5451	5445
5453	5452
5454	5452
5455	5452
5457	5456
5458	5456
5459	5456
5462	5461
5463	5461
5469	5468
5470	5468
5471	5468
5474	5473
5475	5473
5477	5476
5478	5476
5479	5476
5480	5476
5482	5481
5483	5481
5484	5481
5485	5481
5486	5481
5488	5487
5489	5487
