4098	4099
4096	4100
4099	4100
4100	4101
4102	4103
4101	4104
4103	4105
4105	4107
4106	4108
4104	4109
4107	4109
4110	4111
4111	4113
4112	4113
4108	4114
4109	4115
4113	4115
4117	4118
4116	4119
4114	4120
4115	4121
4121	4123
4123	4125
4120	4126
4124	4126
4122	4127
4125	4127
4127	4130
4128	4130
4130	4131
4126	4132
4129	4132
4131	4132
4145	4147
4146	4148
4147	4149
4144	4150
4148	4150
4149	4151
4152	4154
4153	4155
4150	4156
4151	4156
4154	4156
4155	4157
4156	4158
4157	4159
4158	4160
4159	4161
4162	4164
4163	4165
4160	4166
4161	4166
4164	4166
4165	4168
4167	4169
4168	4170
4166	4171
4169	4171
4170	4172
4172	4174
4171	4176
4178	4180
4179	4181
4176	4182
4177	4182
4180	4182
4181	4184
4183	4185
4184	4186
4182	4187
4185	4187
4186	4188
4188	4190
4187	4192
4194	4196
4195	4197
4192	4198
4193	4198
4196	4198
4197	4200
4199	4201
4200	4202
4198	4203
4201	4203
4202	4204
4204	4207
4203	4208
4210	4212
4211	4213
4208	4214
4209	4214
4212	4214
4213	4216
4215	4217
4216	4218
4214	4219
4217	4219
4218	4220
4220	4222
4219	4224
4226	4228
4227	4229
4224	4230
4225	4230
4228	4230
4229	4232
4231	4233
4232	4234
4230	4235
4233	4235
4234	4236
4235	4240
4236	4241
4242	4244
4243	4245
4240	4246
4241	4246
4244	4246
4245	4248
4247	4249
4248	4250
4246	4251
4249	4251
4250	4252
4252	4253
4251	4256
4258	4260
4259	4261
4256	4262
4257	4262
4260	4262
4261	4264
4263	4265
4264	4266
4262	4267
4265	4267
4266	4268
4268	4271
4267	4272
4274	4275
4272	4276
4275	4276
4276	4278
4277	4278
4278	4279
4279	4281
4280	4282
4281	4284
4282	4284
4284	4285
4285	4286
4286	4287
4288	4290
4289	4291
4287	4292
4290	4292
4293	4294
4294	4296
4295	4296
4291	4297
4292	4298
4296	4298
4300	4301
4297	4303
4299	4303
4301	4303
4298	4304
4304	4305
4303	4306
4306	4309
4307	4309
4308	4310
4305	4311
4311	4312
4310	4313
4312	4313
4313	4314
4315	4317
4316	4318
4314	4320
4321	4323
4320	4325
4324	4326
4325	4326
4326	4329
4327	4329
4328	4330
4329	4330
4330	4332
4331	4332
4332	4334
4333	4334
4334	4336
4335	4336
4336	4339
4337	4339
4338	4340
4339	4340
4340	4342
4341	4342
4342	4344
4343	4344
4344	4346
4345	4346
4346	4348
4347	4348
4348	4350
4349	4350
4350	4352
4351	4352
4353	4355
4354	4356
4352	4357
4355	4357
4359	4360
4358	4361
4356	4362
4357	4363
4360	4363
4361	4363
4364	4366
4365	4367
4362	4368
4366	4368
4363	4369
4367	4369
4370	4373
4371	4373
4368	4374
4372	4374
4369	4375
4373	4375
4374	4376
4375	4377
4377	4379
4376	4380
4378	4383
4380	4383
4379	4385
4385	4387
4387	4389
4384	4390
4389	4390
4386	4391
4388	4391
4390	4392
4391	4393
4393	4394
4392	4395
4394	4396
4395	4396
4396	4398
4398	4401
4399	4401
4400	4402
4401	4402
4397	4403
4402	4403
4404	4406
4403	4407
4407	4408
4408	4409
4405	4412
4406	4412
4410	4412
4411	4414
4412	4414
4413	4415
4409	4416
4414	4416
4415	4417
4417	4418
4418	4420
4416	4421
4419	4421
4422	4425
4420	4426
4421	4427
4424	4427
4425	4427
4423	4428
4427	4428
4426	4429
4428	4430
4429	4431
4430	4431
4432	4434
4433	4435
4434	4436
4431	4437
4435	4437
4438	4441
4439	4441
4436	4442
4440	4442
4437	4443
4441	4443
4444	4445
4443	4446
4445	4447
4442	4448
4446	4448
4448	4450
4449	4450
4447	4451
4450	4453
4452	4453
4454	4455
4451	4456
4453	4456
4455	4457
4456	4458
4457	4459
4458	4460
4459	4460
4460	4462
4461	4463
4463	4464
4464	4465
4462	4468
4468	4470
4470	4472
4467	4473
4469	4473
4473	4474
4472	4475
4475	4476
4471	4477
4474	4477
4476	4477
4477	4479
4479	4482
4480	4482
4478	4484
4483	4484
4482	4485
4484	4485
4485	4486
4481	4487
4486	4487
4488	4490
4489	4492
4490	4492
4491	4493
4487	4494
4492	4494
4493	4496
4494	4496
4495	4496
4498	4499
4496	4500
4499	4500
4500	4501
4501	4503
4502	4504
4503	4504
4505	4506
4504	4509
4510	4511
4511	4513
4508	4514
4509	4515
4512	4515
4513	4515
4516	4517
4515	4518
4517	4519
4514	4520
4520	4522
4521	4523
4519	4524
4522	4524
4518	4525
4523	4525
4524	4527
4525	4527
4528	4531
4529	4531
4526	4532
4527	4533
4533	4535
4535	4537
4532	4538
4534	4539
4538	4539
4537	4540
4539	4541
4536	4542
4541	4543
4542	4544
4543	4545
4540	4546
4544	4546
4545	4547
4547	4548
4548	4550
4546	4552
4552	4555
4553	4555
4554	4556
4551	4557
4556	4558
4555	4560
4559	4561
4561	4564
4562	4564
4563	4565
4564	4566
4560	4567
4565	4567
4568	4569
4567	4570
4569	4570
4570	4571
4566	4572
4571	4572
4573	4575
4572	4576
4574	4577
4575	4577
4578	4579
4576	4580
4579	4580
4581	4582
4580	4585
4585	4588
4586	4588
4587	4589
4588	4589
4584	4590
4590	4591
4589	4593
4591	4593
4592	4594
4593	4596
4594	4596
4596	4599
4597	4599
4598	4599
4599	4600
4600	4602
4601	4603
4602	4603
4603	4604
4604	4605
4606	4607
4605	4608
4607	4609
4609	4611
4608	4613
4614	4615
4615	4616
4612	4618
4613	4619
4617	4619
4618	4620
4616	4621
4620	4621
4621	4623
4622	4624
4623	4625
4619	4626
4624	4626
4625	4627
4626	4628
4627	4628
4629	4630
4628	4631
4630	4636
4634	4636
4631	4637
4633	4638
4637	4638
4632	4639
4636	4639
4640	4641
4639	4642
4638	4644
4644	4645
4643	4646
4646	4647
4645	4650
4650	4653
4651	4653
4649	4655
4654	4657
4655	4657
4652	4658
4656	4658
4653	4659
4657	4659
4660	4661
4659	4662
4661	4663
4658	4664
4662	4664
4663	4666
4665	4666
4664	4667
4667	4668
4666	4669
4668	4669
4670	4671
4669	4674
4674	4677
4675	4677
4673	4679
4678	4679
4677	4680
4676	4682
4681	4682
4679	4685
4680	4686
4682	4687
4686	4687
4685	4688
4687	4688
4689	4691
4688	4693
4693	4696
4694	4696
4692	4698
4697	4698
4696	4700
4698	4700
4695	4701
4701	4703
4700	4704
4702	4704
4699	4705
4703	4706
4704	4706
4705	4707
4707	4708
4706	4709
4708	4710
4709	4711
4710	4712
4712	4714
4713	4714
4711	4716
4716	4719
4717	4719
4715	4721
4719	4721
4722	4723
4718	4724
4721	4724
4723	4725
4724	4726
4725	4726
4720	4727
4726	4728
4728	4729
4727	4730
4730	4732
4731	4733
4729	4734
4732	4734
4734	4737
4735	4737
4733	4739
4737	4740
4738	4740
4736	4742
4741	4742
4740	4743
4742	4744
4739	4745
4743	4745
4744	4746
4746	4748
4747	4748
4745	4750
4750	4753
4751	4753
4749	4755
4753	4755
4754	4755
4756	4757
4752	4758
4755	4758
4757	4759
4758	4760
4760	4762
4762	4763
4759	4764
4761	4764
4765	4767
4763	4768
4766	4768
4764	4771
4768	4771
4769	4771
4767	4773
4772	4773
4771	4774
4773	4775
4770	4776
4775	4776
4774	4777
4778	4779
4777	4780
4779	4781
4776	4782
4781	4782
4780	4783
4782	4784
4783	4785
4785	4787
4788	4789
4784	4790
4787	4790
4789	4791
4786	4792
4790	4793
4791	4793
4792	4794
4793	4795
4795	4798
4796	4798
4794	4800
4799	4800
4798	4801
4800	4802
4797	4803
4802	4803
4801	4804
4803	4805
4805	4806
4804	4807
4806	4808
4807	4809
4809	4811
4812	4813
4808	4814
4811	4814
4813	4815
4810	4816
4814	4817
4815	4817
4816	4818
4817	4819
4819	4822
4820	4822
4818	4824
4823	4825
4824	4826
4821	4827
4822	4827
4825	4827
4827	4830
4828	4830
4829	4830
4830	4831
4826	4832
4831	4832
4832	4833
4833	4834
4835	4836
4834	4837
4836	4837
4837	4838
4838	4839
4839	4841
4840	4842
4841	4842
4843	4844
4842	4845
4844	4846
4847	4848
4845	4850
4851	4852
4852	4853
4849	4855
4850	4856
4854	4856
4853	4858
4857	4859
4856	4860
4858	4860
4855	4861
4859	4862
4860	4862
4863	4865
4864	4866
4861	4867
4866	4868
4862	4869
4867	4869
4868	4871
4869	4871
4872	4873
4871	4874
4873	4875
4870	4876
4875	4878
4876	4878
4877	4879
4874	4880
4878	4880
4880	4881
4879	4882
4882	4884
4883	4884
4881	4886
4886	4889
4887	4889
4885	4891
4890	4891
4889	4892
4891	4893
4888	4894
4894	4896
4893	4897
4895	4897
4892	4898
4896	4898
4898	4899
4897	4900
4900	4903
4901	4903
4902	4904
4899	4905
4903	4905
4905	4906
4904	4907
4908	4909
4907	4910
4906	4912
4912	4913
4911	4914
4914	4916
4915	4916
4913	4918
4918	4921
4919	4921
4921	4922
4917	4923
4923	4924
4922	4925
4924	4925
4920	4926
4925	4926
4926	4927
4927	4928
4928	4930
4929	4931
4931	4932
4930	4933
4932	4934
4934	4937
4935	4937
4933	4938
4936	4938
4939	4941
4940	4942
4937	4943
4938	4943
4941	4943
4944	4945
4943	4946
4942	4948
4945	4948
4948	4950
4946	4951
4949	4951
4950	4953
4951	4953
4952	4954
4954	4956
4953	4958
4958	4961
4959	4961
4960	4962
4961	4962
4957	4963
4962	4963
4963	4964
4964	4965
4965	4967
4966	4968
4968	4969
4969	4971
4967	4972
4970	4972
4973	4974
4974	4976
4971	4977
4972	4977
4975	4977
4978	4979
4979	4981
4976	4982
4977	4983
4984	4985
4983	4986
4982	4988
4986	4988
4989	4990
4985	4991
4988	4991
4987	4993
4992	4993
4991	4994
4993	4995
4990	4996
4995	4996
4994	4997
4996	4998
4998	4999
4997	5000
5001	5002
5000	5003
4999	5005
5004	5005
5003	5006
5006	5007
5002	5008
5007	5008
5008	5009
5009	5010
5005	5011
5010	5011
5011	5013
5012	5014
5014	5016
5015	5017
5013	5018
5016	5018
5019	5022
5020	5022
5017	5023
5018	5023
5021	5023
5024	5026
5025	5027
5022	5028
5023	5028
5026	5028
5028	5029
5027	5030
5029	5030
5030	5031
5031	5033
5032	5034
5033	5034
5035	5036
5034	5037
5036	5038
5038	5040
5039	5040
5037	5042
5043	5044
5044	5045
5041	5047
5045	5047
5042	5048
5046	5048
5049	5050
5048	5051
5047	5053
5052	5053
5051	5054
5053	5055
5050	5056
5054	5057
5055	5057
5056	5058
5057	5060
5058	5060
5059	5061
5060	5061
5061	5066
5062	5069
5066	5069
5067	5069
5065	5071
5070	5071
5071	5073
5068	5074
5069	5075
5076	5077
5075	5078
5074	5080
5078	5080
5081	5082
5077	5083
5080	5083
5082	5084
5079	5085
5084	5085
5085	5087
5086	5088
5087	5089
5083	5090
5088	5090
5090	5091
5092	5093
5091	5094
5093	5094
5089	5095
5094	5095
5095	5096
5096	5097
5097	5099
5098	5100
5099	5100
5101	5102
5100	5103
5102	5104
5104	5105
5105	5106
5103	5108
5109	5110
5110	5112
5107	5113
5111	5113
5108	5114
5112	5114
5115	5116
5114	5117
5113	5119
5118	5121
5119	5121
5116	5122
5120	5122
5117	5123
5123	5124
5122	5125
5126	5127
5125	5128
5124	5130
5130	5131
5129	5132
5132	5133
5133	5134
5131	5136
5136	5139
5137	5139
5135	5141
5140	5141
5139	5142
5138	5144
5143	5144
5141	5147
5142	5148
5144	5149
5148	5149
5147	5150
5149	5150
5151	5152
5152	5153
5150	5155
5155	5158
5156	5158
5154	5160
5159	5160
5158	5161
5157	5163
5162	5163
5161	5164
5163	5165
5160	5166
5165	5166
5164	5167
5168	5169
5167	5170
5169	5171
5166	5172
5171	5172
5170	5173
5172	5175
5174	5175
5173	5176
5175	5176
5176	5177
5177	5178
5178	5179
5179	5181
5180	5182
5181	5182
5183	5184
5182	5185
5184	5186
5186	5187
5187	5188
5185	5190
5191	5192
5189	5195
5193	5195
5190	5196
5194	5196
5192	5197
5197	5198
5196	5199
5195	5201
5200	5201
5199	5202
5201	5203
5198	5204
5202	5205
5203	5205
5204	5206
5205	5208
5206	5208
5207	5209
5208	5209
5210	5211
5209	5214
5214	5217
5215	5217
5213	5219
5218	5219
5219	5220
5216	5222
5217	5223
5224	5225
5223	5226
5222	5228
5226	5228
5228	5229
5225	5231
5230	5231
5229	5232
5231	5232
5227	5233
5232	5233
5233	5234
5234	5235
5235	5237
5236	5238
5237	5238
5239	5240
5238	5241
5240	5242
5242	5244
5243	5244
5241	5246
5247	5248
5245	5251
5248	5251
5249	5251
5246	5252
5250	5252
5253	5254
5252	5255
5251	5257
5257	5258
5256	5259
5254	5260
5258	5260
5255	5261
5261	5262
5260	5263
5264	5265
5263	5266
5262	5268
5268	5269
5267	5270
5270	5271
5271	5272
5269	5274
5274	5277
5275	5277
5273	5279
5278	5279
5277	5280
5276	5282
5281	5282
5279	5285
5280	5286
5282	5287
5286	5287
5285	5288
5287	5288
5289	5291
5290	5291
5288	5293
5293	5296
5294	5296
5292	5298
5297	5298
5296	5299
5295	5301
5300	5301
5299	5302
5301	5303
5298	5304
5303	5304
5302	5305
5306	5307
5305	5308
5307	5309
5304	5310
5309	5310
5308	5311
5310	5313
5311	5313
5312	5315
5313	5316
5315	5316
5316	5318
5317	5319
5318	5320
5319	5320
5314	5321
5321	5322
5320	5323
5322	5323
5323	5324
5324	5325
5325	5328
5326	5328
5327	5329
5328	5329
5329	5331
5330	5331
5331	5333
5332	5333
5333	5335
5334	5335
5335	5337
5336	5337
5337	5339
5338	5339
5339	5341
5340	5341
5341	5343
5342	5343
5343	5344
5346	5347
5344	5348
5347	5348
5348	5349
5350	5353
5351	5353
5349	5354
5352	5354
5355	5357
5356	5357
5353	5359
5357	5359
5354	5360
5358	5360
5360	5361
5359	5362
5361	5362
5362	5363
5364	5365
5363	5366
5365	5367
5366	5368
5367	5369
5369	5371
5368	5372
5370	5372
5371	5373
5374	5375
5372	5377
5378	5379
5379	5380
5376	5382
5377	5383
5385	5387
5382	5388
5383	5389
5384	5390
5388	5390
5389	5391
5390	5391
5392	5393
5391	5394
5394	5396
5393	5397
5395	5397
5396	5398
5399	5401
5400	5403
5401	5403
5397	5404
5402	5404
5398	5405
5403	5405
5405	5408
5406	5408
5404	5410
5409	5410
5408	5411
5410	5412
5411	5412
5407	5413
5413	5415
5412	5416
5414	5416
5415	5417
5417	5419
5416	5420
5418	5420
5419	5421
5421	5422
5422	5424
5423	5425
5420	5427
5427	5430
5428	5431
5426	5432
5430	5433
5431	5433
5432	5434
5429	5435
5433	5435
5434	5437
5435	5437
5436	5438
5437	5440
5438	5441
5439	5441
5440	5441
5441	5442
5442	5443
5443	5444
5444	5445
5446	5448
5447	5450
5448	5450
5449	5451
5445	5452
5450	5452
5453	5455
5452	5456
5451	5457
5454	5457
5455	5457
5458	5459
5456	5460
5459	5460
5460	5461
5461	5464
5462	5464
5463	5465
5464	5465
5470	5471
5468	5472
5471	5472
5472	5473
5474	5475
5473	5476
5475	5477
5477	5479
5478	5479
5476	5481
5482	5483
5483	5484
5480	5486
5484	5486
5481	5487
5485	5487
5487	5490
5488	5490
5490	5491
5486	5492
5489	5492
5491	5492
