10	EAX
11	ECX
13	EBX
16	EBX
18	EBP
19	EAX
19	EDX
23	EBX
26	EAX
27	EBX
29	EBX
32	EBX
34	EBX
38	EBX
40	EAX
41	EBX
43	EAX
46	EBX
48	EAX
50	EBX
52	EAX
55	EBX
57	EAX
59	EBX
61	EAX
70	ECX
73	EBP
74	EBX
75	EAX
76	EAX
77	EBX
80	EAX
81	EBX
89	ECX
91	EAX
92	EBP
93	EDX
95	EBP
96	ECX
101	EDX
102	EBP
103	EBX
103	EDX
105	EBP
109	EBX
110	ESI
112	EAX
114	EAX
117	EAX
118	EDI
119	ESI
120	ECX
123	EBP
125	EBX
135	EDX
136	EBP
137	ECX
137	EDX
138	EBX
139	EAX
140	EBX
141	EBX
142	EBP
143	ESI
144	ECX
146	ESI
148	EBX
150	EBX
151	EBP
153	EBX
154	EBX
156	EBP
157	EDX
160	EBX
162	EBX
165	EBX
167	EBX
171	EBX
173	ECX
179	ECX
182	EBP
184	EBP
185	EBX
189	EAX
190	EBX
191	EAX
193	EBX
194	EBX
195	EBX
196	EAX
197	EBX
198	ECX
200	EDX
202	EBX
203	EBX
204	EBX
205	EBX
207	EDX
209	EBX
210	EBX
211	EBX
214	ESI
219	EBX
220	ECX
221	EBX
225	ESI
227	EBX
228	ECX
229	EBP
231	EBX
232	EBX
233	ECX
236	EBX
240	EBX
241	ECX
242	EBP
244	ECX
245	EBP
246	EBX
247	EBX
249	EBX
250	EBX
253	EBX
254	EBP
255	EBP
256	ECX
260	EBX
261	EBP
263	EBP
265	ECX
266	EBP
269	EBP
270	EBX
272	EBX
273	EAX
276	EBX
277	EAX
278	EAX
279	EBX
281	EBX
282	EAX
286	EBX
287	EAX
288	EDX
290	EBX
293	EBP
294	EAX
296	EBX
297	ECX
298	EBX
299	EBX
300	EAX
301	EBX
302	EBP
303	ECX
304	EAX
305	EAX
308	EBP
309	ECX
311	EBX
312	EBX
318	EBX
319	EBP
320	EBX
321	EBX
322	EAX
323	ECX
325	EBX
326	EBP
327	EBX
331	EBX
332	EBX
333	EBX
334	EBX
335	EDI
336	EDI
338	ECX
343	EBP
344	EBX
345	ECX
347	ECX
349	EBX
350	EBP
351	EBX
352	EDI
360	ECX
363	EDI
368	EBP
369	EBP
370	EBP
371	EBP
372	EAX
373	ECX
374	ECX
374	EBP
376	EBP
377	EBP
379	EBX
384	ESI
384	EBP
386	EBX
387	EBX
389	EBX
391	EBP
393	ECX
