16404	JUMP_SLOT	__libc_start_main	0
16400	JUMP_SLOT	__cxa_atexit	0
16396	JUMP_SLOT	_Znwj	0
16408	JUMP_SLOT	_ZStlsISt11char_traitsIcEERSt13basic_ostreamIcT_ES5_PKc	0
16416	JUMP_SLOT	_ZNSt8ios_base4InitC1Ev	0
16420	JUMP_SLOT	_ZNSolsEi	0
16412	JUMP_SLOT	_ZNSolsEPFRSoS_E	0
16364	GLOB_DAT	_ZSt4cout	0
16372	GLOB_DAT	__gmon_start__	0
16376	GLOB_DAT	_ITM_registerTMCloneTable	0
16368	GLOB_DAT	_ITM_deregisterTMCloneTable	0
16352	GLOB_DAT	__cxa_finalize	0
16360	GLOB_DAT	_ZSt4endlIcSt11char_traitsIcEERSt13basic_ostreamIT_T0_ES6_	0
16380	GLOB_DAT	_ZNSt8ios_base4InitD1Ev	0
16056	R32	_ZTVN10__cxxabiv120__si_class_type_infoE	0
16068	R32	_ZTVN10__cxxabiv120__si_class_type_infoE	0
16080	R32	_ZTVN10__cxxabiv117__class_type_infoE	0
16008	RELATIVE		0
16012	RELATIVE		0
16016	RELATIVE		0
16024	RELATIVE		0
16028	RELATIVE		0
16036	RELATIVE		0
16040	RELATIVE		0
16048	RELATIVE		0
16052	RELATIVE		0
16060	RELATIVE		0
16064	RELATIVE		0
16072	RELATIVE		0
16076	RELATIVE		0
16084	RELATIVE		0
16356	RELATIVE		0
16428	RELATIVE		0
