5372	1	4096	code
4123	1	4127	code
4171	1	4144	code
4187	1	4144	code
4203	1	4144	code
4219	1	4144	code
4235	1	4144	code
4251	1	4144	code
4267	1	4144	code
4711	1	4160	code
4745	1	4160	code
4913	1	4176	code
4320	1	4192	code
4645	1	4208	code
5131	1	4208	code
5269	1	4208	code
4688	1	4224	code
5150	1	4224	code
5288	1	4224	code
4881	1	4240	code
4669	1	4256	code
4287	1	4326	code
4104	1	4336	code
4504	1	4336	code
4608	1	4336	code
4845	1	4336	code
5037	1	4336	code
5103	1	4336	code
5185	1	4336	code
5241	1	4336	code
5476	1	4336	code
4555	1	4352	data
4555	1	4352	code
4377	1	4408	code
4387	1	4408	code
4580	1	4416	code
4460	1	4482	code
4470	1	4482	code
4535	1	4555	code
4525	1	4567	code
4352	1	4585	code
4416	1	4585	code
4704	1	4628	code
4626	1	4700	code
4953	1	4838	code
4860	1	4921	code
4869	1	4921	code
5061	1	4964	code
5209	1	4964	code
4729	1	5030	code
4763	1	5178	code
4933	1	5325	code
4967	1	5325	code
5013	1	5325	code
5435	1	5408	code
5394	1	5437	code
5349	1	5461	code
