4109	EBX	4104	EBX	1	12275
4292	EBX	4287	EBX	1	12092
4298	EAX	4298	NONE	0	5456
4305	EAX	4305	NONE	0	5344
4357	EDX	4352	EDX	1	12027
4363	ECX	4363	NONE	0	16432
4369	EAX	4369	NONE	0	16432
4421	EDX	4416	EDX	1	11963
4431	ECX	4431	NONE	0	16432
4437	EAX	4437	NONE	0	16432
4509	EBX	4504	EBX	1	11875
4613	EBX	4608	EBX	1	11771
4631	EAX	4631	NONE	0	8245
4780	EAX	4774	EAX	1	0
4804	EAX	4774	EAX	1	0
4780	EAX	4798	EAX	1	0
4804	EAX	4798	EAX	1	0
4850	EBX	4845	EBX	1	11534
4874	EAX	4874	NONE	0	16440
4892	EAX	4892	NONE	0	16428
4899	EAX	4899	NONE	0	16440
4972	EAX	4967	EAX	1	11412
4977	EDX	4977	NONE	0	16052
5042	EBX	5037	EBX	1	11342
5069	EDX	5069	NONE	0	16040
5108	EBX	5103	EBX	1	11276
5117	EAX	5117	NONE	0	8200
5190	EBX	5185	EBX	1	11194
5217	EDX	5217	NONE	0	16028
5246	EBX	5241	EBX	1	11138
5255	EAX	5255	NONE	0	8223
4938	EAX	5325	EAX	1	11446
4972	EAX	5325	EAX	1	11412
5018	EAX	5325	EAX	1	11366
5354	EBP	5349	EBP	1	11030
5366	EBX	5354	EBP	1	0
5377	EBX	5377	NONE	0	16016
5383	EAX	5383	NONE	0	16008
5396	ESI	5396	NONE	0	0
5398	ESI	5396	ESI	1	0
5405	ESI	5398	ESI	1	0
5427	ESI	5405	ESI	1	1
5427	ESI	5427	ESI	1	1
