134516772	134516771
134516796	134516790
134516806	134516800
134516816	134516811
134516822	134516816
134516832	134516827
134516838	134516832
134516848	134516843
134516854	134516848
134516864	134516859
134516870	134516864
134516880	134516875
134516886	134516880
134516896	134516891
134516902	134516896
134516912	134516907
134516918	134516912
134516928	134516923
134516934	134516928
134516944	134516939
134516950	134516944
134516960	134516955
134516966	134516960
134516976	134516971
134516982	134516976
134516992	134516987
134516998	134516992
134517008	134517003
134517014	134517008
134517024	134517019
134517030	134517024
134517040	134517035
134517046	134517040
134517056	134517051
134517062	134517056
134517072	134517067
134517078	134517072
134517088	134517083
134517147	134517146
134517168	134517167
134517223	134517222
134517227	134517226
134517237	134517236
134517252	134517251
134517254	134517251
134517256	134517251
134517258	134517251
134517260	134517251
134517262	134517251
134517264	134517251
134517303	134517302
134517313	134517312
134517380	134517379
134517385	134517384
134517425	134517424
134517433	134517432
134517446	134517444
134517448	134517444
134517450	134517444
134517452	134517444
134517454	134517444
134517456	134517444
134517564	134517559
134517615	134517610
134517672	134517667
134517787	134517782
134517809	134517804
134517831	134517826
134517899	134517894
134517923	134517918
134517961	134517956
134517985	134517980
134517998	134517997
134518038	134518033
134518054	134518049
134518059	134518054
134518182	134518181
134518271	134518270
134518272	134518270
134518319	134518318
134518320	134518318
134518348	134518347
134518350	134518347
134518352	134518347
134518428	134518427
134518430	134518427
134518432	134518427
134518512	134518511
134518531	134518530
134518533	134518530
134518535	134518530
134518537	134518530
134518539	134518530
134518541	134518530
134518543	134518530
134518544	134518530
134518634	134518633
134518662	134518661
134518664	134518661
134518666	134518661
134518668	134518661
134518670	134518661
134518672	134518661
134518714	134518713
134518716	134518713
134518718	134518713
134518720	134518713
134518743	134518742
134518745	134518742
134518747	134518742
134518749	134518742
134518751	134518742
134518752	134518742
134518853	134518852
134518869	134518868
134518873	134518872
134518900	134518899
