134518835	ESI	134518804	1	1	loop
134517276	EAX	134517276	0	0	complete
134517352	EDX	134517352	0	0	complete
134518804	ESI	134518804	0	0	complete
134518806	ESI	134518804	0	0	complete
134518813	ESI	134518804	0	0	complete
134517201	EAX	134517201	0	134518752	complete
134517194	EAX	134517194	0	134518864	complete
134518791	EAX	134518791	0	134528628	complete
134518785	EBX	134518785	0	134528636	complete
134516744	EBX	0	1	0	incomplete
134516755	EAX	0	1	0	incomplete
134517183	EBX	0	1	0	incomplete
134517457	EBP	0	1	0	incomplete
134517564	EAX	0	1	0	incomplete
134517581	ESI	0	1	0	incomplete
134517621	ECX	0	1	0	incomplete
134517638	ESI	0	1	0	incomplete
134517684	ECX	0	1	0	incomplete
134517687	EDX	0	1	0	incomplete
134517689	EDX	0	1	0	incomplete
134517691	ESI	0	1	0	incomplete
134517703	ECX	0	1	0	incomplete
134517706	EDX	0	1	0	incomplete
134517708	EDX	0	1	0	incomplete
134517710	ESI	0	1	0	incomplete
134517719	ECX	0	1	0	incomplete
134517730	EAX	0	1	0	incomplete
134517741	ECX	0	1	0	incomplete
134517753	EAX	0	1	0	incomplete
134517859	ECX	0	1	0	incomplete
134517871	EAX	0	1	0	incomplete
134517899	EAX	0	1	0	incomplete
134517923	EAX	0	1	0	incomplete
134517926	ECX	0	1	0	incomplete
134517928	ECX	0	1	0	incomplete
134517931	EDX	0	1	0	incomplete
134517937	ECX	0	1	0	incomplete
134517961	EAX	0	1	0	incomplete
134518097	EBP	0	1	0	incomplete
134518162	ECX	0	1	0	incomplete
134518193	EBP	0	1	0	incomplete
134518258	ECX	0	1	0	incomplete
134518273	EBP	0	1	0	incomplete
134518309	ECX	0	1	0	incomplete
134518321	EBP	0	1	0	incomplete
134518385	EBP	0	1	0	incomplete
134518407	EDI	0	1	0	incomplete
134518433	EBP	0	1	0	incomplete
134518492	ECX	0	1	0	incomplete
134518513	EBP	0	1	0	incomplete
134518545	EBP	0	1	0	incomplete
134518605	ECX	0	1	0	incomplete
134518641	EBP	0	1	0	incomplete
134518655	EDX	0	1	0	incomplete
134518673	EBP	0	1	0	incomplete
134518721	EBP	0	1	0	incomplete
134518757	EBP	0	1	0	incomplete
134518762	EBP	0	1	10262	incomplete
134518774	EBX	0	1	10262	incomplete
134517188	EBX	0	1	11836	incomplete
134516749	EBX	0	1	12275	incomplete
