134516736	134516744
134516749	134516763
134516765	134516765
134516767	134516771
134516784	134516790
134516796	134516798
134516800	134516800
134516806	134516811
134516816	134516816
134516822	134516827
134516832	134516832
134516838	134516843
134516848	134516848
134516854	134516859
134516864	134516864
134516870	134516875
134516880	134516880
134516886	134516891
134516896	134516896
134516902	134516907
134516912	134516912
134516918	134516923
134516928	134516928
134516934	134516939
134516944	134516944
134516950	134516955
134516960	134516960
134516966	134516971
134516976	134516976
134516982	134516987
134516992	134516992
134516998	134517003
134517008	134517008
134517014	134517019
134517024	134517024
134517030	134517035
134517040	134517040
134517046	134517051
134517056	134517056
134517062	134517067
134517072	134517072
134517078	134517083
134517088	134517103
134517108	134517137
134517142	134517146
134517147	134517151
134517152	134517158
134517163	134517167
134517168	134517183
134517188	134517217
134517222	134517222
134517223	134517226
134517227	134517231
134517232	134517236
134517237	134517247
134517248	134517251
134517264	134517274
134517276	134517283
134517285	134517296
134517298	134517302
134517303	134517310
134517312	134517312
134517313	134517327
134517328	134517350
134517352	134517359
134517361	134517373
134517375	134517379
134517380	134517380
134517384	134517384
134517385	134517385
134517392	134517403
134517405	134517411
134517416	134517424
134517425	134517425
134517432	134517432
134517433	134517433
134517440	134517444
134517456	134517470
134517477	134517481
134517487	134517506
134517511	134517527
134517532	134517545
134517550	134517559
134517564	134517572
134517577	134517579
134517581	134517605
134517610	134517610
134517615	134517629
134517634	134517636
134517638	134517662
134517667	134517667
134517672	134517695
134517697	134517717
134517719	134517730
134517735	134517741
134517743	134517748
134517753	134517774
134517779	134517779
134517782	134517782
134517787	134517796
134517799	134517799
134517804	134517804
134517809	134517812
134517815	134517818
134517821	134517821
134517826	134517826
134517831	134517845
134517847	134517850
134517856	134517859
134517861	134517863
134517868	134517868
134517871	134517886
134517891	134517894
134517899	134517913
134517918	134517918
134517923	134517935
134517937	134517948
134517953	134517956
134517961	134517975
134517980	134517980
134517985	134517985
134517990	134517997
134517998	134518008
134518014	134518020
134518025	134518028
134518033	134518033
134518038	134518041
134518044	134518044
134518049	134518049
134518054	134518054
134518059	134518065
134518070	134518076
134518081	134518095
134518096	134518122
134518125	134518148
134518153	134518181
134518182	134518190
134518192	134518218
134518221	134518244
134518249	134518270
134518272	134518295
134518300	134518318
134518320	134518338
134518343	134518347
134518352	134518362
134518367	134518371
134518376	134518382
134518384	134518415
134518418	134518426
134518427	134518427
134518432	134518469
134518474	134518487
134518492	134518511
134518512	134518530
134518544	134518582
134518587	134518600
134518605	134518633
134518634	134518638
134518640	134518658
134518660	134518661
134518672	134518693
134518698	134518704
134518709	134518713
134518720	134518720
134518721	134518742
134518752	134518757
134518762	134518780
134518785	134518802
134518804	134518813
134518816	134518828
134518835	134518843
134518845	134518852
134518853	134518860
134518864	134518868
134518869	134518872
134518876	134518884
134518889	134518899
