134516736	134516736	134516749
134516749	134516749	134516765
134516765	134516765	134516767
134516767	134516767	134516772
134516784	134516784	134516796
134516796	134516796	134516800
134516800	134516800	134516806
134516806	134516806	134516816
134516816	134516816	134516822
134516822	134516822	134516832
134516832	134516832	134516838
134516838	134516838	134516848
134516848	134516848	134516854
134516854	134516854	134516864
134516864	134516864	134516870
134516870	134516870	134516880
134516880	134516880	134516886
134516886	134516886	134516896
134516896	134516896	134516902
134516902	134516902	134516912
134516912	134516912	134516918
134516918	134516918	134516928
134516928	134516928	134516934
134516934	134516934	134516944
134516944	134516944	134516950
134516950	134516950	134516960
134516960	134516960	134516966
134516966	134516966	134516976
134516976	134516976	134516982
134516982	134516982	134516992
134516992	134516992	134516998
134516998	134516998	134517008
134517008	134517008	134517014
134517014	134517014	134517024
134517024	134517024	134517030
134517030	134517030	134517040
134517040	134517040	134517046
134517046	134517046	134517056
134517056	134517056	134517062
134517062	134517062	134517072
134517072	134517072	134517078
134517078	134517078	134517088
134517088	134517088	134517108
134517108	134517108	134517142
134517142	134517142	134517147
134517147	134517147	134517152
134517152	134517152	134517163
134517163	134517163	134517168
134517168	134517168	134517188
134517188	134517188	134517222
134517222	134517222	134517223
134517223	134517223	134517227
134517227	134517227	134517232
134517232	134517232	134517237
134517237	134517237	134517248
134517248	134517248	134517252
134517264	134517264	134517276
134517276	134517276	134517285
134517285	134517285	134517298
134517298	134517298	134517303
134517303	134517303	134517312
134517312	134517312	134517313
134517313	134517313	134517328
134517328	134517328	134517352
134517352	134517352	134517361
134517361	134517361	134517375
134517375	134517375	134517380
134517380	134517380	134517384
134517384	134517384	134517385
134517385	134517385	134517392
134517392	134517392	134517405
134517405	134517405	134517416
134517416	134517416	134517425
134517425	134517425	134517432
134517432	134517432	134517433
134517433	134517433	134517440
134517440	134517440	134517446
134517456	134517456	134517477
134517477	134517477	134517487
134517487	134517487	134517511
134517511	134517511	134517532
134517532	134517532	134517550
134517550	134517550	134517564
134517564	134517564	134517577
134517577	134517577	134517581
134517581	134517581	134517610
134517610	134517610	134517615
134517615	134517615	134517634
134517634	134517634	134517638
134517638	134517638	134517667
134517667	134517667	134517672
134517672	134517672	134517697
134517697	134517697	134517719
134517719	134517719	134517735
134517735	134517735	134517743
134517743	134517743	134517753
134517753	134517753	134517779
134517779	134517779	134517782
134517782	134517782	134517787
134517787	134517787	134517799
134517799	134517799	134517804
134517804	134517804	134517809
134517809	134517809	134517815
134517815	134517815	134517821
134517821	134517821	134517826
134517826	134517826	134517831
134517831	134517831	134517847
134517847	134517847	134517856
134517856	134517856	134517861
134517861	134517861	134517868
134517868	134517868	134517871
134517871	134517871	134517891
134517891	134517891	134517899
134517899	134517899	134517918
134517918	134517918	134517923
134517923	134517923	134517937
134517937	134517937	134517953
134517953	134517953	134517961
134517961	134517961	134517980
134517980	134517980	134517985
134517985	134517985	134517990
134517990	134517990	134517998
134517998	134517998	134518014
134518014	134518014	134518025
134518025	134518025	134518033
134518033	134518033	134518038
134518038	134518038	134518044
134518044	134518044	134518049
134518049	134518049	134518054
134518054	134518054	134518059
134518059	134518059	134518070
134518070	134518070	134518081
134518081	134518081	134518096
134518096	134518096	134518125
134518125	134518125	134518153
134518153	134518153	134518182
134518182	134518182	134518192
134518192	134518192	134518221
134518221	134518221	134518249
134518249	134518249	134518271
134518272	134518272	134518300
134518300	134518300	134518319
134518320	134518320	134518343
134518343	134518343	134518348
134518352	134518352	134518367
134518367	134518367	134518376
134518376	134518376	134518384
134518384	134518384	134518418
134518418	134518418	134518427
134518427	134518427	134518428
134518432	134518432	134518474
134518474	134518474	134518492
134518492	134518492	134518512
134518512	134518512	134518531
134518544	134518544	134518587
134518587	134518587	134518605
134518605	134518605	134518634
134518634	134518634	134518640
134518640	134518640	134518660
134518660	134518660	134518662
134518672	134518672	134518698
134518698	134518698	134518709
134518709	134518709	134518714
134518720	134518720	134518721
134518721	134518721	134518743
134518752	134518752	134518762
134518762	134518762	134518785
134518785	134518785	134518804
134518804	134518804	134518816
134518816	134518816	134518835
134518835	134518835	134518845
134518845	134518845	134518853
134518853	134518853	134518864
134518864	134518864	134518869
134518869	134518869	134518873
134518876	134518876	134518889
134518889	134518889	134518900
