134516736	134516736
134516740	134516736
134516741	134516736
134516744	134516736
134516749	134516749
134516755	134516749
134516761	134516749
134516763	134516749
134516765	134516765
134516767	134516767
134516770	134516767
134516771	134516767
134516784	134516784
134516790	134516784
134516796	134516796
134516798	134516796
134516800	134516800
134516806	134516806
134516811	134516806
134516816	134516816
134516822	134516822
134516827	134516822
134516832	134516832
134516838	134516838
134516843	134516838
134516848	134516848
134516854	134516854
134516859	134516854
134516864	134516864
134516870	134516870
134516875	134516870
134516880	134516880
134516886	134516886
134516891	134516886
134516896	134516896
134516902	134516902
134516907	134516902
134516912	134516912
134516918	134516918
134516923	134516918
134516928	134516928
134516934	134516934
134516939	134516934
134516944	134516944
134516950	134516950
134516955	134516950
134516960	134516960
134516966	134516966
134516971	134516966
134516976	134516976
134516982	134516982
134516987	134516982
134516992	134516992
134516998	134516998
134517003	134516998
134517008	134517008
134517014	134517014
134517019	134517014
134517024	134517024
134517030	134517030
134517035	134517030
134517040	134517040
134517046	134517046
134517051	134517046
134517056	134517056
134517062	134517062
134517067	134517062
134517072	134517072
134517078	134517078
134517083	134517078
134517088	134517088
134517089	134517088
134517091	134517088
134517094	134517088
134517100	134517088
134517103	134517088
134517108	134517108
134517114	134517108
134517117	134517108
134517123	134517108
134517127	134517108
134517133	134517108
134517137	134517108
134517142	134517142
134517145	134517142
134517146	134517142
134517147	134517147
134517148	134517147
134517149	134517147
134517150	134517147
134517151	134517147
134517152	134517152
134517153	134517152
134517155	134517152
134517158	134517152
134517163	134517163
134517166	134517163
134517167	134517163
134517168	134517168
134517172	134517168
134517174	134517168
134517175	134517168
134517177	134517168
134517180	134517168
134517181	134517168
134517182	134517168
134517183	134517168
134517188	134517188
134517194	134517188
134517200	134517188
134517201	134517188
134517207	134517188
134517208	134517188
134517209	134517188
134517210	134517188
134517216	134517188
134517217	134517188
134517222	134517222
134517223	134517223
134517226	134517223
134517227	134517227
134517229	134517227
134517231	134517227
134517232	134517232
134517236	134517232
134517237	134517237
134517239	134517237
134517241	134517237
134517243	134517237
134517245	134517237
134517247	134517237
134517248	134517248
134517251	134517248
134517264	134517264
134517269	134517264
134517274	134517264
134517276	134517276
134517281	134517276
134517283	134517276
134517285	134517285
134517286	134517285
134517288	134517285
134517291	134517285
134517296	134517285
134517298	134517298
134517301	134517298
134517302	134517298
134517303	134517303
134517310	134517303
134517312	134517312
134517313	134517313
134517320	134517313
134517327	134517313
134517328	134517328
134517333	134517328
134517338	134517328
134517340	134517328
134517343	134517328
134517346	134517328
134517348	134517328
134517350	134517328
134517352	134517352
134517357	134517352
134517359	134517352
134517361	134517361
134517362	134517361
134517364	134517361
134517367	134517361
134517368	134517361
134517373	134517361
134517375	134517375
134517378	134517375
134517379	134517375
134517380	134517380
134517384	134517384
134517385	134517385
134517392	134517392
134517396	134517392
134517403	134517392
134517405	134517405
134517406	134517405
134517408	134517405
134517411	134517405
134517416	134517416
134517423	134517416
134517424	134517416
134517425	134517425
134517432	134517432
134517433	134517433
134517440	134517440
134517444	134517440
134517456	134517456
134517457	134517456
134517459	134517456
134517460	134517456
134517463	134517456
134517470	134517456
134517477	134517477
134517481	134517477
134517487	134517487
134517493	134517487
134517496	134517487
134517502	134517487
134517506	134517487
134517511	134517511
134517514	134517511
134517520	134517511
134517523	134517511
134517527	134517511
134517532	134517532
134517535	134517532
134517541	134517532
134517545	134517532
134517550	134517550
134517553	134517550
134517556	134517550
134517559	134517550
134517564	134517564
134517566	134517564
134517572	134517564
134517577	134517577
134517579	134517577
134517581	134517581
134517583	134517581
134517585	134517581
134517592	134517581
134517599	134517581
134517602	134517581
134517605	134517581
134517610	134517610
134517615	134517615
134517618	134517615
134517621	134517615
134517623	134517615
134517629	134517615
134517634	134517634
134517636	134517634
134517638	134517638
134517640	134517638
134517642	134517638
134517649	134517638
134517656	134517638
134517659	134517638
134517662	134517638
134517667	134517667
134517672	134517672
134517675	134517672
134517678	134517672
134517681	134517672
134517684	134517672
134517687	134517672
134517689	134517672
134517691	134517672
134517693	134517672
134517695	134517672
134517697	134517697
134517700	134517697
134517703	134517697
134517706	134517697
134517708	134517697
134517710	134517697
134517712	134517697
134517714	134517697
134517717	134517697
134517719	134517719
134517721	134517719
134517727	134517719
134517730	134517719
134517735	134517735
134517741	134517735
134517743	134517743
134517745	134517743
134517748	134517743
134517753	134517753
134517755	134517753
134517758	134517753
134517760	134517753
134517767	134517753
134517774	134517753
134517779	134517779
134517782	134517782
134517787	134517787
134517790	134517787
134517793	134517787
134517796	134517787
134517799	134517799
134517804	134517804
134517809	134517809
134517812	134517809
134517815	134517815
134517818	134517815
134517821	134517821
134517826	134517826
134517831	134517831
134517834	134517831
134517837	134517831
134517840	134517831
134517845	134517831
134517847	134517847
134517850	134517847
134517856	134517856
134517859	134517856
134517861	134517861
134517863	134517861
134517868	134517868
134517871	134517871
134517873	134517871
134517880	134517871
134517886	134517871
134517891	134517891
134517894	134517891
134517899	134517899
134517901	134517899
134517904	134517899
134517906	134517899
134517913	134517899
134517918	134517918
134517923	134517923
134517926	134517923
134517928	134517923
134517931	134517923
134517933	134517923
134517935	134517923
134517937	134517937
134517939	134517937
134517942	134517937
134517948	134517937
134517953	134517953
134517956	134517953
134517961	134517961
134517963	134517961
134517966	134517961
134517968	134517961
134517975	134517961
134517980	134517980
134517985	134517985
134517990	134517990
134517992	134517990
134517995	134517990
134517996	134517990
134517997	134517990
134517998	134517998
134518003	134517998
134518006	134517998
134518008	134517998
134518014	134518014
134518017	134518014
134518020	134518014
134518025	134518025
134518028	134518025
134518033	134518033
134518038	134518038
134518041	134518038
134518044	134518044
134518049	134518049
134518054	134518054
134518059	134518059
134518062	134518059
134518065	134518059
134518070	134518070
134518073	134518070
134518076	134518070
134518081	134518081
134518083	134518081
134518085	134518081
134518087	134518081
134518089	134518081
134518091	134518081
134518093	134518081
134518095	134518081
134518096	134518096
134518097	134518096
134518099	134518096
134518100	134518096
134518101	134518096
134518102	134518096
134518105	134518096
134518108	134518096
134518111	134518096
134518114	134518096
134518117	134518096
134518119	134518096
134518122	134518096
134518125	134518125
134518128	134518125
134518131	134518125
134518135	134518125
134518139	134518125
134518142	134518125
134518145	134518125
134518148	134518125
134518153	134518153
134518159	134518153
134518162	134518153
134518165	134518153
134518167	134518153
134518174	134518153
134518177	134518153
134518178	134518153
134518179	134518153
134518180	134518153
134518181	134518153
134518182	134518182
134518184	134518182
134518186	134518182
134518188	134518182
134518190	134518182
134518192	134518192
134518193	134518192
134518195	134518192
134518196	134518192
134518197	134518192
134518198	134518192
134518201	134518192
134518204	134518192
134518207	134518192
134518210	134518192
134518213	134518192
134518215	134518192
134518218	134518192
134518221	134518221
134518224	134518221
134518227	134518221
134518231	134518221
134518235	134518221
134518238	134518221
134518241	134518221
134518244	134518221
134518249	134518249
134518255	134518249
134518258	134518249
134518261	134518249
134518263	134518249
134518266	134518249
134518267	134518249
134518268	134518249
134518269	134518249
134518270	134518249
134518272	134518272
134518273	134518272
134518275	134518272
134518278	134518272
134518281	134518272
134518284	134518272
134518286	134518272
134518289	134518272
134518292	134518272
134518295	134518272
134518300	134518300
134518306	134518300
134518309	134518300
134518312	134518300
134518314	134518300
134518317	134518300
134518318	134518300
134518320	134518320
134518321	134518320
134518323	134518320
134518326	134518320
134518329	134518320
134518332	134518320
134518335	134518320
134518338	134518320
134518343	134518343
134518346	134518343
134518347	134518343
134518352	134518352
134518355	134518352
134518359	134518352
134518362	134518352
134518367	134518367
134518371	134518367
134518376	134518376
134518378	134518376
134518380	134518376
134518382	134518376
134518384	134518384
134518385	134518384
134518387	134518384
134518388	134518384
134518389	134518384
134518392	134518384
134518395	134518384
134518398	134518384
134518404	134518384
134518407	134518384
134518410	134518384
134518412	134518384
134518415	134518384
134518418	134518418
134518421	134518418
134518424	134518418
134518425	134518418
134518426	134518418
134518427	134518427
134518432	134518432
134518433	134518432
134518435	134518432
134518438	134518432
134518441	134518432
134518444	134518432
134518450	134518432
134518453	134518432
134518459	134518432
134518463	134518432
134518466	134518432
134518469	134518432
134518474	134518474
134518477	134518474
134518483	134518474
134518487	134518474
134518492	134518492
134518495	134518492
134518498	134518492
134518502	134518492
134518505	134518492
134518507	134518492
134518510	134518492
134518511	134518492
134518512	134518512
134518513	134518512
134518515	134518512
134518516	134518512
134518519	134518512
134518521	134518512
134518524	134518512
134518526	134518512
134518529	134518512
134518530	134518512
134518544	134518544
134518545	134518544
134518547	134518544
134518548	134518544
134518551	134518544
134518554	134518544
134518557	134518544
134518563	134518544
134518566	134518544
134518572	134518544
134518576	134518544
134518579	134518544
134518582	134518544
134518587	134518587
134518590	134518587
134518596	134518587
134518600	134518587
134518605	134518605
134518608	134518605
134518611	134518605
134518615	134518605
134518618	134518605
134518620	134518605
134518621	134518605
134518626	134518605
134518628	134518605
134518631	134518605
134518632	134518605
134518633	134518605
134518634	134518634
134518636	134518634
134518638	134518634
134518640	134518640
134518641	134518640
134518643	134518640
134518646	134518640
134518652	134518640
134518655	134518640
134518658	134518640
134518660	134518660
134518661	134518660
134518672	134518672
134518673	134518672
134518675	134518672
134518678	134518672
134518681	134518672
134518684	134518672
134518687	134518672
134518690	134518672
134518693	134518672
134518698	134518698
134518701	134518698
134518704	134518698
134518709	134518709
134518712	134518709
134518713	134518709
134518720	134518720
134518721	134518721
134518723	134518721
134518724	134518721
134518727	134518721
134518733	134518721
134518736	134518721
134518738	134518721
134518741	134518721
134518742	134518721
134518752	134518752
134518756	134518752
134518757	134518752
134518762	134518762
134518768	134518762
134518769	134518762
134518770	134518762
134518771	134518762
134518774	134518762
134518776	134518762
134518780	134518762
134518785	134518785
134518791	134518785
134518797	134518785
134518799	134518785
134518802	134518785
134518804	134518804
134518806	134518804
134518813	134518804
134518816	134518816
134518819	134518816
134518820	134518816
134518824	134518816
134518828	134518816
134518835	134518835
134518838	134518835
134518841	134518835
134518843	134518835
134518845	134518845
134518848	134518845
134518849	134518845
134518850	134518845
134518851	134518845
134518852	134518845
134518853	134518853
134518860	134518853
134518864	134518864
134518868	134518864
134518869	134518869
134518872	134518869
134518876	134518876
134518880	134518876
134518881	134518876
134518884	134518876
134518889	134518889
134518895	134518889
134518898	134518889
134518899	134518889
