134529029	134529028
134529030	134529028
134529031	134529028
134529032	134529028
134529033	134529028
134529034	134529028
134529035	134529028
134529036	134529028
134529037	134529036
134529038	134529036
134529039	134529036
134529040	134529036
134529041	134529040
134529042	134529040
134529043	134529040
134529044	134529040
134529045	134529044
134529046	134529044
134529047	134529044
134529048	134529044
134529049	134529048
134529050	134529048
134529051	134529048
134529052	134529048
134529053	134529052
134529054	134529052
134529055	134529052
134529056	134529052
134529057	134529056
134529058	134529056
134529059	134529056
134529060	134529056
134529061	134529060
134529062	134529060
134529063	134529060
134529064	134529060
134529065	134529064
134529066	134529064
134529067	134529064
134529068	134529064
134529069	134529068
134529070	134529068
134529071	134529068
134529072	134529068
134529073	134529072
134529074	134529072
134529075	134529072
134529076	134529072
134529077	134529076
134529078	134529076
134529079	134529076
134529080	134529076
134529081	134529080
134529082	134529080
134529083	134529080
134529084	134529080
134529085	134529084
134529086	134529084
134529087	134529084
134529088	134529084
134529089	134529088
134529090	134529088
134529091	134529088
134529092	134529088
134529093	134529092
134529094	134529092
134529095	134529092
134529096	134529092
134529097	134529096
134529098	134529096
134529099	134529096
134529100	134529096
134529101	134529100
134529102	134529100
134529103	134529100
134529104	134529100
134529105	134529104
134529106	134529104
134529107	134529104
134529108	134529104
134529109	134529104
134529110	134529104
134529111	134529104
134529112	134529104
134529113	134529104
134529114	134529104
134529115	134529104
