134516738	134516739
134516736	134516740
134516739	134516740
134516740	134516741
134516742	134516743
134516741	134516744
134516743	134516745
134516745	134516748
134516746	134516748
134516747	134516749
134516751	134516753
134516752	134516753
134516748	134516754
134516749	134516755
134516753	134516755
134516757	134516758
134516756	134516759
134516754	134516760
134516755	134516761
134516761	134516763
134516760	134516766
134516764	134516766
134516762	134516767
134516767	134516770
134516768	134516770
134516770	134516771
134516766	134516772
134516769	134516772
134516786	134516788
134516784	134516790
134516785	134516790
134516788	134516790
134516787	134516791
134516789	134516791
134516792	134516794
134516791	134516796
134516794	134516796
134516793	134516797
134516795	134516797
134516796	134516798
134516797	134516799
134516798	134516800
134516799	134516801
134516802	134516804
134516801	134516806
134516804	134516806
134516803	134516807
134516805	134516808
134516807	134516809
134516808	134516810
134516806	134516811
134516809	134516811
134516810	134516812
134516818	134516820
134516817	134516822
134516820	134516822
134516819	134516823
134516821	134516824
134516823	134516825
134516824	134516826
134516822	134516827
134516825	134516827
134516826	134516828
134516828	134516830
134516834	134516836
134516833	134516838
134516836	134516838
134516835	134516839
134516837	134516840
134516839	134516841
134516840	134516842
134516838	134516843
134516841	134516843
134516842	134516844
134516844	134516847
134516850	134516852
134516849	134516854
134516852	134516854
134516851	134516855
134516853	134516856
134516855	134516857
134516856	134516858
134516854	134516859
134516857	134516859
134516858	134516860
134516860	134516862
134516866	134516868
134516865	134516870
134516868	134516870
134516867	134516871
134516869	134516872
134516871	134516873
134516872	134516874
134516870	134516875
134516873	134516875
134516874	134516876
134516876	134516881
134516882	134516884
134516881	134516886
134516884	134516886
134516883	134516887
134516885	134516888
134516887	134516889
134516888	134516890
134516886	134516891
134516889	134516891
134516890	134516892
134516892	134516893
134516898	134516900
134516897	134516902
134516900	134516902
134516899	134516903
134516901	134516904
134516903	134516905
134516904	134516906
134516902	134516907
134516905	134516907
134516906	134516908
134516908	134516911
134516914	134516916
134516913	134516918
134516916	134516918
134516915	134516919
134516917	134516920
134516919	134516921
134516920	134516922
134516918	134516923
134516921	134516923
134516922	134516924
134516930	134516932
134516929	134516934
134516932	134516934
134516931	134516935
134516933	134516936
134516935	134516936
134516936	134516938
134516934	134516939
134516937	134516939
134516938	134516940
134516940	134516941
134516946	134516948
134516945	134516950
134516948	134516950
134516947	134516951
134516949	134516952
134516951	134516952
134516952	134516954
134516950	134516955
134516953	134516955
134516954	134516956
134516956	134516957
134516962	134516964
134516961	134516966
134516964	134516966
134516963	134516967
134516965	134516968
134516967	134516968
134516968	134516970
134516966	134516971
134516969	134516971
134516970	134516972
134516972	134516973
134516978	134516980
134516977	134516982
134516980	134516982
134516979	134516983
134516981	134516984
134516983	134516984
134516984	134516986
134516982	134516987
134516985	134516987
134516986	134516988
134516988	134516990
134516994	134516996
134516993	134516998
134516996	134516998
134516995	134516999
134516997	134517000
134516999	134517000
134517000	134517002
134516998	134517003
134517001	134517003
134517002	134517004
134517004	134517006
134517010	134517011
134517009	134517014
134517012	134517014
134517011	134517015
134517013	134517016
134517016	134517018
134517014	134517019
134517017	134517019
134517015	134517020
134517018	134517020
134517020	134517022
134517026	134517027
134517025	134517030
134517028	134517030
134517027	134517031
134517029	134517032
134517032	134517034
134517030	134517035
134517033	134517035
134517034	134517036
134517036	134517038
134517042	134517043
134517041	134517046
134517044	134517046
134517043	134517047
134517045	134517048
134517048	134517050
134517046	134517051
134517049	134517051
134517050	134517052
134517058	134517059
134517057	134517062
134517060	134517062
134517059	134517063
134517061	134517064
134517063	134517066
134517064	134517066
134517062	134517067
134517065	134517067
134517066	134517068
134517074	134517075
134517073	134517078
134517076	134517078
134517075	134517079
134517077	134517080
134517079	134517081
134517080	134517082
134517078	134517083
134517081	134517083
134517082	134517084
134517084	134517086
134517088	134517089
134517089	134517091
134517090	134517092
134517092	134517093
134517091	134517094
134517096	134517098
134517093	134517099
134517094	134517100
134517095	134517100
134517098	134517100
134517097	134517101
134517100	134517103
134517101	134517103
134517102	134517104
134517099	134517105
134517104	134517105
134517110	134517111
134517111	134517112
134517107	134517113
134517108	134517114
134517109	134517114
134517112	134517114
134517114	134517117
134517115	134517117
134517116	134517118
134517113	134517119
134517119	134517121
134517117	134517123
134517118	134517123
134517121	134517123
134517120	134517124
134517124	134517125
134517123	134517127
134517125	134517127
134517122	134517128
134517126	134517128
134517129	134517130
134517127	134517133
134517128	134517133
134517131	134517133
134517130	134517134
134517134	134517135
134517133	134517137
134517135	134517137
134517132	134517138
134517136	134517138
134517138	134517139
134517142	134517145
134517143	134517145
134517145	134517146
134517141	134517147
134517144	134517147
134517147	134517148
134517148	134517149
134517149	134517150
134517150	134517151
134517151	134517152
134517152	134517153
134517153	134517155
134517154	134517156
134517156	134517157
134517155	134517158
134517157	134517159
134517159	134517161
134517163	134517166
134517164	134517166
134517166	134517167
134517162	134517168
134517165	134517168
134517170	134517171
134517168	134517172
134517171	134517172
134517172	134517174
134517173	134517174
134517174	134517175
134517175	134517177
134517177	134517180
134517178	134517180
134517180	134517181
134517181	134517182
134517182	134517183
134517184	134517186
134517185	134517187
134517186	134517188
134517190	134517192
134517187	134517193
134517188	134517194
134517191	134517194
134517192	134517194
134517196	134517197
134517193	134517199
134517195	134517199
134517197	134517199
134517194	134517200
134517200	134517201
134517202	134517205
134517204	134517205
134517201	134517207
134517207	134517208
134517208	134517209
134517209	134517210
134517211	134517214
134517213	134517214
134517210	134517216
134517214	134517216
134517216	134517217
134517212	134517218
134517215	134517218
134517218	134517221
134517221	134517223
134517223	134517226
134517224	134517226
134517225	134517227
134517227	134517229
134517228	134517229
134517229	134517231
134517230	134517231
134517231	134517232
134517234	134517235
134517232	134517236
134517235	134517236
134517237	134517239
134517238	134517239
134517239	134517241
134517240	134517241
134517241	134517243
134517242	134517243
134517243	134517245
134517244	134517245
134517245	134517247
134517246	134517247
134517247	134517248
134517248	134517251
134517249	134517251
134517250	134517252
134517252	134517254
134517253	134517254
134517254	134517256
134517255	134517256
134517256	134517258
134517257	134517258
134517258	134517260
134517259	134517260
134517260	134517262
134517261	134517262
134517262	134517264
134517263	134517264
134517265	134517266
134517264	134517269
134517267	134517269
134517266	134517270
134517270	134517271
134517268	134517274
134517269	134517274
134517272	134517274
134517271	134517275
134517273	134517277
134517275	134517277
134517277	134517279
134517278	134517280
134517276	134517281
134517279	134517281
134517281	134517283
134517280	134517286
134517285	134517286
134517282	134517287
134517284	134517287
134517286	134517288
134517287	134517289
134517289	134517290
134517288	134517291
134517290	134517292
134517292	134517293
134517291	134517296
134517294	134517296
134517293	134517297
134517295	134517297
134517298	134517301
134517299	134517301
134517300	134517302
134517301	134517302
134517297	134517303
134517304	134517306
134517305	134517308
134517306	134517308
134517307	134517309
134517303	134517310
134517308	134517310
134517309	134517312
134517310	134517312
134517311	134517312
134517314	134517316
134517315	134517318
134517316	134517318
134517317	134517319
134517313	134517320
134517318	134517320
134517321	134517323
134517319	134517325
134517322	134517325
134517323	134517325
134517324	134517326
134517320	134517327
134517325	134517327
134517327	134517328
134517329	134517330
134517326	134517332
134517328	134517333
134517331	134517333
134517330	134517334
134517334	134517335
134517332	134517338
134517333	134517338
134517336	134517338
134517335	134517339
134517338	134517340
134517337	134517343
134517340	134517343
134517342	134517343
134517344	134517345
134517343	134517346
134517345	134517347
134517346	134517348
134517347	134517349
134517348	134517350
134517349	134517350
134517353	134517355
134517354	134517356
134517351	134517357
134517352	134517357
134517355	134517357
134517357	134517359
134517360	134517361
134517356	134517362
134517358	134517362
134517361	134517362
134517362	134517364
134517363	134517365
134517365	134517366
134517364	134517367
134517367	134517368
134517366	134517369
134517369	134517370
134517368	134517373
134517371	134517373
134517370	134517374
134517372	134517374
134517375	134517378
134517376	134517378
134517377	134517379
134517378	134517379
134517374	134517380
134517380	134517384
134517382	134517385
134517383	134517385
134517386	134517388
134517387	134517390
134517388	134517390
134517389	134517391
134517385	134517392
134517390	134517392
134517391	134517393
134517394	134517395
134517392	134517396
134517395	134517396
134517398	134517400
134517397	134517402
134517400	134517402
134517396	134517403
134517399	134517403
134517401	134517403
134517402	134517405
134517405	134517406
134517404	134517407
134517406	134517408
134517407	134517409
134517409	134517410
134517408	134517411
134517410	134517412
134517412	134517417
134517415	134517417
134517418	134517420
134517417	134517422
134517420	134517422
134517416	134517423
134517419	134517423
134517421	134517423
134517422	134517424
134517423	134517424
134517426	134517428
134517427	134517430
134517428	134517430
134517429	134517431
134517425	134517432
134517430	134517432
134517431	134517433
134517434	134517436
134517435	134517438
134517436	134517438
134517437	134517439
134517433	134517440
134517438	134517440
134517439	134517441
134517442	134517443
134517440	134517444
134517443	134517444
134517445	134517448
134517446	134517448
134517447	134517448
134517448	134517450
134517449	134517450
134517450	134517452
134517451	134517452
134517452	134517454
134517453	134517454
134517454	134517456
134517455	134517456
134517456	134517457
134517457	134517459
134517458	134517460
134517459	134517460
134517461	134517462
134517460	134517463
134517464	134517465
134517465	134517466
134517466	134517468
134517467	134517469
134517462	134517470
134517463	134517470
134517468	134517470
134517469	134517471
134517471	134517472
134517473	134517475
134517474	134517476
134517470	134517477
134517475	134517477
134517477	134517481
134517476	134517482
134517480	134517482
134517483	134517484
134517482	134517485
134517484	134517486
134517485	134517487
134517486	134517492
134517489	134517492
134517487	134517493
134517488	134517493
134517491	134517493
134517490	134517494
134517493	134517496
134517494	134517496
134517495	134517497
134517492	134517498
134517496	134517502
134517497	134517502
134517500	134517502
134517498	134517504
134517499	134517504
134517503	134517504
134517502	134517506
134517504	134517506
134517501	134517507
134517505	134517507
134517508	134517509
134517507	134517512
134517512	134517513
134517511	134517514
134517510	134517516
134517516	134517518
134517514	134517520
134517515	134517520
134517518	134517520
134517517	134517521
134517520	134517523
134517521	134517523
134517522	134517524
134517519	134517525
134517524	134517525
134517523	134517527
134517525	134517527
134517526	134517528
134517528	134517530
134517532	134517535
134517533	134517535
134517534	134517536
134517531	134517537
134517538	134517539
134517535	134517541
134517536	134517541
134517539	134517541
134517542	134517543
134517541	134517545
134517543	134517545
134517540	134517546
134517544	134517546
134517547	134517548
134517546	134517551
134517551	134517552
134517550	134517553
134517549	134517555
134517553	134517556
134517554	134517557
134517557	134517558
134517556	134517559
134517555	134517561
134517560	134517565
134517564	134517566
134517563	134517569
134517567	134517569
134517568	134517570
134517569	134517571
134517566	134517572
134517570	134517572
134517571	134517573
134517573	134517575
134517574	134517575
134517577	134517579
134517579	134517581
134517576	134517582
134517581	134517583
134517582	134517584
134517578	134517585
134517583	134517585
134517584	134517585
134517586	134517587
134517587	134517589
134517588	134517589
134517589	134517591
134517585	134517592
134517590	134517592
134517591	134517593
134517593	134517594
134517594	134517596
134517595	134517597
134517596	134517598
134517592	134517599
134517597	134517599
134517600	134517601
134517599	134517602
134517601	134517603
134517598	134517604
134517603	134517604
134517602	134517605
134517604	134517606
134517606	134517608
134517607	134517609
134517608	134517610
134517609	134517611
134517611	134517613
134517612	134517614
134517613	134517615
134517616	134517617
134517615	134517618
134517614	134517620
134517619	134517620
134517618	134517621
134517620	134517621
134517617	134517623
134517621	134517623
134517624	134517627
134517625	134517627
134517626	134517628
134517623	134517629
134517627	134517629
134517628	134517630
134517631	134517632
134517630	134517635
134517634	134517636
134517636	134517638
134517633	134517639
134517638	134517640
134517639	134517641
134517635	134517642
134517640	134517642
134517641	134517642
134517643	134517644
134517646	134517648
134517642	134517649
134517647	134517649
134517644	134517650
134517645	134517650
134517648	134517650
134517650	134517651
134517651	134517653
134517652	134517654
134517653	134517655
134517649	134517656
134517654	134517656
134517657	134517658
134517656	134517659
134517655	134517661
134517660	134517661
134517659	134517662
134517661	134517665
134517664	134517666
134517665	134517667
134517663	134517668
134517666	134517668
134517668	134517670
134517669	134517671
134517670	134517672
134517673	134517674
134517672	134517675
134517671	134517677
134517676	134517677
134517674	134517678
134517675	134517678
134517679	134517680
134517678	134517681
134517680	134517681
134517682	134517683
134517681	134517684
134517685	134517686
134517684	134517687
134517687	134517689
134517689	134517691
134517691	134517693
134517688	134517694
134517692	134517694
134517693	134517695
134517694	134517695
134517690	134517696
134517698	134517699
134517697	134517700
134517696	134517702
134517701	134517702
134517700	134517703
134517704	134517705
134517703	134517706
134517706	134517708
134517708	134517710
134517710	134517712
134517707	134517713
134517711	134517713
134517712	134517714
134517713	134517714
134517709	134517715
134517715	134517716
134517714	134517717
134517719	134517721
134517718	134517724
134517722	134517725
134517723	134517725
134517724	134517726
134517721	134517727
134517725	134517727
134517728	134517729
134517727	134517730
134517726	134517732
134517729	134517732
134517731	134517732
134517732	134517733
134517734	134517736
134517736	134517738
134517737	134517739
134517738	134517740
134517735	134517741
134517739	134517741
134517741	134517743
134517743	134517745
134517740	134517746
134517746	134517747
134517745	134517748
134517744	134517750
134517749	134517750
134517747	134517752
134517750	134517752
134517751	134517753
134517753	134517755
134517756	134517757
134517752	134517758
134517755	134517758
134517758	134517760
134517759	134517761
134517757	134517762
134517761	134517762
134517762	134517764
134517764	134517765
134517760	134517767
134517765	134517767
134517766	134517768
134517763	134517769
134517768	134517769
134517769	134517771
134517767	134517774
134517772	134517774
134517773	134517775
134517771	134517776
134517775	134517776
134517776	134517777
134517780	134517781
134517779	134517782
134517781	134517783
134517778	134517784
134517783	134517786
134517784	134517786
134517785	134517787
134517788	134517789
134517787	134517790
134517786	134517792
134517791	134517792
134517790	134517793
134517792	134517794
134517794	134517795
134517793	134517796
134517795	134517797
134517796	134517799
134517797	134517799
134517798	134517800
134517801	134517802
134517805	134517806
134517806	134517808
134517807	134517809
134517810	134517811
134517809	134517812
134517808	134517814
134517813	134517814
134517812	134517815
134517814	134517816
134517816	134517817
134517815	134517818
134517818	134517821
134517819	134517821
134517820	134517822
134517822	134517823
134517823	134517824
134517827	134517829
134517828	134517830
134517829	134517831
134517832	134517833
134517831	134517834
134517830	134517836
134517835	134517836
134517834	134517837
134517836	134517838
134517838	134517839
134517837	134517840
134517839	134517841
134517841	134517843
134517842	134517844
134517840	134517845
134517843	134517845
134517844	134517846
134517845	134517847
134517848	134517849
134517846	134517850
134517847	134517850
134517849	134517854
134517852	134517854
134517853	134517855
134517854	134517856
134517851	134517857
134517857	134517858
134517856	134517859
134517855	134517861
134517859	134517861
134517861	134517863
134517862	134517864
134517865	134517866
134517869	134517870
134517868	134517871
134517867	134517873
134517871	134517873
134517874	134517875
134517870	134517876
134517875	134517877
134517873	134517880
134517878	134517880
134517879	134517881
134517876	134517882
134517877	134517882
134517882	134517885
134517880	134517886
134517884	134517886
134517881	134517887
134517883	134517887
134517885	134517887
134517888	134517889
134517887	134517892
134517892	134517893
134517891	134517894
134517893	134517895
134517890	134517896
134517895	134517897
134517896	134517898
134517897	134517899
134517899	134517901
134517902	134517903
134517898	134517904
134517901	134517904
134517903	134517905
134517904	134517906
134517905	134517907
134517907	134517908
134517908	134517910
134517910	134517911
134517906	134517913
134517911	134517913
134517912	134517914
134517914	134517916
134517915	134517916
134517919	134517921
134517920	134517922
134517921	134517923
134517924	134517925
134517923	134517926
134517922	134517928
134517926	134517928
134517929	134517930
134517925	134517931
134517928	134517931
134517927	134517933
134517931	134517933
134517933	134517935
134517930	134517936
134517934	134517936
134517937	134517939
134517940	134517941
134517936	134517942
134517939	134517942
134517941	134517943
134517944	134517947
134517942	134517948
134517946	134517948
134517943	134517949
134517945	134517949
134517947	134517949
134517950	134517951
134517954	134517955
134517953	134517956
134517955	134517957
134517952	134517958
134517957	134517959
134517958	134517960
134517959	134517961
134517961	134517963
134517964	134517965
134517960	134517966
134517963	134517966
134517965	134517967
134517966	134517968
134517967	134517969
134517969	134517970
134517970	134517972
134517972	134517973
134517968	134517975
134517973	134517975
134517974	134517976
134517977	134517978
134517981	134517983
134517982	134517984
134517983	134517985
134517984	134517986
134517986	134517988
134517987	134517988
134517989	134517991
134517990	134517992
134517992	134517995
134517994	134517996
134517995	134517996
134517993	134517997
134517996	134517997
134517991	134517998
134517999	134518001
134518000	134518002
134517998	134518003
134518001	134518003
134518004	134518005
134518003	134518006
134518002	134518008
134518006	134518008
134518005	134518010
134518007	134518010
134518011	134518013
134518012	134518014
134518009	134518015
134518010	134518015
134518015	134518016
134518014	134518017
134518013	134518019
134518017	134518020
134518018	134518020
134518019	134518021
134518021	134518022
134518022	134518023
134518026	134518027
134518025	134518028
134518027	134518029
134518024	134518030
134518030	134518031
134518034	134518036
134518039	134518040
134518038	134518041
134518037	134518043
134518042	134518043
134518041	134518044
134518043	134518045
134518045	134518046
134518046	134518047
134518050	134518052
134518051	134518053
134518052	134518054
134518053	134518055
134518055	134518057
134518056	134518058
134518057	134518059
134518060	134518061
134518059	134518062
134518058	134518064
134518062	134518065
134518063	134518065
134518064	134518066
134518066	134518067
134518067	134518068
134518070	134518073
134518071	134518073
134518072	134518074
134518069	134518075
134518074	134518075
134518073	134518076
134518075	134518076
134518077	134518080
134518078	134518080
134518079	134518081
134518080	134518083
134518081	134518083
134518082	134518083
134518083	134518085
134518084	134518085
134518085	134518087
134518086	134518087
134518087	134518089
134518088	134518089
134518089	134518091
134518090	134518091
134518091	134518093
134518092	134518093
134518093	134518095
134518094	134518095
134518095	134518096
134518096	134518097
134518097	134518099
134518098	134518100
134518099	134518100
134518100	134518101
134518101	134518102
134518103	134518104
134518102	134518105
134518104	134518106
134518106	134518107
134518105	134518108
134518109	134518110
134518108	134518111
134518110	134518112
134518107	134518113
134518112	134518113
134518111	134518114
134518114	134518117
134518113	134518119
134518117	134518119
134518120	134518121
134518116	134518122
134518119	134518122
134518121	134518123
134518123	134518124
134518122	134518125
134518126	134518127
134518118	134518128
134518125	134518128
134518128	134518131
134518129	134518131
134518130	134518132
134518127	134518133
134518132	134518133
134518131	134518135
134518133	134518135
134518134	134518136
134518136	134518137
134518135	134518139
134518137	134518139
134518140	134518141
134518139	134518142
134518141	134518142
134518138	134518144
134518143	134518144
134518142	134518145
134518145	134518148
134518147	134518149
134518149	134518151
134518150	134518152
134518151	134518153
134518152	134518158
134518153	134518159
134518154	134518159
134518157	134518159
134518156	134518161
134518159	134518162
134518160	134518163
134518158	134518164
134518163	134518164
134518162	134518165
134518164	134518166
134518161	134518167
134518165	134518167
134518166	134518168
134518168	134518169
134518169	134518171
134518170	134518172
134518171	134518173
134518167	134518174
134518172	134518174
134518174	134518177
134518175	134518178
134518176	134518178
134518177	134518178
134518173	134518179
134518178	134518179
134518179	134518180
134518180	134518181
134518182	134518184
134518183	134518184
134518184	134518186
134518185	134518186
134518186	134518188
134518187	134518188
134518188	134518190
134518189	134518190
134518190	134518192
134518191	134518192
134518192	134518193
134518193	134518195
134518194	134518196
134518195	134518196
134518196	134518197
134518197	134518198
134518199	134518200
134518198	134518201
134518200	134518202
134518202	134518203
134518201	134518204
134518205	134518206
134518204	134518207
134518206	134518208
134518203	134518209
134518208	134518209
134518207	134518210
134518210	134518213
134518209	134518215
134518213	134518215
134518216	134518217
134518212	134518218
134518215	134518218
134518217	134518219
134518219	134518220
134518218	134518221
134518222	134518223
134518214	134518224
134518221	134518224
134518224	134518227
134518225	134518227
134518226	134518228
134518223	134518229
134518228	134518229
134518227	134518231
134518229	134518231
134518230	134518232
134518232	134518233
134518231	134518235
134518233	134518235
134518236	134518237
134518235	134518238
134518237	134518238
134518234	134518240
134518239	134518240
134518238	134518241
134518241	134518244
134518243	134518245
134518245	134518247
134518246	134518248
134518247	134518249
134518248	134518254
134518249	134518255
134518250	134518255
134518253	134518255
134518251	134518256
134518252	134518257
134518255	134518258
134518256	134518259
134518254	134518260
134518259	134518260
134518258	134518261
134518260	134518262
134518257	134518263
134518261	134518263
134518263	134518266
134518264	134518267
134518265	134518267
134518266	134518267
134518262	134518268
134518267	134518268
134518268	134518269
134518269	134518270
134518271	134518272
134518272	134518273
134518273	134518275
134518274	134518276
134518276	134518277
134518275	134518278
134518279	134518280
134518278	134518281
134518277	134518283
134518282	134518283
134518281	134518284
134518280	134518286
134518284	134518286
134518285	134518288
134518283	134518289
134518286	134518289
134518287	134518289
134518288	134518290
134518290	134518291
134518289	134518292
134518291	134518292
134518293	134518294
134518292	134518295
134518294	134518295
134518296	134518297
134518297	134518299
134518298	134518300
134518299	134518305
134518300	134518306
134518301	134518306
134518304	134518306
134518303	134518308
134518306	134518309
134518307	134518310
134518305	134518311
134518310	134518311
134518309	134518312
134518311	134518312
134518308	134518314
134518312	134518314
134518314	134518317
134518315	134518317
134518317	134518318
134518313	134518319
134518316	134518319
134518319	134518320
134518320	134518321
134518321	134518323
134518322	134518324
134518324	134518325
134518323	134518326
134518327	134518328
134518326	134518329
134518325	134518331
134518330	134518331
134518329	134518332
134518328	134518334
134518332	134518335
134518333	134518335
134518334	134518336
134518331	134518337
134518336	134518337
134518335	134518338
134518337	134518338
134518339	134518340
134518340	134518341
134518343	134518346
134518344	134518346
134518346	134518347
134518342	134518348
134518345	134518348
134518348	134518350
134518349	134518350
134518350	134518352
134518351	134518352
134518353	134518354
134518352	134518355
134518354	134518356
134518356	134518357
134518355	134518359
134518357	134518359
134518359	134518362
134518360	134518362
134518361	134518363
134518358	134518364
134518363	134518365
134518364	134518365
134518368	134518369
134518367	134518371
134518369	134518371
134518366	134518372
134518370	134518372
134518373	134518374
134518376	134518378
134518377	134518378
134518378	134518380
134518379	134518380
134518380	134518382
134518381	134518382
134518382	134518384
134518383	134518384
134518384	134518385
134518385	134518387
134518386	134518388
134518387	134518388
134518388	134518389
134518390	134518391
134518389	134518392
134518393	134518394
134518392	134518395
134518394	134518396
134518391	134518397
134518396	134518397
134518395	134518398
134518400	134518402
134518397	134518403
134518398	134518404
134518399	134518404
134518402	134518404
134518401	134518406
134518404	134518407
134518403	134518409
134518407	134518410
134518406	134518412
134518410	134518412
134518411	134518412
134518409	134518415
134518412	134518415
134518414	134518416
134518415	134518418
134518417	134518419
134518418	134518421
134518421	134518424
134518424	134518425
134518420	134518426
134518423	134518426
134518425	134518426
134518426	134518427
134518428	134518430
134518429	134518430
134518430	134518432
134518431	134518432
134518432	134518433
134518433	134518435
134518434	134518436
134518436	134518437
134518435	134518438
134518439	134518440
134518438	134518441
134518437	134518443
134518442	134518443
134518441	134518444
134518440	134518446
134518443	134518449
134518446	134518449
134518444	134518450
134518445	134518450
134518448	134518450
134518447	134518451
134518450	134518453
134518451	134518453
134518452	134518454
134518449	134518455
134518453	134518459
134518454	134518459
134518457	134518459
134518455	134518461
134518456	134518461
134518460	134518461
134518459	134518463
134518461	134518463
134518458	134518464
134518462	134518464
134518464	134518465
134518463	134518466
134518465	134518466
134518467	134518468
134518466	134518469
134518468	134518469
134518470	134518472
134518471	134518472
134518474	134518477
134518475	134518477
134518476	134518478
134518473	134518479
134518480	134518481
134518477	134518483
134518478	134518483
134518481	134518483
134518484	134518485
134518483	134518487
134518485	134518487
134518482	134518488
134518486	134518488
134518489	134518490
134518493	134518494
134518492	134518495
134518494	134518495
134518491	134518497
134518496	134518497
134518495	134518498
134518497	134518499
134518499	134518500
134518500	134518501
134518498	134518502
134518503	134518504
134518502	134518505
134518501	134518507
134518505	134518507
134518507	134518510
134518508	134518510
134518510	134518511
134518506	134518512
134518509	134518512
134518512	134518513
134518513	134518515
134518514	134518516
134518515	134518516
134518517	134518518
134518516	134518519
134518518	134518520
134518519	134518521
134518520	134518521
134518522	134518523
134518521	134518524
134518523	134518524
134518524	134518526
134518525	134518529
134518526	134518529
134518528	134518530
134518529	134518530
134518531	134518533
134518532	134518533
134518527	134518534
134518533	134518535
134518534	134518535
134518535	134518537
134518536	134518537
134518537	134518539
134518538	134518539
134518539	134518541
134518540	134518541
134518541	134518543
134518542	134518543
134518543	134518544
134518544	134518545
134518545	134518547
134518546	134518548
134518547	134518548
134518549	134518550
134518548	134518551
134518550	134518552
134518552	134518553
134518551	134518554
134518555	134518556
134518554	134518557
134518553	134518559
134518556	134518562
134518559	134518562
134518557	134518563
134518558	134518563
134518561	134518563
134518560	134518564
134518563	134518566
134518564	134518566
134518565	134518567
134518562	134518568
134518566	134518572
134518567	134518572
134518570	134518572
134518568	134518573
134518569	134518574
134518573	134518574
134518572	134518576
134518574	134518576
134518571	134518577
134518575	134518577
134518577	134518578
134518576	134518579
134518578	134518579
134518580	134518581
134518579	134518582
134518583	134518585
134518584	134518585
134518587	134518590
134518588	134518590
134518589	134518591
134518586	134518592
134518593	134518594
134518590	134518596
134518591	134518596
134518594	134518596
134518597	134518598
134518596	134518600
134518598	134518600
134518595	134518601
134518599	134518601
134518602	134518603
134518601	134518604
134518606	134518607
134518605	134518608
134518604	134518610
134518609	134518610
134518608	134518611
134518610	134518612
134518612	134518613
134518613	134518614
134518611	134518615
134518616	134518617
134518615	134518618
134518614	134518620
134518618	134518620
134518620	134518621
134518622	134518624
134518619	134518625
134518623	134518625
134518621	134518626
134518624	134518626
134518625	134518627
134518626	134518628
134518628	134518631
134518629	134518632
134518630	134518632
134518631	134518632
134518627	134518633
134518632	134518633
134518634	134518636
134518635	134518636
134518636	134518638
134518637	134518638
134518638	134518640
134518639	134518640
134518640	134518641
134518641	134518643
134518642	134518644
134518644	134518645
134518643	134518646
134518648	134518649
134518645	134518651
134518646	134518652
134518647	134518652
134518650	134518652
134518649	134518654
134518652	134518655
134518653	134518656
134518651	134518657
134518656	134518657
134518655	134518658
134518654	134518660
134518658	134518660
134518660	134518661
134518659	134518662
134518657	134518663
134518662	134518664
134518663	134518664
134518664	134518666
134518665	134518666
134518666	134518668
134518667	134518668
134518668	134518670
134518669	134518670
134518670	134518672
134518671	134518672
134518672	134518673
134518673	134518675
134518674	134518676
134518676	134518677
134518675	134518678
134518679	134518680
134518678	134518681
134518677	134518683
134518682	134518683
134518681	134518684
134518680	134518686
134518684	134518687
134518685	134518687
134518686	134518688
134518683	134518689
134518688	134518689
134518687	134518690
134518689	134518690
134518691	134518692
134518690	134518693
134518692	134518693
134518694	134518696
134518699	134518700
134518698	134518701
134518700	134518701
134518697	134518703
134518701	134518704
134518702	134518704
134518703	134518705
134518706	134518707
134518709	134518712
134518710	134518712
134518712	134518713
134518708	134518714
134518711	134518714
134518714	134518716
134518715	134518716
134518716	134518718
134518717	134518718
134518718	134518720
134518719	134518720
134518720	134518721
134518721	134518723
134518722	134518724
134518723	134518724
134518725	134518726
134518724	134518727
134518729	134518730
134518726	134518732
134518727	134518733
134518728	134518733
134518731	134518733
134518730	134518735
134518734	134518735
134518733	134518736
134518735	134518736
134518732	134518738
134518736	134518738
134518737	134518741
134518738	134518741
134518740	134518742
134518741	134518742
134518743	134518745
134518744	134518745
134518739	134518746
134518745	134518747
134518746	134518747
134518747	134518749
134518748	134518749
134518749	134518751
134518750	134518751
134518751	134518752
134518754	134518755
134518752	134518756
134518755	134518756
134518756	134518757
134518758	134518761
134518759	134518761
134518760	134518762
134518763	134518765
134518764	134518765
134518761	134518767
134518765	134518767
134518762	134518768
134518766	134518768
134518768	134518769
134518767	134518770
134518769	134518770
134518770	134518771
134518772	134518773
134518771	134518774
134518773	134518775
134518774	134518776
134518776	134518780
134518778	134518780
134518779	134518781
134518781	134518783
134518782	134518784
134518786	134518787
134518784	134518790
134518785	134518791
134518790	134518796
134518792	134518796
134518791	134518797
134518797	134518799
134518800	134518801
134518799	134518802
134518801	134518805
134518803	134518805
134518804	134518806
134518807	134518809
134518808	134518811
134518809	134518811
134518805	134518812
134518810	134518812
134518806	134518813
134518811	134518813
134518813	134518816
134518812	134518818
134518817	134518818
134518816	134518819
134518818	134518820
134518819	134518820
134518815	134518821
134518820	134518824
134518822	134518824
134518823	134518825
134518824	134518828
134518826	134518828
134518827	134518829
134518829	134518830
134518830	134518832
134518835	134518838
134518836	134518839
134518834	134518840
134518838	134518841
134518839	134518841
134518840	134518842
134518837	134518843
134518841	134518843
134518845	134518848
134518846	134518849
134518847	134518849
134518848	134518849
134518849	134518850
134518850	134518851
134518851	134518852
134518854	134518856
134518855	134518858
134518856	134518858
134518857	134518859
134518853	134518860
134518858	134518860
134518860	134518864
134518859	134518865
134518862	134518865
134518863	134518865
134518866	134518867
134518864	134518868
134518867	134518868
134518869	134518872
134518870	134518872
134518871	134518873
134518878	134518879
134518876	134518880
134518879	134518880
134518880	134518881
134518882	134518883
134518881	134518884
134518883	134518885
134518885	134518886
134518886	134518887
134518891	134518892
134518892	134518893
134518888	134518894
134518889	134518895
134518893	134518895
134518895	134518898
134518896	134518898
134518898	134518899
134518894	134518900
134518897	134518900
