134513480	134513496
134513496	134513512
134513512	134513528
134513528	134513544
134513544	134513560
134513560	134513576
134513576	134513592
134513592	134513608
134514436	134514444
134514444	134514452
134514452	134514460
134514460	134514468
134514468	134514476
134514476	134514484
134514484	134514492
134514492	134514500
134514500	134514508
134514508	134514516
134514516	134514524
134514524	134514532
134514532	134514540
134514540	134514548
134514548	134514556
134514556	134514564
134514564	134514572
134514572	134514580
134514580	134514588
134514588	134514596
134514596	134514604
134514604	134514612
134514612	134514620
134516786	134516792
134516792	134516802
134517096	134517110
134517110	134517119
134517119	134517129
134517265	134517270
134517270	134517292
134517329	134517334
134517334	134517369
134517398	134517418
134517489	134517498
134517498	134517516
134517516	134517537
134517537	134517763
134517763	134517770
134517770	134517876
134517876	134517882
134517882	134517909
134517909	134517944
134517944	134517971
134518446	134518455
134518455	134518479
134518559	134518568
134518568	134518592
134520944	134520948
134520948	134520952
134520960	134520964
134520988	134520992
134520996	134521000
134521000	134521004
134521012	134521016
134521024	134521028
134521044	134521048
134521048	134521052
134521060	134521064
134521064	134521068
134521068	134521072
134521475	134521505
134521736	134521740
134528628	134528632
134528796	134528804
134528804	134528812
134528812	134528828
134528828	134528892
