.plt	304	134516784	1	6	16
.got	4	134529016	1	3	4
.got.plt	84	134529024	1	3	4
.eh_frame	468	134521184	1	2	4
.eh_frame_hdr	108	134521076	1	2	4
.gcc_except_table	92	134521652	1	2	4
.interp	19	134513044	1	2	1
.init	36	134516736	1	6	4
.text	1785	134517088	1	6	16
.fini	24	134518876	1	6	4
.rodata	244	134520832	1	2	4
.data.rel.ro	120	134528640	1	3	8
.data	8	134529108	1	3	4
.dynstr	633	134513620	3	2	1
.dynamic	256	134528760	6	3	4
.note.gnu.build-id	36	134513064	7	2	4
.note.ABI-tag	32	134513100	7	2	4
.bss	152	134529152	8	3	64
.rel.dyn	48	134514436	9	2	4
.rel.plt	144	134514484	9	66	4
.dynsym	416	134513204	11	2	4
.init_array	8	134528628	14	3	4
.fini_array	4	134528636	15	3	4
.gnu.hash	72	134513132	1879048182	2	4
.gnu.version_r	128	134514308	1879048190	2	4
.gnu.version	52	134514254	1879048191	2	2
