134521657	1	134517456	134517456	1
134521658	1	134517456	134517581	1
134521661	1	134517456	134517581	1
134521663	2	134517456	134517787	1
134521666	2	134517456	134517610	1
134521671	2	134517456	134517638	1
134521674	2	134517456	134517809	1
134521677	2	134517456	134517667	1
134521682	2	134517456	134517753	1
134521685	2	134517456	134517831	1
134521688	2	134517456	134517782	1
134521693	2	134517456	134517871	1
134521696	2	134517456	134518038	1
134521699	2	134517456	134517918	1
134521704	2	134517456	134517937	1
134521707	2	134517456	134518038	1
134521710	2	134517456	134517980	1
134521715	2	134517456	134518044	1
134521718	2	134517456	134518070	1
134521721	2	134517456	134518049	1
134521662	1	134517581	134517610	1
134521668	1	134517610	134517638	1
134521673	1	134517638	134517667	1
134521679	1	134517667	134517753	1
134521684	1	134517753	134517782	1
134521690	1	134517782	134517871	1
134521695	1	134517871	134517918	1
134521701	1	134517918	134517937	1
134521706	1	134517937	134517980	1
134521712	1	134517980	134518044	1
134521717	1	134518044	134518049	1
134521723	1	134518049	134518081	1
134521654	1	134521655	134521744	1
134521656	1	134521657	134521726	1
134516751	4	134529024	134516749	1
134516757	4	134529024	134529016	1
134517190	4	134529024	134517188	1
134517196	4	134529024	134518864	1
134517203	4	134529024	134518752	1
134518764	4	134529024	134518762	1
134518787	4	134529024	134528636	1
134518793	4	134529024	134528628	1
134518831	4	134529024	134528628	1
134518891	4	134529024	134518889	1
