134520832	134518320	0
134520832	134518432	0
134520832	134518512	0
134520832	134518544	0
134520832	134518672	0
134520832	134518720	0
134520832	134520929	0
134520832	134520944	0
134520832	134520968	0
134520832	134520979	0
134520832	134520988	0
134520832	134520996	0
134520832	134521032	0
134520832	134521044	0
134520832	134528752	0
134521652	134520944	0
134521652	134528752	0
134528628	134517152	0
134528628	134517440	0
134528636	134517392	0
134529024	134516806	0
134529024	134516822	0
134529024	134516838	0
134529024	134516854	0
134529024	134516870	0
134529024	134516886	0
134529024	134516902	0
134529024	134516918	0
134529024	134516934	0
134529024	134516950	0
134529024	134516966	0
134529024	134516982	0
134529024	134516998	0
134529024	134517014	0
134529024	134517030	0
134529024	134517046	0
134529024	134517062	0
134529024	134517078	0
134529024	134528760	0
134520832	134528640	8
134520832	134528704	8
